<svg xmlns="http://www.w3.org/2000/svg" width="86.282" height="70" viewBox="0 0 86.282 70">
  <g id="レイヤー_2" data-name="レイヤー 2" transform="translate(0 -0.005)">
    <g id="レイヤー_1" data-name="レイヤー 1" transform="translate(0 0.005)">
      <path id="パス_2686" data-name="パス 2686" d="M0,1.03C.4.311.962-.192,1.84.079s1.035.979,1.035,1.812q-.014,32.016,0,64.032v1.143h7.336V31.342c0-2.132.208-2.336,2.378-2.336h12.3c1.52,0,1.952.428,1.952,1.95v36.1H35.8V37.99c0-1.7.309-2,2.027-2H50.384c1.7,0,2.058.359,2.058,2.085V67.081h8.774V51c0-1.711.41-2.114,2.157-2.114H76.18c1.405,0,1.871.464,1.871,1.858V67.126h6.337c1.2,0,1.889.53,1.894,1.438s-.651,1.425-1.878,1.425H40.258q-19.128,0-38.253.016a1.994,1.994,0,0,1-2-1.057ZM23.9,67.082V31.941H13.147V67.082Zm14.807,0H49.527V38.912H38.718Zm36.407,0V51.806H64.133V67.082Z" transform="translate(0 -0.005)" fill="#5dc1cf"/>
      <path id="パス_2687" data-name="パス 2687" d="M165.283,63.433c1.233-.967,2.444-1.916,3.652-2.876q2.813-2.207,5.615-4.423a1.571,1.571,0,0,1,2.4,0q6.055,4.7,12.1,9.4c.241.18.489.359.911.683-.1-1.479-.192-2.795-.286-4.112-.036-.539-.093-1.062-.113-1.6-.04-1.023.449-1.671,1.29-1.743s1.49.581,1.573,1.612c.117,1.427.223,2.856.332,4.283s.216,2.8.325,4.2c.1,1.341-.408,1.914-1.745,2.006-2.885.2-5.769.415-8.652.625l-.252.02c-1.31.09-2.069-.4-2.1-1.359-.031-.908.62-1.407,1.928-1.5q2.394-.164,4.788-.349c.18-.014.359-.068.719-.135-4.051-3.154-7.989-6.215-11.991-9.324-.243.18-.489.359-.719.539l-8.4,6.621c-1.317,1.037-1.752,1.021-2.946-.12q-4.655-4.455-9.306-8.918a4.548,4.548,0,0,1-.413-.419,1.449,1.449,0,0,1,.018-1.919,1.369,1.369,0,0,1,1.966-.1c.983.879,1.923,1.808,2.876,2.721C160.974,59.3,163.1,61.337,165.283,63.433Z" transform="translate(-126.024 -44.433)" fill="#5dc1cf"/>
    </g>
  </g>
</svg>
