<svg xmlns="http://www.w3.org/2000/svg" width="104.841" height="86.685" viewBox="0 0 104.841 86.685">
  <g id="step" transform="translate(-720.652 -5797.136)">
    <path id="パス_972" data-name="パス 972" d="M379.914,148.571l.267.087c.058.173.119.174,0,.347h.089v-.087l.445.087-.089.26h.089c.123-.153.039-.226.178-.087h.089v.087h-.089l.089.434.178-.087-.089.26s.189.012.089.087h-.178c-.1.1,0,.034-.178.087v.174h-.178c-.094.047-.095.3-.356.26l-.089-.087.089.26h-.089l-.356.434h-.178v.26a.9.9,0,0,1-.356-.087l.089.26h-.089c-.1.1,0,.034-.178.087-.065.239-.025.194-.267.26v.174h-.178c-.065.239-.025.194-.267.26-.059.217-.048.14-.178.26v.087h-.178l-.178.347-.267-.087c.108.389.1.181-.178.434l-.089.174-.178-.087.089.174h-.178l-.089.174H376.8l-.267.347-.267-.174c.09.271.05.132,0,.434h-.178l-.267.434-.267.087v.174h-.089v.087c-.206.169-.16-.093-.267.26a.708.708,0,0,0-.356.174v.087c-.177.015-.064-.133-.178,0h.089v.087h-.089l-.623.521v.087l-.267-.087v.087h.089l-.089.347h-.089v-.087l-.267.174v.174h-.089a.346.346,0,0,0-.178-.174c.1.316-.009.261-.089.607h-.178v.174H372.7c-.076.273-.177.281-.356.434v.087l-.267.087v.174H371.9v.174h-.267v.174c-.125.2-.317-.008-.445.434h-.178c-.121.064-.332.556-.445.347h-.089v.087c.076.1.076-.035.089.087l-.089.174-.178-.087v.087c.1.1.036,0,.089.174h-.267v.087c-.1.1-.036,0-.089.174l-.267.087v.087l-.178-.087v.087h.089l.089.174h-.178v.174l-.267-.087.089.174c-.008.139-.108.1-.178.174l-.089.174-.267-.087v.087c.037.05.145.012.089.174h-.089c-.1.1,0,.034-.178.087v.26h-.178c-.121.067-.235.563-.356.347h-.089v.087c.1.1.036,0,.089.174h-.178v-.087c-.163.015-.17.186-.267.26l-.178-.087v.087h.089v.087h.267v.087c-.153.1-.12.055-.178.26h-.178c-.319.533-1.066.825-1.247,1.475l-.267-.087.089.174h-.178l.089.26h-.089c-.109.144-.111.237-.356.26v-.087h-.089c-.048.113.042.036.089.087l-.089.347h-.356l-.089.174h.089c.1-.1,0-.035.178-.087v.174h-.178c-.108.065-.106.331-.178.434l-.178.087v.087l-.178.087v.174h-.089a.668.668,0,0,0-.178.347h-.178l-.089.26-.178-.087a.429.429,0,0,1-.089.521l-.178-.087-.089.347h-.089a.971.971,0,0,0-.267.434h-.178c-.057.237-.117.2-.178.434l-.267-.087c.1.268.171.255-.089.434v.087l-.178-.087v.087h.089c.076.15-.138.437-.178.521l-.178-.087v.087c.253.254.009.52-.089.694h.089v-.087h.267l.089.347h.089c.048.229-.191.468-.267.607l-.356-.174v.087h.089c.168.075-.178.087-.178.087-.1-.1,0-.035-.178-.087l.089-.26h-.089c-.1.149-.056.117-.267.174l.089-.174H361.3c-.1.1,0,.034-.178.087l.089-.26h-.089c-.1.1,0,.034-.178.087-.057-.238-.117-.2-.178-.434l.267.087v-.087h-.089l.178-.26h-.089c-.1.074.036.073-.089.087l-.178-.087v.087h.089c.168.074-.178.087-.178.087l-.267-1.128.267-.087V168.7h.089l-.089-.174h.089v-.087l.178.087v-.087h-.089c-.076-.226.226-.265.267-.347v-.26h.178c.107-.241.107-.31.445-.347v.087h.089l-.089-.26a.874.874,0,0,1,.356.087l-.178-.26h.178v-.174h.178l.089-.347a.874.874,0,0,1,.356.087.737.737,0,0,1-.089-.607c.091-.067.088-.107.178-.174a.354.354,0,0,0,.178.174v-.087H362.9v-.434a.874.874,0,0,1,.356.087c-.085-.132-.174-.148-.267-.26.491-.058.429-.307.98-.347l.089-.26h.089v.087h.089l-.089.174h.089v-.087l.178.087-.089-.26.178.087V164.8h-.089c-.164-.082.178-.087.178-.087v.087h.089l-.089-.26c-.244.056-.2.114-.445.174a.694.694,0,0,1,.178-.347h.089v-.347l.267-.174c.166-.266-.161-.229.267-.347l-.089.26h.089c.119-.14.254-.18.356-.347l-.267.087v-.087c-.1-.1-.036,0-.089-.174l.267.087a.829.829,0,0,1,.089-.347,1.993,1.993,0,0,0,.356-.087l.089.087a.913.913,0,0,1-.089-.347l.267.087v-.087h-.089c-.164-.082.178-.087.178-.087v.087h.089v-.087l-.089-.087.356-.26v-.174l.178-.087c.186-.286-.073-.406.356-.521v-.26l.178.087v-.087H367v-.087h.089c.1-.269.077-.088,0-.347h.356l.089-.174.267.087v-.087h-.089c-.072-.153.052-.278.089-.347h.089v-.347c.187-.025.253,0,.356-.087v-.174l.178.087-.089-.26h.089a.417.417,0,0,0,.356.26l.089-.26-.267.087v-.087h-.089v-.26h.178v-.174h.178l-.089-.174h.089l.267-.347.267.087a.912.912,0,0,1-.089-.347c.312-.048.165-.085.445,0l-.089-.26.178.087-.089-.26a1.334,1.334,0,0,1,.534.087l-.089-.26h.267a.834.834,0,0,1-.089.347h.089v-.087h.089a.965.965,0,0,1,.178-.174l-.089-.26h.089l.089-.347c.217.049.2.09.356.174v-.087H371.1l.089-.434h.178l-.089-.26h.089c.183-.2.158-.132.356-.087v-.087c-.1-.1-.036,0-.089-.174l.178-.087v-.087l.178.087v-.087H371.9l.089-.26.267-.087v.087l.356.087v.087a.655.655,0,0,1-.356-.087v.087c.076.056.177.044.178.174l-.089.087h.089v-.087l.267.174v-.087h-.089l.089-.434.178.087v-.087h-.089v-.26a.351.351,0,0,0,.178-.174l.089.087c.171.046.122-.051.178-.087l.267.087v-.087l-.089-.087h.178c.094-.1.064-.166.089-.347l.267-.087.089.087c-.1-.181-.143-.154-.178-.434h.178a1.54,1.54,0,0,1,.267-.26v-.087h-.089l.089-.174.267.087v-.087c-.1-.1-.036,0-.089-.174l.178-.087v-.087h.089v.087c.1.1.036,0,.089.174l.267.087-.178-.26h.089l.089-.521.267-.087.178-.347c.217.049.2.09.356.174v-.174h.089v-.087l-.178.087v-.26c.289.028.262.079.445.174v-.087h-.089l.089-.174h.089v.087h.089c.082.145-.059.282-.089.347h.089v-.087l.356.087v-.087l-.267-.087a.863.863,0,0,0-.089-.434h.089v-.087l.267.087v-.087h-.089c-.164-.082.178-.087.178-.087v.087h.089l-.178-.26-.267.174v-.174h.089V151.7h.267v-.174h.267v-.087h.089v-.347h.178v-.174l.178.087c.067-.056-.1-.232.089-.174v.087l.178.087v-.087c.11-.1.074-.019,0-.174h.178l-.089-.26h.089c.1.1,0,.034.178.087a1.794,1.794,0,0,0-.089-.347l.089-.087c.1.1.036,0,.089.174h.089c.08.158-.061.268-.089.347h.089v-.087l.267.174a2.251,2.251,0,0,1-.178-1.041h.178c.068-.029.036-.191.178-.174l.089.087v-.087h-.089l.089-.174.178.087v-.087h-.089c-.164-.082.178-.087.178-.087v.087h.089A.912.912,0,0,1,379.2,149l.267.087.089-.347h.178l-.089.174h.089c.058-.074.046-.173.178-.174l.089.087Z" transform="matrix(0.966, -0.259, 0.259, 0.966, 412.976, 5752.286)" fill="#5dc1cf"/>
    <path id="パス_973" data-name="パス 973" d="M361.685,148.571l-.267.087c-.058.173-.12.174,0,.347h-.089v-.087l-.445.087.089.26h-.089c-.123-.153-.039-.226-.178-.087h-.089v.087h.089l-.089.434-.178-.087.089.26s-.189.012-.089.087h.178c.1.1,0,.034.178.087v.174h.178c.094.047.095.3.356.26l.089-.087-.089.26h.089l.356.434h.178v.26a.9.9,0,0,0,.356-.087l-.089.26h.089c.1.1,0,.034.178.087.065.239.024.194.267.26v.174h.178c.065.239.024.194.267.26.059.217.048.14.178.26v.087h.178l.178.347.267-.087c-.108.389-.1.181.178.434l.089.174.178-.087-.089.174h.178l.089.174h.178l.267.347.267-.174c-.09.271-.05.132,0,.434h.178l.267.434.267.087v.174h.089v.087c.206.168.16-.093.267.26a.708.708,0,0,1,.356.174v.087c.177.015.064-.133.178,0h-.089v.087h.089l.623.521v.087l.267-.087v.087h-.089l.089.347h.089v-.087l.267.174v.174h.089a.346.346,0,0,1,.178-.174c-.1.316.009.261.089.607h.178v.174h.178c.076.273.177.281.356.434v.087l.267.087v.174h.178v.174h.267v.174c.125.2.317-.008.445.434h.178c.121.064.333.556.445.347h.089v.087c-.076.1-.076-.035-.089.087l.089.174.178-.087v.087c-.1.1-.036,0-.089.174h.267v.087c.1.1.036,0,.089.174l.267.087v.087l.178-.087v.087h-.089l-.089.174h.178v.174l.267-.087-.089.174c.008.139.108.1.178.174l.089.174.267-.087v.087c-.037.05-.145.012-.089.174h.089c.1.1,0,.034.178.087v.26h.178c.121.067.234.563.356.347h.089v.087c-.1.1-.036,0-.089.174h.178v-.087c.163.015.17.186.267.26l.178-.087v.087h-.089v.087h-.267v.087c.153.1.12.055.178.26h.178c.319.533,1.066.825,1.247,1.475l.267-.087-.089.174h.178l-.089.26h.089c.109.144.111.237.356.26v-.087h.089c.048.113-.042.036-.089.087l.089.347h.356l.089.174h-.089c-.1-.1,0-.035-.178-.087v.174h.178c.108.065.106.331.178.434l.178.087v.087l.178.087v.174h.089a.669.669,0,0,1,.178.347h.178l.089.26.178-.087a.429.429,0,0,0,.089.521l.178-.087.089.347h.089a.971.971,0,0,1,.267.434h.178c.057.237.117.2.178.434l.267-.087c-.1.268-.171.255.089.434v.087l.178-.087v.087h-.089c-.076.15.138.437.178.521l.178-.087v.087c-.253.254-.009.52.089.694h-.089v-.087h-.267l-.089.347h-.089c-.048.229.191.468.267.607l.356-.174v.087h-.089c-.168.074.178.087.178.087.1-.1,0-.035.178-.087l-.089-.26h.089c.1.149.056.117.267.174l-.089-.174h.089c.1.1,0,.034.178.087l-.089-.26h.089c.1.1,0,.034.178.087.057-.238.117-.2.178-.434l-.267.087v-.087h.089l-.178-.26h.089c.1.075-.036.073.089.087l.178-.087v.087h-.089c-.168.074.178.087.178.087l.267-1.128-.267-.087V168.7h-.089l.089-.174h-.089v-.087l-.178.087v-.087h.089c.076-.226-.226-.265-.267-.347v-.26H380.3c-.107-.241-.107-.31-.445-.347v.087h-.089l.089-.26a.874.874,0,0,0-.356.087l.178-.26H379.5v-.174h-.178l-.089-.347a.874.874,0,0,0-.356.087.737.737,0,0,0,.089-.607c-.091-.067-.088-.107-.178-.174a.354.354,0,0,1-.178.174v-.087h.089v-.434a.874.874,0,0,0-.356.087c.085-.132.174-.148.267-.26-.491-.058-.429-.307-.98-.347l-.089-.26h-.089v.087h-.089l.089.174h-.089v-.087l-.178.087.089-.26-.178.087V164.8h.089c.164-.082-.178-.087-.178-.087v.087h-.089l.089-.26c.244.056.2.114.445.174a.694.694,0,0,0-.178-.347h-.089v-.347l-.267-.174c-.166-.266.161-.229-.267-.347l.089.26h-.089c-.119-.14-.254-.18-.356-.347l.267.087v-.087c.1-.1.036,0,.089-.174l-.267.087a.829.829,0,0,0-.089-.347,1.994,1.994,0,0,1-.356-.087l-.089.087a.912.912,0,0,0,.089-.347l-.267.087v-.087h.089c.164-.082-.178-.087-.178-.087v.087h-.089v-.087l.089-.087-.356-.26v-.174l-.178-.087c-.186-.286.073-.406-.356-.521v-.26l-.178.087v-.087h.089v-.087h-.089c-.1-.269-.077-.088,0-.347h-.356l-.089-.174-.267.087v-.087h.089c.072-.153-.052-.278-.089-.347h-.089v-.347c-.187-.025-.253,0-.356-.087v-.174l-.178.087.089-.26h-.089a.417.417,0,0,1-.356.26l-.089-.26.267.087v-.087h.089v-.26h-.178v-.174h-.178l.089-.174h-.089l-.267-.347-.267.087a.913.913,0,0,0,.089-.347c-.312-.048-.165-.085-.445,0l.089-.26-.178.087.089-.26a1.334,1.334,0,0,0-.534.087l.089-.26h-.267a.835.835,0,0,0,.089.347h-.089v-.087h-.089a.965.965,0,0,0-.178-.174l.089-.26h-.089l-.089-.347c-.217.049-.2.09-.356.174v-.087h.089l-.089-.434h-.178l.089-.26h-.089c-.183-.2-.158-.132-.356-.087v-.087c.1-.1.036,0,.089-.174l-.178-.087v-.087l-.178.087v-.087h.089l-.089-.26-.267-.087v.087l-.356.087v.087a.655.655,0,0,0,.356-.087v.087c-.076.056-.177.044-.178.174l.089.087h-.089v-.087l-.267.174v-.087h.089l-.089-.434-.178.087v-.087h.089v-.26a.351.351,0,0,1-.178-.174l-.089.087c-.171.046-.122-.051-.178-.087l-.267.087v-.087l.089-.087h-.178c-.094-.1-.064-.166-.089-.347l-.267-.087-.089.087c.1-.181.143-.154.178-.434h-.178a1.541,1.541,0,0,0-.267-.26v-.087h.089l-.089-.174-.267.087v-.087c.1-.1.036,0,.089-.174l-.178-.087v-.087h-.089v.087c-.1.1-.036,0-.089.174l-.267.087.178-.26h-.089l-.089-.521-.267-.087-.178-.347c-.217.049-.2.09-.356.174v-.174H365.6v-.087l.178.087v-.26c-.289.028-.262.079-.445.174v-.087h.089l-.089-.174h-.089v.087h-.089c-.082.145.059.282.089.347h-.089v-.087l-.356.087v-.087l.267-.087a.863.863,0,0,1,.089-.434h-.089v-.087l-.267.087v-.087h.089c.164-.082-.178-.087-.178-.087v.087h-.089l.178-.26.267.174v-.174h-.089V151.7h-.267v-.174h-.267v-.087h-.089v-.347h-.178v-.174L364,151c-.067-.056.1-.232-.089-.174v.087l-.178.087v-.087c-.11-.1-.074-.019,0-.174h-.178l.089-.26h-.089c-.1.1,0,.034-.178.087a1.792,1.792,0,0,1,.089-.347l-.089-.087c-.1.1-.036,0-.089.174H363.2c-.08.158.061.268.089.347H363.2v-.087l-.267.174a2.252,2.252,0,0,0,.178-1.041h-.178c-.068-.029-.036-.191-.178-.174l-.089.087v-.087h.089l-.089-.174-.178.087v-.087h.089c.164-.082-.178-.087-.178-.087v.087h-.089A.914.914,0,0,0,362.4,149l-.267.087-.089-.347h-.178l.089.174h-.089c-.058-.074-.046-.173-.178-.174l-.089.087Z" transform="matrix(0.966, -0.259, 0.259, 0.966, 334.071, 5773.609)" fill="#5dc1cf"/>
    <path id="パス_2708" data-name="パス 2708" d="M22.624-17.276a2.851,2.851,0,0,0-.364-1.26,1.338,1.338,0,0,0-.784-.672,1.407,1.407,0,0,1-.364-.14,4.093,4.093,0,0,0-.56-.14,15.344,15.344,0,0,0-2.268.056c-.112,0-.2.056-.28.056a1.405,1.405,0,0,1-.336.056.734.734,0,0,0-.42.056,1.891,1.891,0,0,1-.392.056c-.224.056-.476.084-.7.14-.532.14-1.036.28-1.54.392a.994.994,0,0,0-.252.112,4.562,4.562,0,0,1-.868.308,1.477,1.477,0,0,0-.336.084,17.688,17.688,0,0,0-1.68.7,11.95,11.95,0,0,0-1.876.98,8.979,8.979,0,0,1-.868.532,3.179,3.179,0,0,0-.644.42,1.2,1.2,0,0,1-.28.252,7.309,7.309,0,0,0-1.26,1.2,4.215,4.215,0,0,0-1.064,3.136A3.627,3.627,0,0,0,6.58-8.708,10.639,10.639,0,0,0,8.82-7.084c.868.5,1.708.98,2.576,1.512a19.064,19.064,0,0,1,2.212,1.484,7.831,7.831,0,0,1,1.82,2.016,3.193,3.193,0,0,1,.42.952.818.818,0,0,1,.056.252.138.138,0,0,1-.112.168A.953.953,0,0,1,15.4-.756a8.152,8.152,0,0,0-1.428-.336c-.364-.056-.728-.168-1.092-.224A12.426,12.426,0,0,0,10-1.372c-.392.028-.812.056-1.2.112a6.432,6.432,0,0,0-1.764.392,1.579,1.579,0,0,1-.336.112,1.032,1.032,0,0,0-.476.14,4.083,4.083,0,0,1-1.148.448l-.224.084C4.4.168,3.92.392,3.472.672c-.42.252-.784.56-1.176.812A5.659,5.659,0,0,0,.532,3.36a3.394,3.394,0,0,0-.5,2.128A4.5,4.5,0,0,0,.252,6.552a3.1,3.1,0,0,0,.784,1.26A4.355,4.355,0,0,0,3.584,8.96a7.53,7.53,0,0,0,2.744-.14c.28-.056.56-.084.84-.112a5.3,5.3,0,0,1,.588-.252A20.467,20.467,0,0,0,9.94,7.644l1.008-.5A17.032,17.032,0,0,0,14.56,4.788a1.71,1.71,0,0,0,.5-.588,1.723,1.723,0,0,0,.672-.672c-.028,0-.084.056-.112,0-.056-.028-.028-.084,0-.112a2.682,2.682,0,0,0,.476-.672c.112-.14.2-.308.308-.448a.736.736,0,0,0,.2-.42,1.038,1.038,0,0,1,.112-.392.307.307,0,0,1,.42-.168,9.173,9.173,0,0,1,2.156,1.092A2.472,2.472,0,0,1,19.908,3a.416.416,0,0,1,.084.392l-.084.2a3.8,3.8,0,0,0-.084.812.1.1,0,0,0,.112.112.661.661,0,0,0,.756-.364,1.181,1.181,0,0,0,.084-.532,5.216,5.216,0,0,0-.2-.952,2.889,2.889,0,0,0-.728-1.232,6.113,6.113,0,0,0-1.2-.9A12.438,12.438,0,0,0,17.276-.14c-.448-.168-.448-.168-.56-.672a9.841,9.841,0,0,0-1.148-2.6,9.743,9.743,0,0,0-2.1-2.184,24.763,24.763,0,0,0-2.912-1.9L8.624-8.624A11.348,11.348,0,0,1,7.14-9.6a5.6,5.6,0,0,1-.616-.532.672.672,0,0,1-.168-.42,1.5,1.5,0,0,1,.2-.924c-.112-.112-.056-.224-.028-.336a2.676,2.676,0,0,1,.868-1.2A.169.169,0,0,0,7.56-13.1H7.476a1.691,1.691,0,0,1,.672-.728,3.233,3.233,0,0,0,.924-.588,9.145,9.145,0,0,1,1.008-.7,20.681,20.681,0,0,1,2.072-1.064c.532-.224,1.064-.448,1.6-.644,1.008-.336,2.016-.644,3.052-.9a11.836,11.836,0,0,1,3.136-.336,5.347,5.347,0,0,1,1.316.2,1.7,1.7,0,0,1,.5.252.227.227,0,0,1,.084.28,1.733,1.733,0,0,1-.308.476,8.639,8.639,0,0,1-1.764,1.736,4.56,4.56,0,0,1-.476.308l-.616.42a.43.43,0,0,0-.168.392c.056.2.112.28.308.224a2.415,2.415,0,0,0,.784-.308c.168-.084.336-.168.476-.252l.084-.084v.084h-.084l.084.084a.612.612,0,0,0-.084.14,2.312,2.312,0,0,0,.616-.392h-.14a.612.612,0,0,0,.14-.084l.084-.084v.028a1.742,1.742,0,0,1,.532-.392.674.674,0,0,1,.168-.224,9.433,9.433,0,0,0,.812-.98A1.269,1.269,0,0,0,22.624-17.276Zm-1.848-1.708c-.112.028-.252-.056-.308.14H20.3a8.157,8.157,0,0,0-1.652.056,11.016,11.016,0,0,0-1.344.168,5.415,5.415,0,0,1-1.176.168,1.456,1.456,0,0,1-.756.14.844.844,0,0,0-.588.14,2.209,2.209,0,0,1-.924.364c-.056.028-.056-.056-.028-.084a1.537,1.537,0,0,1,.588-.336c.616-.168,1.2-.364,1.82-.5a23.025,23.025,0,0,1,2.352-.42,11.973,11.973,0,0,1,1.736,0,1.7,1.7,0,0,1,.672.168Zm-2.632.084a2.409,2.409,0,0,1,.448-.028A.817.817,0,0,0,18.144-18.9Zm0,0a2.035,2.035,0,0,0-.7.112A5.226,5.226,0,0,0,18.144-18.9ZM17-18.7v-.028l-.028.028Zm-.476.084c.028,0,.056,0,.028-.028A.027.027,0,0,0,16.52-18.62Zm0,0a.1.1,0,0,0-.084.028C16.464-18.592,16.492-18.62,16.52-18.62Zm-.084.028c-.084.028-.2.028-.308.056A1.007,1.007,0,0,0,16.436-18.592Zm4.088.392a10.85,10.85,0,0,0-1.652.028,8.814,8.814,0,0,0-1.2.14,18.55,18.55,0,0,0-2.156.5c-.224.084-.476.14-.7.224a9.995,9.995,0,0,0-1.288.448,3.012,3.012,0,0,1-.868.2.86.86,0,0,1,.42-.28A30.606,30.606,0,0,1,17.5-18.2a11.667,11.667,0,0,1,2.6-.2,2.119,2.119,0,0,1,.42.028c.14.028.308,0,.42.14C20.8-18.144,20.664-18.2,20.524-18.2Zm-7.784.756a1.174,1.174,0,0,1,.616-.224,1.041,1.041,0,0,1-.616.224,1.37,1.37,0,0,1-.784.308A1.6,1.6,0,0,1,12.74-17.444ZM10-16.1c-.336.2-.672.42-1.036.616a.1.1,0,0,1-.084.028c-.056-.056,0-.084.056-.112a4.275,4.275,0,0,1,1.26-.7c.028-.028.028-.056.056-.056a4.026,4.026,0,0,1,1.568-.728,8.681,8.681,0,0,1-1.624.784A1.218,1.218,0,0,0,10-16.1Zm2.436-.42a.214.214,0,0,1,.056-.14A.1.1,0,0,1,12.432-16.52Zm-.7.308v-.056c.168-.028.252-.168.392-.252a.612.612,0,0,1,.14.084v-.084a.252.252,0,0,1,.14.028c-.056,0-.084.028-.14.056A.662.662,0,0,1,11.732-16.212Zm-.728.42-.028-.028c.028-.028.028-.028.028,0Zm-1.652.952c-.112.028.056-.112.28-.2A.4.4,0,0,1,9.352-14.84Zm10.332.2a.61.61,0,0,1-.224.14c-.056.056-.112.14-.2.168-.028,0-.056-.028-.084-.028a.1.1,0,0,1,.028-.056l.252-.084a.61.61,0,0,1,.224-.14.661.661,0,0,1,.252-.168A.408.408,0,0,1,19.684-14.644Zm1.092.056h-.084v.084Zm-.7.476a.612.612,0,0,0-.14.084A.612.612,0,0,0,20.076-14.112Zm-.14.084a1,1,0,0,0-.616.308A1.286,1.286,0,0,0,19.936-14.028Zm-.616.308c-.084.028-.168.028-.252.056A.818.818,0,0,0,19.32-13.72Zm-.336.112h.028l.056-.056c-.028.028-.028.028-.056.028S18.956-13.608,18.984-13.608Zm-11.312.392-.028.028h.028ZM7.14-.5c.588-.168,1.2-.308,1.792-.42a12.2,12.2,0,0,1,3.192-.084c.784.056,1.54.252,2.3.364a.237.237,0,0,0,.168.056c-.112.084-.2.028-.28.028a1,1,0,0,1-.28-.056,11.017,11.017,0,0,0-1.68-.2.508.508,0,0,1-.364.084h-1.12a15.711,15.711,0,0,0-2.548.252c-.252.056-.5.084-.756.14V-.42H7.476c-.028,0-.028.028-.028.056h.084L7.364-.28C7.224-.224,7.112-.2,7-.308c-.028-.056-.112-.028-.168-.056A3.285,3.285,0,0,1,7.14-.5ZM9.576-.812c.28-.028.56-.028.812-.028A2,2,0,0,0,9.576-.812Zm2.1-.028c.224,0,.448.028.672.028A1.368,1.368,0,0,0,11.676-.84ZM8.652-.672a5.268,5.268,0,0,0,.924-.14A3.521,3.521,0,0,0,8.652-.672ZM12.684-.7c.028-.028.028-.028.028,0l-.028.028C12.684-.7,12.656-.7,12.684-.7ZM8.652-.672H8.568c-.028,0-.056.028-.084.028h.084C8.6-.644,8.624-.672,8.652-.672Zm-.476.084a1.191,1.191,0,0,0,.308-.056A.554.554,0,0,0,8.176-.588ZM7.56-.42a1.554,1.554,0,0,0,.616-.168A.981.981,0,0,0,7.56-.42ZM4.088.952C4.2.756,4.452.7,4.62.56V.588L4.928.42,5.1.336h.056c.168,0,.224-.224.336-.224.14-.028.252.028.364-.084H6.16A2.8,2.8,0,0,0,6.552-.2c0-.028,0-.028-.028-.056L6.552-.28V-.2c.028.028.084.028.056.084-.028.028-.056.056-.084.056L6.16.028A.667.667,0,0,1,5.852.2C5.4.392,4.928.588,4.48.812a3.4,3.4,0,0,1-.392.14,1.013,1.013,0,0,1-.5.28A.71.71,0,0,1,4.088.952Zm11.424-.5c.028,0,.084.028.056.056,0,.028-.056.028-.084.028A18.4,18.4,0,0,0,13.328.084q-1.05-.126-2.1-.168A16.316,16.316,0,0,0,9.184.084a12.41,12.41,0,0,0-2.24.532c-.5.168-1.008.364-1.512.532a3.333,3.333,0,0,0-.42.252,2.765,2.765,0,0,1-.784.336.281.281,0,0,1,.168-.28,5.445,5.445,0,0,1,.84-.364c.168-.056.336-.14.476-.2A4.9,4.9,0,0,1,6.916.42a18.585,18.585,0,0,1,2.072-.5,12.867,12.867,0,0,1,4.144-.028A22.614,22.614,0,0,1,15.512.448Zm0,.9A6.034,6.034,0,0,1,14.028,3.22l-.448.42a15.381,15.381,0,0,1-1.932,1.4c-.392.252-.84.476-1.26.7a5.864,5.864,0,0,0-.784.476,1.252,1.252,0,0,1-.784.252.563.563,0,0,0-.364.112,2.309,2.309,0,0,1-.728.28,1.579,1.579,0,0,0-.336.112,2.686,2.686,0,0,1-.952.28c-.056,0-.112.028-.2.028A7.819,7.819,0,0,1,3.7,7.532,5.965,5.965,0,0,1,1.988,7.2a3.549,3.549,0,0,1-.644-.336A.946.946,0,0,1,.98,6.244a1.523,1.523,0,0,1,0-.5,1.637,1.637,0,0,0,.112-.532A.346.346,0,0,1,1.2,4.984h.028a.188.188,0,0,1-.084-.224,1.516,1.516,0,0,1,.448-.7c.112,0,.112,0,.084-.084A1.031,1.031,0,0,1,2.3,3.36a1.2,1.2,0,0,0,.5-.42c-.112-.056-.168,0-.252.028a.58.58,0,0,1,.364-.252.834.834,0,0,0,.5-.224,14.535,14.535,0,0,1,1.82-1.036A13.628,13.628,0,0,1,9.66.168l.756-.084a9.12,9.12,0,0,1,1.96.084L13.1.252a5.346,5.346,0,0,1,.924.168c.392.112.784.168,1.176.252C15.68.812,15.736.924,15.512,1.344Zm-12.124,0a.587.587,0,0,1-.224.168A.435.435,0,0,1,3.388,1.344Zm-.672.392A1.563,1.563,0,0,1,2.94,1.6l.2-.084a1.326,1.326,0,0,1-.364.308c-.028,0-.056-.028-.084-.028A.087.087,0,0,1,2.716,1.736ZM16.1,3.08a.027.027,0,0,0,.028-.028C16.128,3.024,16.1,3.024,16.1,3.08Zm-.028.056c0-.028.028-.028.028-.056C16.072,3.08,16.072,3.108,16.072,3.136Zm-2.184.924a3.209,3.209,0,0,1,.616-.616A1.108,1.108,0,0,1,13.888,4.06Zm1.932-.616-.056.056a.027.027,0,0,1-.028.028h.028C15.792,3.5,15.82,3.472,15.82,3.444Zm-.588.476-.084.056c0-.028.028-.056.056-.084h.056Zm-1.792.532a.1.1,0,0,1,.028-.056l.028-.028c.028.028.028.028,0,.056C13.468,4.424,13.468,4.424,13.44,4.452Zm.84.308a3.988,3.988,0,0,1-1.036.9c-.308.168-.588.364-.868.532A19.3,19.3,0,0,1,6.916,8.54a8.32,8.32,0,0,1-2.044.224c.056-.112.168-.056.252-.084a1.191,1.191,0,0,1,.308-.056,15.2,15.2,0,0,0,4.256-1.26A17.1,17.1,0,0,0,11.452,6.5,9.83,9.83,0,0,0,13.3,5.32a2.47,2.47,0,0,1,.532-.336c0-.028.028-.056.056-.084v.084l.084-.084a3.285,3.285,0,0,0,.308-.14.685.685,0,0,1,.308-.252A.4.4,0,0,1,14.28,4.76Zm-1.652.14h.2a.3.3,0,0,1,.252-.28,1.17,1.17,0,0,0,.28-.112.926.926,0,0,1-.532.392.587.587,0,0,1-.308.224C12.46,4.956,12.488,4.9,12.628,4.9ZM5.8,7.9a3.085,3.085,0,0,1-.5.056c-.056,0-.112,0-.14-.056a.267.267,0,0,1,.2-.056,12.16,12.16,0,0,0,3-.812,17.487,17.487,0,0,0,3.192-1.512l.448-.252a.293.293,0,0,1,.364.028,4.408,4.408,0,0,1-.9.672,19.473,19.473,0,0,1-4.228,1.82,4.606,4.606,0,0,1-.9.14c-.028,0-.056.028-.084.028,0,0-.028.028-.028,0-.028,0,0-.028.028-.028h.084a3.054,3.054,0,0,1,.308-.168C6.356,7.812,6.076,7.868,5.8,7.9ZM11.34,5.824a.4.4,0,0,0,.168-.056A.4.4,0,0,0,11.34,5.824Zm-.476.252h.028c.056-.028.084-.056.14-.084Zm.028,0a.442.442,0,0,0-.224.14A1.563,1.563,0,0,0,10.892,6.076Zm-.7.392.168-.084A.612.612,0,0,1,10.5,6.3l-.168.084c-.028.028-.084.028-.14.056l-.168.084a.612.612,0,0,1-.14.084l.168-.084A.214.214,0,0,1,10.192,6.468Zm-.476.224a.659.659,0,0,1-.224.056.612.612,0,0,0-.14.084c.056-.028.084-.056.14-.056Zm-.532.224c-.084.028-.14.056-.224.084ZM8.96,7a.4.4,0,0,1-.168.056l-.224.084a.659.659,0,0,1,.224-.056ZM7.7,7.448c.084-.028.168-.028.252-.056A.818.818,0,0,0,7.7,7.448Zm-.448.168a1.929,1.929,0,0,0,.224-.084Zm0,0a1.445,1.445,0,0,1-.308.056l-.308.084A1.007,1.007,0,0,1,6.944,7.7Zm33.684-21.2c-.028-.168-.084-.308-.112-.448a.866.866,0,0,0-.672-.756,10.251,10.251,0,0,0-2.6-.532c-.14,0-.252-.028-.392-.028a2.451,2.451,0,0,0-.448-.056c-.672-.056-1.316-.14-1.96-.14-.476-.028-.924-.084-1.4-.084a1.067,1.067,0,0,1-.42-.028c-.28-.084-.308-.2-.2-.448.028-.028.028-.084.056-.112,0-.112,0-.112.084-.084a1.407,1.407,0,0,0,.336-.224c.084-.084.168-.14.168-.252.028-.252.224-.336.42-.448l.084-.084.14-.14a6.216,6.216,0,0,1,.924-.784.741.741,0,0,1,.532-.336.269.269,0,0,0,.252-.168c.028-.14.14-.168.252-.2a1.6,1.6,0,0,0,.588-.364c.056-.056.14-.112.14-.224.028-.168.168-.252.28-.336a3.578,3.578,0,0,1,.588-.392v.028l.084-.084a1.69,1.69,0,0,1,.224-.224c.364-.336.364-.448.14-.868a.324.324,0,0,0-.392-.168,5.221,5.221,0,0,0-.56.28l-1.12.756c-.392.336-.812.616-1.232.924-.644.476-1.232.98-1.82,1.484l-.672.588a13.681,13.681,0,0,0-1.288,1.26,1.508,1.508,0,0,1-1.148.5,10.762,10.762,0,0,1-1.344,0,4.536,4.536,0,0,0-.616.028,1.938,1.938,0,0,1-.7.028,2.409,2.409,0,0,0-.448-.028c-.308,0-.588.056-.9.056-.616-.028-1.232.112-1.848.056a.818.818,0,0,0-.252.056,4.79,4.79,0,0,1-1.092.084c-.112,0-.224.028-.336.028-.532.084-1.036.168-1.568.224-.42.056-.812.14-1.232.224l-2.184.5a5.073,5.073,0,0,0-.868.252c-.364.14-.728.28-1.092.392a1.619,1.619,0,0,0-.392.14c-.112.056-.2.14-.084.252a.337.337,0,0,1,.056.224c0,.28.084.364.364.252h.056a18.059,18.059,0,0,1,2.1-.616,40.571,40.571,0,0,1,7.336-1.008c1.2-.056,2.408-.084,3.612-.056h.308c.056,0,.14,0,.168.084.028.056-.028.112-.168.112H26.208c-.868.028-1.736.084-2.576.14-.728.056-1.456.14-2.156.2q-1.344.168-2.688.42c-.924.2-1.848.392-2.772.672a.982.982,0,0,0-.392.168,2.974,2.974,0,0,0,.532-.112c.616-.168,1.2-.336,1.848-.448q1.386-.294,2.856-.5c1.12-.14,2.268-.252,3.416-.336,1.288-.056,2.576-.112,3.864-.084h.252a.159.159,0,0,1,.112.2.4.4,0,0,1-.056.168c-.252.28-.5.532-.784.812a3.741,3.741,0,0,0-.56.588,6.059,6.059,0,0,1-1.12,1.12,1.046,1.046,0,0,0-.2.168,9.282,9.282,0,0,1-.728.756,1.2,1.2,0,0,0-.252.28,3.826,3.826,0,0,1-.644.7c-.392.364-.728.756-1.092,1.148a11.323,11.323,0,0,1-1.316,1.512l-.084.084c-.42.56-.868,1.092-1.288,1.652a4,4,0,0,0-.392.56c-.392.56-.756,1.12-1.12,1.68a9.555,9.555,0,0,0-.476.924.936.936,0,0,0-.056.728,4.825,4.825,0,0,0,.2.588,1.159,1.159,0,0,0,.644.616.714.714,0,0,0,.672,0A7.99,7.99,0,0,0,21.14-.56c.532-.2,1.036-.392,1.568-.532a20.144,20.144,0,0,0,2.212-.672,10.126,10.126,0,0,0,.98-.364l.868-.336c.336-.112.672-.252,1.008-.392.056-.028.14-.056.14-.14a.794.794,0,0,0-.364.112c-1.176.448-2.38.924-3.612,1.26-1.176.336-2.324.728-3.472,1.176-.2.084-.392.14-.616.224a.547.547,0,0,0-.2.028c-.028,0-.084-.028-.084-.056a.212.212,0,0,1,.056-.112l.252-.084c.336-.112.672-.252.98-.364.588-.224,1.176-.448,1.764-.616,1.036-.28,2.044-.616,3.052-.98.616-.2,1.232-.448,1.848-.672a.763.763,0,0,0,.336-.168.166.166,0,0,0,.028-.2c-.028-.028-.056-.084-.112-.084-.084.028-.2.028-.28.056l-.868.28a3.059,3.059,0,0,1-.476.14V-3.08A.452.452,0,0,1,25.9-3l-.224.084a.318.318,0,0,1-.224.084l-.252.084a.659.659,0,0,1-.224.056,1.237,1.237,0,0,1-.448.168l.14-.168a2.347,2.347,0,0,0-.7.252c.028,0,.056,0,.056.028a.1.1,0,0,1-.056.028v-.084a8.3,8.3,0,0,0-1.624.476c.028,0,.084,0,.056.056a.1.1,0,0,1-.056.028v-.084a2.05,2.05,0,0,0-.7.224H21.9a.527.527,0,0,1,.224-.056.527.527,0,0,1-.224.056.452.452,0,0,1-.252.084h.028a8.516,8.516,0,0,1-1.876.7l.168-.168c-.056,0-.084,0-.112-.028-.028-.056,0-.084.028-.112l.224-.084a23.545,23.545,0,0,1,3-1.008c1.4-.392,2.772-.84,4.116-1.316.084-.028.168-.084.252-.112A.168.168,0,0,0,27.5-3.92c0-.028-.056-.056-.084-.056a.052.052,0,0,0-.084,0c-.28.056-.588.084-.868.168-.588.2-1.176.336-1.764.588a3.275,3.275,0,0,1-.56.14,23.45,23.45,0,0,0-2.408.644l-.112.028a4.342,4.342,0,0,1-1.008.364.355.355,0,0,1-.168.028.112.112,0,0,1-.14-.14c0-.112.028-.252.028-.364v-.112c.028-.084.056-.112.168-.056a.567.567,0,0,0,.168-.448.154.154,0,0,1,.112-.168c.112-.056.224-.112.252-.224-.056-.056-.084-.14,0-.2a1.23,1.23,0,0,0,.336-.5,1.7,1.7,0,0,1,.756-.84c.084-.028.112-.084.14-.168-.056,0-.084-.056-.028-.112l.112-.112v.14a7.212,7.212,0,0,0,.9-.952,2.318,2.318,0,0,1,.308-.42l1.288-1.344a1.69,1.69,0,0,1,.224-.224c.028-.028.056-.056.084-.056a.966.966,0,0,1,.224-.252,1.065,1.065,0,0,1,.252-.364c.448-.532.924-1.008,1.4-1.484.112-.112.252-.2.364-.308l.084-.084a2.91,2.91,0,0,1,.924-.924h-.028a.6.6,0,0,1,.28-.308l.42-.308h.028a.218.218,0,0,1,.112-.28.875.875,0,0,0,.252-.308c.056-.084-.028-.168.028-.252.056-.112.2,0,.28-.084l.42-.42c.028-.028.056-.084.028-.112-.056-.14.056-.2.14-.224A4.326,4.326,0,0,0,31-14.2a1.136,1.136,0,0,1,.532-.112c1.2,0,2.436.112,3.668.14a.953.953,0,0,1,.28.028c.9.028,1.764.14,2.632.252a9.9,9.9,0,0,1,1.54.28,1.74,1.74,0,0,1,.812.42,1.294,1.294,0,0,0,.2.2c.084.028.168.028.2-.056A.894.894,0,0,0,40.936-13.58Zm-3.22-7.7a.1.1,0,0,1,.084.028s0,.056-.028.056a1.162,1.162,0,0,1-.56.336A1.834,1.834,0,0,1,37.716-21.28Zm-.756.588a1.408,1.408,0,0,1-.616.448A1.936,1.936,0,0,1,36.96-20.692Zm-.7.532a.435.435,0,0,1-.224.168A.435.435,0,0,1,36.26-20.16Zm-.336.252a.324.324,0,0,1-.2.14A.324.324,0,0,1,35.924-19.908Zm.308.728v-.028h.028C36.232-19.208,36.232-19.208,36.232-19.18Zm-3.164,1.512a1.582,1.582,0,0,1-.672.616A1.987,1.987,0,0,1,33.068-17.668Zm-3.5,2.38a.689.689,0,0,1-.336.028H26.8a.027.027,0,0,0,.028.028h2.464c.028.028.056.028.056.056,0,.056-.028.056-.056.056-.14,0-.252.028-.364.028-1.316-.028-2.66.028-3.976.084a19.515,19.515,0,0,0-2.548.2c-1.092.112-2.156.252-3.248.448a27.469,27.469,0,0,0-3,.728l-.224.084c-.056,0-.112.056-.2,0-.028-.028.028-.2.112-.224a3.967,3.967,0,0,1,.5-.224c.952-.28,1.932-.5,2.94-.7q1.428-.252,2.94-.42c.784-.112,1.568-.14,2.38-.2,1.288-.084,2.6-.084,3.892-.112.308,0,.616.028.924.028a.214.214,0,0,1,.14.056c.028,0,.028,0,.028.028A.027.027,0,0,1,29.568-15.288Zm10.5.9-.028.028a1.5,1.5,0,0,1-.616-.084c-.084,0-.14-.056-.224-.056-.168-.028-.336-.028-.5-.056-1.232-.14-2.464-.28-3.724-.336-.9-.028-1.764-.084-2.66-.14a.21.21,0,0,1-.14-.028c-.028,0-.028-.028-.056-.028.028-.028.028-.056.056-.056h.364a.7.7,0,0,0,.224-.028h-.252c-.112-.028-.28.056-.364-.084.112-.14.252-.084.392-.084.868.028,1.708.056,2.548.112.7.056,1.4.14,2.128.2.644.056,1.288.2,1.932.28a3.573,3.573,0,0,1,.784.2l.14.084C40.068-14.448,40.1-14.42,40.068-14.392Zm-16.38-.7c.056.028.084,0,.112,0h-.084ZM39.648-13.8c-1.232-.224-2.492-.336-3.752-.448l-1.988-.084L31.64-14.42c-.2,0-.336-.056-.28-.112.056-.112.168-.084.28-.084.476,0,.98,0,1.54.028,1.12.056,2.3.14,3.472.224a19.092,19.092,0,0,1,2.828.392.476.476,0,0,1,.2.028c.084.056.224,0,.28.168A.385.385,0,0,1,39.648-13.8Zm-10.808.14a.852.852,0,0,1,.224-.224A.3.3,0,0,1,28.84-13.664Zm1.092.056a.1.1,0,0,0-.084.028c.028-.028.056-.056.084-.056Zm-1.484.336a.337.337,0,0,1-.14.14.337.337,0,0,1,.14-.14A.494.494,0,0,1,28.7-13.5.342.342,0,0,1,28.448-13.272Zm-12.824.392a.676.676,0,0,0-.42.112A.835.835,0,0,0,15.624-12.88Zm8.512,4.144c-.028.028-.084.084-.084.056-.056-.028.028-.056.056-.084.028-.056.056-.056.084-.112A.214.214,0,0,1,24.136-8.736Zm-1.848,3.5c0-.028.028-.056.056-.084l-.084.084ZM25.9-3.08,25.676-3H25.9ZM25.676-3l-.224.084h.224Zm-.224.084-.252.084h.252Zm-.252.084a.527.527,0,0,1-.224.056H25.2Zm-.224.056-.308.084h.308Zm.224,0v.028a.027.027,0,0,1,.028-.028ZM21.42-1.68h.224v-.084Zm-.616.224a.4.4,0,0,0,.168-.056A.4.4,0,0,0,20.8-1.456Zm0,0a1.929,1.929,0,0,0-.224.084Zm-.476.168a.612.612,0,0,1-.14.084l.168-.084Zm-.364.14a.866.866,0,0,0,.224-.056C20.1-1.176,20.02-1.176,19.964-1.148Zm17.08-1.568c-.056-.056-.056-.112,0-.2a.241.241,0,0,0-.028-.364.517.517,0,0,1-.14-.336c0-.2-.112-.28-.308-.224l-.252.084c-.28.112-.56.224-.84.308l-1.316.5a17.377,17.377,0,0,1-2.3.84H31.78a7.617,7.617,0,0,1-1.372.364c-.476.056-.98.112-1.456.14a3.2,3.2,0,0,1-1.036-.14.563.563,0,0,1-.224-.112.17.17,0,0,1,.028-.28.519.519,0,0,1,.2-.056,13.282,13.282,0,0,0,1.26-.42c.056-.028.14-.028.224-.056a.027.027,0,0,1,.028.028v.056l-.112.084a4.179,4.179,0,0,1-1.12.42.355.355,0,0,0-.168.028c-.028,0-.084.028-.084.056,0,.056.056.056.084.056a.953.953,0,0,0,.28-.028,10.1,10.1,0,0,0,1.708-.728.725.725,0,0,0,.308-.28,2.486,2.486,0,0,1,.448-.616.976.976,0,0,0,.28-.812,2.983,2.983,0,0,0-.476-1.4.87.87,0,0,0-.784-.42,2.081,2.081,0,0,0-1.316.448,8.659,8.659,0,0,0-1.148,1.12,2.859,2.859,0,0,0-.672,1.82c0,.308,0,.644.028.952A2.24,2.24,0,0,0,27.3-.616,2.282,2.282,0,0,0,28.84,0a9.922,9.922,0,0,0,2.044-.2A20.791,20.791,0,0,0,34.048-1.2a25.667,25.667,0,0,0,2.52-1.148.825.825,0,0,1,.364-.14.4.4,0,0,0,.168-.056C37.072-2.6,37.072-2.66,37.044-2.716ZM29.232-5.544c.084-.028.112-.056.028-.14,0-.028.028-.084.056-.084a1.181,1.181,0,0,1,.532-.084c.028.028.056.028.056.056.028.056-.028.056-.056.084-.028,0-.084.028,0,.056.028,0,.084,0,.084.056l-.084.056a.252.252,0,0,0-.14.028,3.3,3.3,0,0,0-.56.112,3.035,3.035,0,0,0-.532.224A.8.8,0,0,1,29.232-5.544Zm.756.588a.087.087,0,0,1-.028.056.1.1,0,0,1-.084.028,1.594,1.594,0,0,0-.812.308.451.451,0,0,1,.336-.364.776.776,0,0,1,.56-.084A.1.1,0,0,1,29.988-4.956Zm-1.26.812a2.84,2.84,0,0,0,.364-.252,1.39,1.39,0,0,1,.616-.28.132.132,0,0,1,.168.028.239.239,0,0,1,0,.2,2.13,2.13,0,0,1-.56.56,2.377,2.377,0,0,1-.616.252c-.112.028-.168-.028-.168-.2C28.5-3.976,28.588-4.06,28.728-4.144Zm.784.7c-.056.084-.14.084-.224.112l-.056.056s-.028.028-.028,0c-.028,0-.028-.028.028-.028a.1.1,0,0,1,.056-.028c.056-.056.112-.14.2-.14,0-.028.028,0,.028,0ZM28-2.856c0-.056.056-.084.112-.084a2.464,2.464,0,0,1,.42-.14c.028-.028.056,0,.056.028A.087.087,0,0,1,28.56-3L28.5-2.94a.1.1,0,0,1,.028.056.027.027,0,0,0-.028.028,1.711,1.711,0,0,1-.392.2c-.056,0-.14.056-.168-.028C27.916-2.744,27.944-2.8,28-2.856Zm.5-.056V-2.94S28.476-2.94,28.5-2.912Zm1.428.056v-.028h.028Zm7,.364c.056,0,.112.028.168.028A.355.355,0,0,0,36.932-2.492Zm-2.632.98c-.728.308-1.484.588-2.24.84a8.964,8.964,0,0,1-1.9.448A6.893,6.893,0,0,1,28.84-.252a.1.1,0,0,1-.056-.028c0-.056.028-.084.056-.084.14,0,.28-.028.392-.028A9.818,9.818,0,0,0,32.088-.84c.644-.224,1.288-.42,1.932-.7.2-.084.448-.14.672-.224a.132.132,0,0,1,.168.028A1.955,1.955,0,0,1,34.3-1.512Zm-3.892.224a16.3,16.3,0,0,0,1.68-.392c.056.112,0,.112-.056.112L31.7-1.4h.028a.087.087,0,0,0,.056.028c.028.028.028.056,0,.056-.028.028-.056.056-.084.056a7.687,7.687,0,0,1-2.24.392.112.112,0,0,1-.112-.056,5.168,5.168,0,0,1,.644-.112,3.636,3.636,0,0,1-1.344-.084C29.26-1.176,29.848-1.2,30.408-1.288Zm.5.112A2.148,2.148,0,0,0,31.7-1.4l-.392.084A.95.95,0,0,0,30.912-1.176Zm-.392.056-.028-.028-.028.028h.028ZM49.7-3.276a3.826,3.826,0,0,0-.532-.056l-.308.084a.993.993,0,0,1,.308-.084,2.195,2.195,0,0,0,.392-.14c.056-.028.084-.056.084-.112,0-.084-.056-.112-.14-.112a1.349,1.349,0,0,0-.336,0c-.476.084-.98.168-1.456.28L46.4-3.024c-.336.112-.672.2-1.008.336-.448.168-.952.252-1.4.448a.772.772,0,0,1-.56,0,3.06,3.06,0,0,0,.224-.42.834.834,0,0,0,.112-.588,2.729,2.729,0,0,0-.336-1.12.535.535,0,0,0-.728-.364,3.275,3.275,0,0,0-.56.14,2.392,2.392,0,0,0-.672.252c-.476.308-.98.56-1.456.9-.672.5-1.4,1.008-2.1,1.512a1.534,1.534,0,0,1-1.12.336.36.36,0,0,0-.336.112l-.2.14a2.139,2.139,0,0,1,.308-.448.169.169,0,0,1,.168-.084.38.38,0,0,0,.308-.2c.2-.252.364-.532.588-.812a.868.868,0,0,0,.168-.364c-.084-.028-.112-.084-.084-.14l.252-.364a3.192,3.192,0,0,0,.28-.532c.084-.252.056-.308-.2-.42a.227.227,0,0,1-.112-.224c0-.028.028-.056,0-.084,0-.084-.084-.112-.168-.084a.5.5,0,0,0-.2.14c-.42.476-.784.98-1.176,1.456-.448.476-.784,1.008-1.2,1.484l-.084.14c-.2.28-.392.532-.616.812l-.364.5A5.946,5.946,0,0,1,33.32.5c-.056.028-.084.084-.14.14-.42.56-.84,1.092-1.232,1.68-.56.756-1.008,1.568-1.6,2.324a1.563,1.563,0,0,0-.14.224,5.063,5.063,0,0,1-.532.812,5.307,5.307,0,0,0-.616.924,10.129,10.129,0,0,1-.616.9,2.7,2.7,0,0,0-.336.56l-.168.28c-.112.168-.2.308-.308.448-.2.308-.364.616-.56.868-.392.5-.672,1.008-1.036,1.512l-.084.168a.347.347,0,0,0,.112.42c.168.084.2.224.224.392.028.28.084.308.336.252.112-.028.2,0,.2.112,0,.056.028.112.084.112a.8.8,0,0,0,.532-.308,1.135,1.135,0,0,0,.14-.252,8.11,8.11,0,0,1,.532-.812c.364-.532.756-1.036,1.148-1.568.056-.056.084-.14.168-.2a4.389,4.389,0,0,0,.56-.84c-.028.028-.084.056-.112.028-.056-.028-.028-.084,0-.112A1.243,1.243,0,0,1,30.1,8.26c.056-.084.14-.056.2,0,.2-.14.28-.392.448-.56.056-.084.14-.14.028-.224V7.42c.112-.168.2-.42.42-.448a.547.547,0,0,0,.364-.224c.448-.56.9-1.12,1.344-1.652a1.351,1.351,0,0,0,.252-.392.188.188,0,0,1,.084-.224,1.563,1.563,0,0,1,.224-.14.105.105,0,0,0,0-.168,1.006,1.006,0,0,1,.28-.2.581.581,0,0,0,.28-.168,5.848,5.848,0,0,0,.56-.616L35.56,2.1a5.9,5.9,0,0,1,.756-.7A10.574,10.574,0,0,1,37.436.28a.519.519,0,0,1,.336-.2,1.882,1.882,0,0,1,.672-.112C39.032,0,39.62,0,40.18,0a2.717,2.717,0,0,0,.476-.028,28.51,28.51,0,0,0,3.416-.728c1.232-.336,2.464-.728,3.668-1.092a14.267,14.267,0,0,0,1.54-.532,1.212,1.212,0,0,0,.448-.252h-.42c.112-.112.308-.14.42-.224a.286.286,0,0,0,.14-.224A.246.246,0,0,0,49.7-3.276ZM42.588-4.452a.476.476,0,0,1,.2-.028c.056,0,.084.028.112.084,0,.056,0,.112-.056.14a.451.451,0,0,1-.2.112,5.975,5.975,0,0,0-1.2.364A1.674,1.674,0,0,1,42.588-4.452Zm-.056.84s0,.056-.028.056a3.111,3.111,0,0,0-.448.2L42-3.388c0-.028-.028-.056,0-.056a1.065,1.065,0,0,1,.476-.224A.06.06,0,0,1,42.532-3.612ZM41.1-3.64a.435.435,0,0,1-.224.168A.587.587,0,0,1,41.1-3.64Zm-.392.252a.5.5,0,0,1-.2.14A.324.324,0,0,1,40.712-3.388Zm.84.476c.084-.056.168-.056.252-.112a1.294,1.294,0,0,1-.2.2c-.28.2-.56.308-.5.252C41.216-2.772,41.412-2.8,41.552-2.912Zm4.956.336v.056h-.084a.027.027,0,0,1-.028-.028C46.452-2.548,46.48-2.576,46.508-2.576Zm-3.276.224c0-.028.028-.056.056-.084h.056v.056a.089.089,0,0,1-.084.084h-.028C43.2-2.324,43.2-2.324,43.232-2.352Zm4.76.2a.82.82,0,0,1-.448.2c-.476.168-.98.308-1.456.476-.9.308-1.792.532-2.688.784a18.323,18.323,0,0,1-2.8.532A4.5,4.5,0,0,1,39.732-.2l1.624-.252c1.092-.2,2.128-.476,3.192-.756,1.008-.28,1.988-.588,3-.9a.831.831,0,0,1,.448-.056,1.507,1.507,0,0,1,.7-.252A1.075,1.075,0,0,1,47.992-2.156Zm-11.06-.112c.028-.028.028-.084.084-.112a.027.027,0,0,1,.028.028.2.2,0,0,1-.084.168h-.028Zm7.868.224v.028h-.056C44.772-2.016,44.8-2.016,44.8-2.044Zm-4.088.364a.555.555,0,0,1-.364.168l-.364.084a.212.212,0,0,0-.112-.028c-.028-.028-.028-.028-.028-.056l.028-.028a.1.1,0,0,1,.056-.028,2.232,2.232,0,0,1,.42-.084C40.46-1.68,40.572-1.792,40.712-1.68Zm3.024-.056c.028,0,.028,0,.084.028a3.482,3.482,0,0,1-.868.28.1.1,0,0,1-.028-.084Zm-.644.42h-.028Zm-.056,0A.446.446,0,0,1,42.7-1.2C42.616-1.232,42.784-1.288,43.036-1.316Zm-6.664.7c-.2.168-.364.364-.532.532a.212.212,0,0,1-.28,0c.112-.14.252-.252.224-.448-.056-.028-.084-.056-.056-.112s.084-.084.14-.14l-.084.252c.14-.056.224-.2.336-.308.14-.112.28-.168.336-.084C36.512-.812,36.428-.7,36.372-.616ZM40.74-.84v.028c-.028.056-.084.028-.14.028-.028,0-.056,0-.056-.028V-.84A.239.239,0,0,1,40.74-.84ZM32.4,5.46a1.155,1.155,0,0,1,.28-.364A.464.464,0,0,1,32.4,5.46Zm-1.764-.308V5.18Zm-.56.868a.61.61,0,0,1,.14-.224Zm-.5,3.052c0,.028-.028.028-.056.056.028-.028.056-.056.056-.084Z" transform="matrix(0.966, -0.259, 0.259, 0.966, 750.37, 5833.292)" fill="#5dc1cf"/>
    <text id="_2" data-name="2" transform="translate(769.385 5873.321)" fill="#5dc1cf" stroke="#5dc1cf" stroke-width="0.5" font-size="40" font-family="Montserrat-Medium, Montserrat" font-weight="500"><tspan x="0" y="0">2</tspan></text>
  </g>
</svg>
