<svg xmlns="http://www.w3.org/2000/svg" width="400.246" height="50.879" viewBox="0 0 400.246 50.879">
  <g id="レイヤー_2" data-name="レイヤー 2" transform="translate(0 0.062)">
    <g id="レイヤー_1" data-name="レイヤー 1" transform="translate(0 -0.062)">
      <path id="パス_2884" data-name="パス 2884" d="M10.223,48.378c.11-.03.312-.069.419-.1s.251.061.362.03.2-.122.312-.148a1.54,1.54,0,0,1,.35,0c.11,0,.179-.217.286-.247s.24,0,.35-.023.259.1.381.072.213-.091.324-.118.209-.091.32-.122.16-.293.27-.324.308.286.419.255.148-.32.259-.346.259.08.381.053.168-.263.278-.289.217-.076.324-.107.217-.076.327-.1.327.381.438.339.194-.156.3-.187.148-.32.259-.346.263.1.381.069.179-.225.286-.251.206-.114.316-.141.232,0,.343-.03.3.232.407.206.2-.114.312-.141.171-.251.278-.282.316.308.426.282.2-.114.312-.145.236,0,.343-.023.194-.152.3-.183.19-.171.3-.2.228-.027.339-.057.2-.137.3-.168.289.213.381.187.114-.461.221-.491.232,0,.343-.03.312.3.419.278.2-.148.3-.175.137-.381.244-.381.339.194.445.164c.038-.1.187-.221.225-.324s-.251-.335-.213-.434.274-.129.312-.232,0-.24.027-.343.152-.175.19-.278.194-.164.232-.263-.225-.32-.183-.423.362-.1.4-.2.091-.2.129-.3-.072-.259-.038-.381.168-.171.206-.274.072-.209.1-.312.03-.217.057-.324-.065-.236-.042-.343.168-.183.187-.289-.168-.255-.145-.381.027-.221.053-.324.438-.137.465-.251-.213-.293-.183-.407.076-.225.1-.339-.145-.282-.114-.381.35-.152.381-.267.1-.217.126-.331.049-.232.08-.346.034-.228.069-.339.091-.217.126-.327.069-.225.1-.339a1.59,1.59,0,0,0,0-.381,3.269,3.269,0,0,1-.053-.381c.015-.133,0-.217.023-.327s.213-.19.228-.3.137-.2.148-.312.091-.209.1-.32-.346-.259-.331-.381.038-.217.049-.324a2.422,2.422,0,0,1,.027-.327c.027-.11.194-.2.206-.308s.114-.209.126-.316-.08-.228-.069-.339-.129-.232-.122-.343-.03-.221-.023-.331.381-.206.381-.316-.156-.228-.152-.339.088-.217.091-.327-.137-.232-.129-.343.209-.206.217-.316.053-.213.065-.324-.183-.24-.168-.35-.152-.255-.133-.381.221-.183.247-.293.217-.16.251-.267.1-.221.126-.327-.118-.263-.1-.381.247-.2.263-.308-.221-.255-.209-.381a3.349,3.349,0,0,0,0-.339c0-.11-.171-.228-.168-.339s.312-.225.308-.335-.247-.221-.251-.335-.072-.221-.076-.335.381-.232.381-.346-.255-.221-.255-.331V24.36c0-.114-.187-.236-.183-.346s.034-.228.042-.343.381-.209.381-.324V23c0-.114.118-.225.122-.335s-.259-.24-.251-.354.164-.221.168-.335-.141-.232-.137-.346.076-.225.08-.339-.114-.232-.11-.346.358-.213.381-.327-.236-.24-.232-.35-.187-.236-.179-.35.042-.225.046-.339.274-.221.278-.331-.122-.232-.118-.346-.152-.232-.148-.346.084-.225.088-.339.217-.221.221-.335-.3-.236-.293-.35.225-.221.228-.335V16.17c0-.114.11-.225.11-.339s.126-.225.126-.339-.107-.228-.107-.343-.049-.228-.046-.343.179-.225.179-.339-.472-.145-.472-.259.042-.225.042-.339.027-.228.027-.343a2.794,2.794,0,0,0,.034-.312c0-.107.118-.228.1-.335s-.247-.168-.274-.27.278-.293.247-.381-.4-.11-.434-.213.061-.244.03-.346,0-.225-.046-.327-.259-.152-.286-.255.137-.267.11-.381-.072-.228-.1-.343-.122-.213-.148-.327.209-.289.183-.4-.137-.213-.164-.327.091-.27.057-.381-.255-.16-.289-.267-.267-.145-.3-.247S26.382,8.1,26.34,8s-.1-.2-.148-.3-.221-.145-.27-.244-.228-.129-.282-.228.023-.263-.03-.358.08-.316.023-.411-.316-.061-.381-.156-.251-.088-.32-.179.084-.339,0-.43-.076-.232-.148-.316-.274-.061-.35-.141.038-.35-.038-.43-.484.168-.567.091.145-.48.061-.556-.206-.114-.289-.187-.381.114-.48.046.034-.381-.057-.468-.381.137-.472.072-.065-.293-.156-.358-.225-.065-.32-.129,0-.381-.114-.442-.308.042-.415,0-.267.042-.381,0-.2-.129-.312-.16-.251.114-.381.1-.217-.049-.324-.069-.209-.118-.32-.133-.175-.358-.286-.381-.228.019-.339,0-.232.053-.343.038-.244.16-.354.145-.221-.042-.331-.053-.194-.259-.3-.274-.244.171-.354.16-.267.152-.381.133-.194-.259-.312-.282-.194-.236-.312-.259a2.722,2.722,0,0,1-.354-.038,1.727,1.727,0,0,0-.35-.1c-.114-.011-.259.088-.381.08s-.24.278-.354.282a2.387,2.387,0,0,0-.331,0h-.346c-.114,0-.217.084-.331.1s-.267-.175-.381-.152-.2.168-.316.19-.206.137-.316.164-.324-.358-.434-.327-.217.1-.331.126-.187.194-.3.225-.282-.107-.381-.072-.1.43-.206.468-.267-.057-.381,0-.11.32-.217.381-.381-.293-.495-.24-.232.072-.335.129-.129.259-.232.316-.1.293-.2.354-.267,0-.381.08-.179.152-.278.217-.354-.1-.453-.03.042.468-.053.537-.274,0-.381.088-.088.278-.183.346-.3,0-.381.061-.11.251-.206.32-.221.1-.316.168-.179.152-.274.225-.213.107-.308.175-.339-.065-.434,0,.076.438,0,.506-.346-.084-.426,0-.122.179-.2.247,0,.327-.061.381-.282,0-.362.069-.061.286-.148.343-.32-.049-.4.027-.251.088-.327.175.133.381.065.491-.434-.019-.495.08-.164.183-.221.286.209.381.156.48-.236.137-.289.24,0,.267-.072.381-.129.206-.194.3-.156.19-.228.282a3.255,3.255,0,0,1-.232.282c-.084.08-.3,0-.381.084a.737.737,0,0,1-.308.236c-.129.034-.267-.16-.381-.152s-.255.381-.381.354-.221-.3-.335-.327A1.435,1.435,0,0,1,.4,10.5a.56.56,0,0,1-.251-.175C.1,10.219,0,10.166,0,10.044a1.876,1.876,0,0,1,.091-.331C.114,9.587.038,9.48.076,9.351s.141-.2.183-.308,0-.247.034-.35-.03-.267,0-.381.267-.126.316-.225S.86,7.969.918,7.87s.126-.179.183-.278-.042-.293,0-.381,0-.274.076-.381.3-.057.381-.145,0-.308.053-.381.312-.03.381-.114.084-.228.164-.312.164-.152.247-.228.308,0,.381-.072-.076-.426,0-.5.187-.137.274-.206.419.16.506.088.034-.308.118-.381.3,0,.381-.057.183-.126.27-.194,0-.346.1-.415.175-.141.267-.206.19-.118.286-.179.213-.08.308-.141.286.061.381,0,0-.5.088-.548.362.251.465.206.129-.289.236-.343.209-.107.312-.164.27,0,.381-.061.286,0,.381-.049.171-.179.27-.24.133-.232.236-.3.183-.148.282-.213.278,0,.381-.053.171-.171.274-.228.126-.221.221-.27.282.1.381.061.1-.339.2-.381.232,0,.335-.023.194-.2.308-.232.274.133.381.11.247.042.362.019.209-.164.324-.187l.35-.061a2.786,2.786,0,0,0,.346-.069c.114-.015.209-.126.324-.141s.24.084.35.069.24.088.35.072.244.1.354.084.179-.381.293-.381.244.137.354.126.232.065.343.053.209-.217.324-.225.228.1.343.1.221.084.335.084.232-.236.343-.228.221.107.335.114.221.042.335.057.259-.221.381-.206.213.11.324.129l.335.065c.11.023.213.088.324.11s.175.267.286.289S18.478.373,18.6.4s.187.228.3.247.274-.27.381-.251.156.457.27.472.274-.407.381-.381.171.434.282.453.236-.061.343-.038.2.133.3.16.293-.213.4-.179.217.072.324.11.24,0,.346.049.175.179.278.221.194.126.3.171.156.194.259.244.236.023.339.072.247,0,.346.061.259,0,.362.046.183.137.282.19,0,.442.107.495.327-.126.423-.069,0,.381.107.445.453-.278.544-.217.126.217.213.282.088.255.175.324.194.11.278.183.3,0,.381.072-.148.472-.069.552.476-.156.552-.076,0,.316.057.381.027.259.1.346.316.034.381.126.156.168.217.259.2.148.251.244-.08.343,0,.381.267,0,.339.053c.042.11,0,.247.053.354a3.455,3.455,0,0,1,.1.339c.042.11.423.076.465.183s-.156.312-.11.419-.088.282-.042.381.164.183.206.289.381.1.411.213-.183.32-.141.434.232.164.27.278-.1.286-.061.4a1.161,1.161,0,0,1,0,.381,1.044,1.044,0,0,0,.107.335c.038.114.331.145.381.259s-.2.286-.168.381.411.126.438.232-.023.24,0,.35-.24.282-.217.381.293.168.316.278-.053.24-.034.35.324.179.343.289-.148.251-.133.362.088.217.1.327a2.516,2.516,0,0,1,0,.339v.339c0,.11-.1.236-.088.346s0,.228,0,.339.08.221.084.335.08.221.084.331-.168.232-.164.343.129.225.129.335.126.225.126.339-.251.225-.251.339.339.225.339.339-.129.225-.129.335-.251.225-.251.335.2.228.194.343.034.225.03.339-.1.221-.1.335,0,.225,0,.335.213.232.209.346-.175.217-.179.331-.069.225-.072.335.247.232.244.346-.034.225-.038.335-.286.217-.289.327,0,.225,0,.339.1.228.091.339,0,.228,0,.339-.278.213-.282.327.259.236.255.346-.282.213-.289.327.308.236.3.35.053.228.046.339-.381.206-.381.32.049.228.046.339.381.244.381.358-.194.213-.2.327-.133.217-.141.331-.091.221-.1.331.308.244.3.354-.2.213-.206.327.091.228.084.343-.286.209-.293.324.183.244.179.381-.232.225-.236.339.244.251.236.381.1.244.084.381-.061.232-.072.35-.35.209-.381.327a1.378,1.378,0,0,0,0,.354,3.445,3.445,0,0,1-.046.346c-.011.114.381.278.381.381a1.925,1.925,0,0,1-.023.354c-.023.118-.331.2-.346.316s.312.278.3.381-.461.16-.48.27-.084.209-.107.32.2.27.175.381-.148.2-.175.308,0,.232-.027.339.069.251.038.381-.259.168-.286.278-.175.194-.2.3.088.251.065.381-.034.247-.057.381-.08.236-.1.354-.057.244-.08.381.263.293.244.415-.324.194-.346.316.251.293.228.415-.145.2-.164.312-.274.183-.293.3.3.274.282.381-.27.183-.286.3-.217.194-.236.3.32.282.3.381-.16.2-.179.312.118.251.1.381-.088.213-.11.324-.164.2-.187.308-.08.213-.107.324.08.251.049.381-.164.2-.2.316-.03.236-.065.35-.046.236-.08.35-.232.175-.27.286.156.3.114.415-.282.156-.32.267.08.282.038.381.042.27,0,.381-.381.11-.43.221.076.282.038.381-.206.179-.247.289.217.327.179.442-.114.236-.16.35-.213.187-.259.3-.286.152-.335.27.16.331.118.449-.137.213-.171.331-.346.091-.381.183.065.286,0,.381a1.416,1.416,0,0,1-.259.2c-.088.069-.1.263-.2.312s-.175.206-.282.244a2.833,2.833,0,0,1-.346.053c-.1.023-.267-.183-.381-.168s-.225-.057-.331-.046-.221.091-.331.1-.236-.049-.35-.038-.221.076-.331.088-.225.034-.339.049-.187.327-.3.343-.232-.049-.346-.03-.236-.049-.346-.03l-.327.076c-.11.027-.267-.141-.381-.11s-.129.381-.24.411-.346-.346-.453-.308-.145.274-.251.316-.2.137-.308.171-.286-.175-.381-.145-.152.331-.263.358-.225.061-.335.084-.244-.038-.358,0-.206.148-.316.171-.267-.164-.381-.145-.263-.114-.381-.091-.217.107-.327.133-.179.251-.289.282-.168.221-.278.255-.267-.072-.381-.034l-.324.118c-.11.038-.175.194-.282.236s-.2.133-.3.175-.381-.324-.472-.286-.2.1-.312.133-.114.442-.228.468-.289-.217-.381-.194-.187.236-.3.251-.217.126-.331.137-.232-.034-.343-.03-.232-.16-.343-.16-.232.175-.343.168l-.343-.034c-.11,0-.171-.381-.282-.381s-.194-.1-.3-.129-.3.175-.381.057.065-.251.027-.381-.179-.168-.206-.274-.1-.2-.133-.3S10.257,48.465,10.223,48.378Z" transform="translate(0 0.062)" fill="#474f5f"/>
      <path id="パス_2885" data-name="パス 2885" d="M718.176,48.614a2.717,2.717,0,0,1-.381,0c-.107,0-.225.19-.346.179s-.2-.209-.32-.228-.247.1-.38.069-.183-.2-.294-.236-.262.072-.38.03-.233-.057-.335-.1-.156-.209-.255-.263-.286,0-.38-.05a3.423,3.423,0,0,1-.293-.286c.057-.118.179-.232.224-.316a.763.763,0,0,1,.233-.236c.088-.08.152-.206.282-.194s.171.156.3.194.214.023.339.061.2.114.312.141.255-.137.38-.118.194.209.309.221a3.344,3.344,0,0,0,.339,0c.115,0,.233-.1.343-.091s.218.129.332.137.224-.023.335-.019.114-.137.205-.2.251,0,.316-.072a1.618,1.618,0,0,0,.209-.228c.053-.1-.027-.27.027-.381s.229-.122.29-.213.023-.251.083-.343.244-.1.312-.187l.2-.259c.072-.088.126-.179.2-.263s.118-.19.194-.27.144-.171.224-.244.118-.206.2-.278.141-.183.232-.247.194-.114.29-.175.221-.069.316-.126.225-.049.324-.1a3.674,3.674,0,0,0,.339-.148c.1-.065.1-.293.194-.358s.278,0,.381-.076.13-.251.236-.308.217-.129.327-.175.278.1.381.072.217-.175.339-.175.217.175.343.194.251-.088.381-.046a2.752,2.752,0,0,1,.343.126c.114.053.149.228.255.289s.263.03.381.1l.293.213c.1.076.118.236.205.316a3.1,3.1,0,0,1,.282.221,1.328,1.328,0,0,1,.175.3,3.258,3.258,0,0,1,.137.335,1.889,1.889,0,0,1,.156.331c.023.122.126.255.115.381s-.168.217-.218.335,0,.286-.076.381-.228.069-.3.141-.182.091-.259.156a2.565,2.565,0,0,1-.232.183c-.084.057-.114.2-.2.247s-.206.072-.3.122-.21.069-.308.118-.137.213-.237.263-.19.11-.285.156l-.3.137c-.1.046-.2.08-.3.126s-.21.072-.309.118-.232,0-.331.061a2.361,2.361,0,0,1-.274.187c-.1.042-.251-.027-.351,0s-.19.1-.289.133-.2.061-.305.1-.16.194-.259.228-.24-.061-.343-.038-.186.183-.289.2-.225-.061-.331-.061-.232.114-.331.152-.3,0-.38.1,0,.286-.057.381-.11.225-.168.327-.251.126-.293.225a2.966,2.966,0,0,0-.114.312c-.031.1.122.263.095.381s-.137.187-.171.289-.126.187-.16.286a2.59,2.59,0,0,1-.076.324c-.05.1-.2.187-.233.3a1.414,1.414,0,0,0,0,.381,2.928,2.928,0,0,0-.03.358c0,.122-.107.24-.107.381v.742c0,.122.13.232.133.35s.05.244.046.381-.1.213-.088.324.122.19.149.293a2.544,2.544,0,0,0,.08.3,2.659,2.659,0,0,0,.16.274c.061.107.042.3.137.381a.457.457,0,0,0,.381-.019c.088-.034.152-.133.263-.247s.179-.148.262-.225.157-.175.244-.247.251-.057.343-.129.084-.274.179-.339.271,0,.381-.08.171-.156.271-.213.217-.088.316-.145.156-.2.259-.255.255,0,.358-.053.224-.057.331-.107.13-.282.236-.324.29.1.381.057.175-.168.286-.2a3.258,3.258,0,0,1,.331-.091c.114-.019.225-.107.339-.11s.228.107.343.114.225.034.335.046.221.053.332.076a1.652,1.652,0,0,1,.335.046c.106.046.19.141.3.183s.206.072.312.118.217.057.316.11.251.027.346.088.1.247.187.32.266.042.346.122a2.9,2.9,0,0,1,.225.259c.084.1.221.179.259.267a.624.624,0,0,1-.076.381c-.05.107-.153.122-.267.209s-.179.156-.27.228-.2.129-.29.206l-.27.225-.282.213c-.092.072-.118.228-.213.3s-.259.042-.358.107-.164.175-.263.232-.183.164-.286.213-.186.141-.293.183-.251-.034-.358,0-.225.03-.332.065-.16.255-.266.286-.248-.046-.355,0a2.111,2.111,0,0,1-.316.118c-.106.027-.247-.061-.358-.034s-.171.244-.278.27-.251-.069-.358-.038-.194.133-.3.156-.243-.08-.35-.053-.2.11-.312.133-.2.091-.312.114a2.446,2.446,0,0,0-.331.038,2.223,2.223,0,0,1-.3.091c-.019.107-.11.171-.133.278s-.019.217-.042.324a1.607,1.607,0,0,0,0,.331c0,.107-.186.183-.209.289s.148.251.13.358-.133.194-.153.3.038.225,0,.331a1.667,1.667,0,0,0-.11.312c-.015.107-.114.209-.126.316s.153.225.164.324a1.223,1.223,0,0,0,0,.316,1.174,1.174,0,0,0,.149.282c.061.084.175.114.258.187a1.594,1.594,0,0,0,.232.213,3.037,3.037,0,0,0,.271.175c.091.046.145.183.247.228a2,2,0,0,0,.347.069,1.814,1.814,0,0,0,.339.061,2.712,2.712,0,0,0,.347.027,2.664,2.664,0,0,0,.347-.03,1.334,1.334,0,0,0,.331-.088c.111-.03.19-.152.3-.19s.255.061.381.027.179-.183.289-.213a2.655,2.655,0,0,0,.35-.046c.106-.046.183-.194.289-.232s.282.08.381.034.2-.126.3-.175.236-.061.339-.114.206-.118.308-.171.126-.259.224-.316.247-.034.35-.091.179-.152.282-.213.217-.088.316-.149.19-.137.293-.194.266,0,.38-.057.187-.141.289-.194.214-.088.316-.141.183-.152.289-.2l.286-.137c.095-.049.19-.084.285-.129a2.653,2.653,0,0,1,.286-.11c.1-.034.172-.187.278-.2s.206.168.316.175.339-.11.422-.034a.788.788,0,0,1,.175.381c.038.126-.084.289-.065.411s-.026.1-.126.2a2.932,2.932,0,0,1-.251.206c-.091.076-.079.278-.171.35s-.172.168-.263.24-.171.175-.266.244-.217.107-.316.175-.194.141-.293.206-.233.034-.324.091-.14.19-.232.244l-.282.168c-.091.053-.175.126-.27.179s-.206.08-.3.129-.259-.038-.358,0-.183.107-.282.156-.225.076-.335.126-.179.183-.289.228-.244.03-.354.076l-.331.137c-.111.042-.179.2-.29.244l-.331.133c-.11.046-.278-.038-.381,0a3.465,3.465,0,0,0-.327.145c-.106.053-.164.168-.267.206s-.19.137-.3.16a3.243,3.243,0,0,1-.332.034c-.11,0-.224-.11-.335-.107s-.217.1-.324.1-.217-.084-.324-.088-.229.122-.339.11a3.131,3.131,0,0,0-.328,0c-.106,0-.213-.1-.323-.1s-.217-.1-.328-.1a.731.731,0,0,1-.324-.084,2.09,2.09,0,0,1-.35-.11c-.107-.065-.251-.069-.358-.133a2.882,2.882,0,0,0-.346-.126c-.107-.053-.182-.171-.278-.236s-.118-.236-.206-.308-.282-.038-.381-.122a1.863,1.863,0,0,1-.266-.244,3.28,3.28,0,0,1-.2-.3c-.06-.1-.106-.217-.16-.32s0-.255-.053-.381-.031-.236-.072-.343-.137-.2-.172-.308a1.764,1.764,0,0,1-.122-.331,2.7,2.7,0,0,1-.035-.35c0-.114.019-.232.031-.35a3.532,3.532,0,0,0,0-.354c0-.118.1-.217.118-.335s.023-.228.043-.343.174-.213.19-.327-.144-.263-.122-.381.2-.206.224-.324-.022-.251,0-.381,0-.244.027-.381.061-.236.076-.354a.593.593,0,0,0-.092-.339c-.061-.1-.217-.129-.289-.2s-.073-.244-.145-.324-.182-.141-.247-.228-.1-.2-.157-.293-.247-.114-.3-.209a3.106,3.106,0,0,1-.111-.324c-.05-.1.035-.259,0-.362s-.205-.152-.244-.259-.026-.225-.061-.331-.079-.213-.107-.324a1.469,1.469,0,0,1,0-.343c0-.11-.152-.2-.167-.312s.038-.232.03-.346-.019-.221-.023-.335-.031-.225-.027-.339,0-.225,0-.339a2.072,2.072,0,0,1,0-.343c.019-.11.16-.2.183-.312s-.046-.24-.019-.35.111-.206.141-.312.11-.2.145-.308-.076-.263-.039-.381.164-.175.194-.282,0-.225.023-.331.205-.179.232-.289.034-.213.057-.324a1.681,1.681,0,0,0,0-.339C718.039,48.808,718.149,48.72,718.176,48.614Zm3.56-1.843c.057.1.149.3.205.381.107-.038.225-.247.339-.282s.281.11.38.072.16-.217.259-.274.282,0,.381-.057.122-.251.221-.316.179-.156.278-.221.266-.027.38-.1.111-.255.206-.324.205-.118.3-.187.233-.08.328-.152a.422.422,0,0,0,.118-.339c0-.126-.148-.221-.2-.308a.308.308,0,0,0-.229-.19.523.523,0,0,0-.319.1c-.088.069-.21.1-.3.167s-.057.286-.144.358-.281,0-.38.084-.16.16-.248.232-.1.232-.179.308-.247.057-.335.129-.149.171-.236.244-.091.236-.179.308-.278.023-.38.1Zm3.754,8.662c-.034-.091-.1-.3-.137-.381-.1.05-.187.267-.29.316s-.278-.076-.38-.03-.137.221-.236.27-.263-.038-.381,0-.133.228-.232.278-.187.126-.285.171-.279.038-.381.088c.118.027.282-.072.381-.065a1.519,1.519,0,0,0,.323,0,1.662,1.662,0,0,0,.339,0A2.6,2.6,0,0,0,724.55,56c.1-.053.14-.209.24-.266s.258,0,.354-.076a3.506,3.506,0,0,1,.339-.221Z" transform="translate(-443.878 -25.964)" fill="#474f5f" stroke="#474f5f" stroke-width="0.25"/>
      <path id="パス_2886" data-name="パス 2886" d="M562.461,96.313c0-.118.137-.2.156-.312s-.046-.247-.019-.381.057-.229.088-.343-.027-.251,0-.381.144-.2.182-.312.042-.236.08-.346.042-.232.08-.347.118-.206.156-.32.164-.194.2-.3-.042-.259,0-.381a2.337,2.337,0,0,0,.053-.346c.023-.114.114-.217.133-.331s.1-.225.114-.343-.038-.24-.034-.381.03-.27.023-.381c-.1.053-.183.206-.278.263l-.289.164c-.1.057-.255,0-.347.061s-.122.24-.213.293-.251,0-.346.069-.149.19-.24.244l-.293.16c-.1.053-.251,0-.347.061s-.205.076-.3.13l-.308.164c-.1.061-.187.137-.285.2s-.129.228-.225.289-.2.114-.293.179-.175.148-.267.217-.175.148-.266.217-.262.038-.35.114-.11.225-.194.3-.213.107-.3.187-.114.213-.194.293-.175.149-.255.228-.255.076-.336.16a2.761,2.761,0,0,1-.236.236c-.087.08-.1.248-.194.308a2.794,2.794,0,0,1-.331.107,2.578,2.578,0,0,1-.328.084c-.114.027-.205.187-.316.194s-.229-.171-.342-.183-.233.065-.343.042-.19-.137-.3-.175-.263.05-.381,0a1.145,1.145,0,0,1-.335-.209.615.615,0,0,1-.118-.381.91.91,0,0,1,.072-.381c.061-.107.251-.133.312-.236s.038-.255.1-.358.175-.168.244-.267.168-.168.244-.259a3.086,3.086,0,0,1,.205-.293c.084-.084.114-.232.21-.308s.247-.061.354-.122a3.029,3.029,0,0,1,.308-.179c.1-.05.191-.126.285-.179s.164-.16.255-.221.194-.11.285-.175.141-.183.232-.251.24-.049.328-.122l.258-.213c.088-.069.187-.122.275-.19s.19-.122.278-.19.2-.1.293-.164.156-.164.251-.225.129-.206.225-.259.194-.1.29-.152.251,0,.35-.042.122-.232.221-.282.228-.027.327-.072.244,0,.343-.023a2.574,2.574,0,0,0,.289-.145c.1-.038.175-.16.278-.194s.19-.129.3-.156.232-.042.328-.061a3.1,3.1,0,0,1,.335-.038,2.314,2.314,0,0,1,.339-.027,1.472,1.472,0,0,1,.346.03,3.146,3.146,0,0,1,.3.167c.087.042.156.148.262.206s.194.038.3.091c.061-.1.214-.137.263-.24s-.027-.27,0-.381.148-.2.175-.316.065-.232.083-.347-.042-.248-.034-.381-.046-.24-.042-.358.148-.228.148-.346-.057-.236-.061-.354-.107-.232-.107-.35V86.4c0-.118.046-.236.046-.354s-.057-.236-.053-.354.133-.228.145-.343.072-.225.076-.335-.144-.221-.152-.331.046-.225.034-.335.061-.236.042-.346-.08-.213-.1-.32-.175-.187-.2-.293.046-.244,0-.35-.1-.2-.137-.308-.019-.228-.057-.331-.2-.16-.24-.263,0-.24-.042-.343a.763.763,0,0,0-.221-.244,1.355,1.355,0,0,0-.255-.2c-.092-.046-.221,0-.328-.042a2.59,2.59,0,0,0-.3-.129c-.107,0-.213-.1-.32-.107a1.778,1.778,0,0,0-.327.069,1.339,1.339,0,0,0-.343.042c-.1.05-.164.171-.263.217s-.179.141-.282.183-.209.08-.308.122-.209.08-.312.122l-.3.145c-.1.046-.2.1-.3.148l-.3.145c-.1.049-.225.049-.32.1s-.21.084-.3.137-.141.2-.233.259-.186.114-.278.179-.232.061-.316.129-.144.2-.244.27-.2.129-.3.2-.217.1-.316.171-.171.175-.267.248-.205.126-.293.206a2.857,2.857,0,0,0-.293.221c-.076.091-.064.247-.125.354s-.187.171-.232.289a.975.975,0,0,1-.148.327,2.407,2.407,0,0,1-.236.3c-.092.08-.156.2-.247.278a3.01,3.01,0,0,0-.309.2c-.08.088-.171.16-.251.251s-.186.152-.262.244-.2.145-.271.24-.087.232-.153.331-.209.156-.266.263-.034.251-.08.358-.164.2-.194.316.072.259.053.381-.175.129-.266.228a1.806,1.806,0,0,1-.255.2c-.087.061-.14.187-.24.24s-.24,0-.343.053-.152.259-.255.293-.255-.042-.354-.03a.508.508,0,0,1-.312-.053c-.08-.038-.209-.061-.274-.168a1.342,1.342,0,0,1-.171-.282,2.534,2.534,0,0,1-.084-.316c-.022-.1-.076-.209-.091-.316s.107-.225.1-.331a2.1,2.1,0,0,1,0-.316c0-.11-.046-.24,0-.331s.164-.187.21-.293.083-.217.133-.32a3.251,3.251,0,0,1,.152-.316c.061-.1.049-.244.11-.343s.2-.148.266-.244.122-.2.191-.293.175-.156.247-.248.186-.148.259-.24.156-.168.232-.259,0-.293.088-.381.27-.076.346-.164.072-.24.152-.324.236-.091.312-.175.068-.255.153-.335.156-.168.24-.248.14-.19.225-.267.247-.065.335-.141.229-.084.316-.156.1-.24.194-.312.183-.133.274-.2.2-.118.293-.183.13-.221.225-.286.206-.11.3-.171.251-.034.347-.1l.3-.164c.1-.061.186-.137.286-.194s.243-.03.342-.088.133-.244.232-.3.251,0,.354-.061.156-.209.259-.259.229-.053.335-.1.251,0,.354-.046.16-.228.271-.27.225-.065.335-.1.271.072.381.038l.331-.1c.114-.03.2-.175.308-.2s.248.038.362,0a1.806,1.806,0,0,1,.339-.091c.118-.015.221-.114.339-.126s.232-.034.35-.038.236.118.35.122.228.061.343.069.251-.171.381-.156.209.179.323.2a2.745,2.745,0,0,1,.343.072,3.481,3.481,0,0,1,.342.1c.107.049.191.133.3.194s.271,0,.381.084.152.2.244.274.225.11.312.194.1.232.179.324.11.213.182.308.125.194.19.293.274.1.332.2.072.236.125.339.082.222.115.335c.049.107.046.232.087.343s.08.213.118.324.217.179.247.293-.057.255-.031.381.141.209.164.327.054.228.069.343.026.236.042.354-.137.244-.126.381.058.228.061.346.118.228.122.346,0,.232,0,.35v.35c0,.118-.08.232-.084.35s0,.232,0,.35-.038.232-.038.347.061.236.057.354.1.236.1.354-.026.232-.03.346-.034.225-.042.335-.068.221-.08.331.05.232.034.343,0,.228-.019.339-.084.213-.107.324-.171.194-.194.3.114.251.088.358-.145.2-.172.308-.053.217-.08.324-.122.2-.148.308.088.255.061.362-.076.209-.1.32-.1.194-.137.3-.035.221-.076.324-.11.187-.156.286-.164.164-.209.263,0,.244-.035.343-.153.175-.19.278-.065.209-.1.312a2.958,2.958,0,0,1-.129.327c-.046.107-.042.236-.088.346s-.152.206-.167.324a1.02,1.02,0,0,0,.068.354c.023.107-.038.267.027.381a.379.379,0,0,1,.065.27c0,.1.084.248.031.354s-.19.148-.259.244a1.948,1.948,0,0,1-.24.229c-.084.08-.1.247-.19.308a1.569,1.569,0,0,1-.335.11c-.1.038-.179.133-.278.167s-.225,0-.324.038-.205.057-.3.091-.213.034-.316.068l-.3.118c-.1.038-.209.046-.308.088s-.152.183-.248.228-.182.164-.293.213-.24.038-.347.091-.266,0-.38.057a3.283,3.283,0,0,0-.282.228,2.646,2.646,0,0,0-.331.164c-.091.076-.091.251-.16.343s-.217.122-.3.194a1.362,1.362,0,0,1-.267.194c-.107.057-.179.187-.289.209a2.172,2.172,0,0,1-.35.061c-.114,0-.232.023-.35.023s-.228-.068-.343-.072-.225.084-.339.091-.232-.107-.343-.1-.225,0-.336,0a3.287,3.287,0,0,1-.327-.057c-.111-.011-.251.114-.358.088s-.163-.232-.259-.354-.19-.267-.16-.324,0-.27.05-.381a1.612,1.612,0,0,1,.221-.282c.068-.091.217-.133.3-.213s.137-.217.24-.27l.3-.16c.1-.053.228-.061.331-.114s.232-.049.335-.1.175-.164.278-.213.244-.027.347-.08.126-.259.228-.312.247-.023.35-.072.182-.145.285-.2.263,0,.381-.042.157-.206.259-.255.2-.118.3-.167.232-.05.339-.1.175-.16.281-.209.187-.141.29-.19S562.309,96.313,562.461,96.313Z" transform="translate(-342.591 -51.537)" fill="#474f5f"/>
      <path id="パス_2890" data-name="パス 2890" d="M357.887,43.081h.282c.11,0,.225-.225.339-.221s.225.126.339.145a1.855,1.855,0,0,1,.324.1c.11.042.168.145.263.209s.225.069.3.152.209.126.274.225,0,.251.065.362.179.206.206.335-.069.247-.1.381-.1.213-.129.327-.073.217-.1.331.091.266.057.381a2.873,2.873,0,0,0-.019.358c-.019.11-.179.187-.213.3s0,.24-.042.35-.2.183-.232.293-.114.209-.148.324-.019.236-.05.346.1.27.076.381-.19.209-.213.331.046.255.027.381.023.251,0,.381-.171.225-.187.346.072.259.049.381-.11.225-.141.346-.118.19-.145.3.057.24.027.346.057.244.027.346-.076.206-.106.312-.122.19-.153.293-.232.156-.266.259.057.244.023.35.019.232,0,.335-.316.133-.347.236.168.274.137.381-.209.2-.24.32-.061.24-.084.362-.072.236-.1.358.156.289.13.411-.023.259-.061.381-.187.183-.225.293-.209.175-.248.286.038.259,0,.381-.107.209-.145.32.019.255-.023.381-.126.2-.168.308-.129.2-.168.312,0,.247-.038.358-.29.145-.328.255.148.3.111.407-.29.149-.328.259l-.1.339c-.034.11.069.267.038.381s.03.251,0,.381-.046.228-.076.339-.122.213-.148.327-.259.171-.293.282l-.1.331c-.034.11.179.3.145.415s-.122.209-.164.324-.213.175-.251.286-.042.24-.084.35.05.27,0,.381-.11.213-.152.324-.153.2-.194.308-.152.194-.194.3l-.125.335c-.042.11.064.278.023.381s-.11.179-.149.274-.187.145-.225.24-.164.156-.2.251l-.118.286c-.038.1,0,.221-.046.316s-.156.2-.2.308-.034.24-.076.35-.133.206-.175.316.183.32.141.43-.274.156-.312.267-.08.225-.121.335.023.263-.019.381-.019.247-.061.358-.327.129-.381.244-.069.225-.11.339-.042.236-.084.346,0,.255-.042.381.046.282,0,.381-.362.107-.411.221,0,.27-.03.381-.114.221-.156.331-.034.236-.076.347,0,.24-.053.35-.11.206-.152.312-.16.187-.2.3,0,.24-.061.346-.248.156-.29.267,0,.244-.046.35.053.27,0,.381-.091.217-.133.324-.217.129-.274.221a.685.685,0,0,0-.046.335c0,.129-.118.217-.145.316s.126.335.061.419-.289.034-.381.088a1.066,1.066,0,0,1-.309.126c-.1,0-.217.141-.339.141s-.217-.225-.32-.232-.244.145-.346.126a2.253,2.253,0,0,1-.32-.1c-.111-.038-.175-.16-.263-.213s-.286-.03-.35-.11.08-.3.042-.381-.27-.148-.278-.263a1.694,1.694,0,0,1-.042-.35,2.655,2.655,0,0,1,.122-.324c.027-.1.251-.141.289-.251s-.156-.293-.111-.381.122-.2.168-.3.209-.164.255-.27,0-.255.034-.381.259-.148.3-.259-.175-.316-.137-.423.1-.209.145-.32.148-.19.19-.3.274-.145.316-.255-.175-.308-.133-.419.111-.206.152-.316.069-.225.107-.331.274-.148.316-.255,0-.251.034-.362.186-.175.228-.282.061-.213.1-.316-.156-.3-.114-.407.11-.194.156-.3.133-.183.175-.286,0-.236.057-.339.358-.088.4-.19-.168-.312-.126-.411.225-.148.266-.247-.069-.27-.027-.381.286-.122.327-.225.145-.179.187-.282-.1-.278-.057-.381.076-.209.114-.312.244-.148.285-.251-.122-.282-.084-.381.023-.228.061-.331.114-.2.148-.3.061-.217.1-.324.278-.141.312-.247,0-.232.042-.339.054-.217.088-.324.122-.194.156-.3-.026-.248,0-.35a1.877,1.877,0,0,1,.05-.35c.049-.107.247-.152.286-.259s-.076-.274-.034-.381.08-.217.118-.324.251-.148.293-.255-.084-.278-.042-.381.16-.183.2-.289,0-.247.038-.354.346-.114.381-.221-.2-.32-.164-.426.259-.152.3-.259.072-.217.11-.324.046-.228.084-.335-.076-.266-.042-.381.076-.206.107-.312.27-.148.3-.255.061-.213.088-.32.027-.221.057-.327-.076-.247-.046-.354.16-.187.19-.293.141-.194.172-.3-.134-.263-.1-.381.263-.16.289-.267.03-.221.061-.327,0-.228.03-.335.1-.2.126-.308-.084-.267-.046-.381.255-.152.3-.259l.125-.316c.046-.107-.1-.286-.053-.381s.141-.19.183-.3.232-.164.266-.274-.042-.255,0-.381,0-.244.027-.358.068-.228.091-.346-.084-.259-.057-.381.213-.2.236-.316-.023-.247,0-.381,0-.244.023-.358.29-.187.312-.3.027-.236.049-.35-.1-.263-.08-.381.084-.225.106-.339-.045-.255-.019-.381.069-.228.1-.346.259-.179.285-.289a2.944,2.944,0,0,1,.042-.354c.042-.114-.072-.263-.042-.381s.152-.2.183-.312.03-.236.065-.35.072-.225.107-.335.111-.213.145-.327.019-.24.05-.35.027-.24.057-.35-.027-.255,0-.381.13-.167.145-.263S357.868,43.176,357.887,43.081Z" transform="translate(-215.14 -26.518)" fill="#474f5f"/>
      <path id="パス_2891" data-name="パス 2891" d="M337.317,23.157c0,.11-.087.152-.091.274s-.1.228-.1.35a2.138,2.138,0,0,0,.019.35,2.283,2.283,0,0,1,.072.35c0,.118.122.228.13.346a2.144,2.144,0,0,0,.026.346c.027.118.034.217.049.331a2.542,2.542,0,0,1,0,.339,1.735,1.735,0,0,0,.076.331c.023.11-.107.255-.084.381s.034.225.057.335.2.19.225.3.057.19.084.289a2.079,2.079,0,0,0,.042.3,2.987,2.987,0,0,1,.1.289c.03.1.03.2.053.3s-.057.228-.042.339.183.2.194.3-.115.183-.1.289c-.122.019-.183.114-.3.122s-.24,0-.354,0-.221-.129-.335-.148-.27.133-.381.1-.194-.175-.3-.225-.172-.16-.27-.221a2.052,2.052,0,0,1-.293-.175,2.456,2.456,0,0,1-.236-.247c-.072-.088-.2-.141-.259-.24s0-.255-.053-.381-.213-.164-.248-.274a3.549,3.549,0,0,1-.106-.339c-.023-.114.08-.247.065-.381s-.217-.213-.224-.331.023-.24.023-.358.13-.24.122-.358-.126-.225-.145-.343-.069-.228-.088-.343.129-.267.107-.381-.221-.2-.244-.316.141-.263.126-.381-.049-.217-.065-.327a3.243,3.243,0,0,0-.027-.335,2.172,2.172,0,0,1-.11-.324c-.008-.11,0-.225,0-.335s-.1-.221-.1-.331-.068-.232-.068-.346.168-.225.172-.339,0-.228,0-.343-.1-.232-.1-.346,0-.228,0-.343v-.682c0-.114-.042-.225-.046-.339s.072-.225.065-.335-.034-.217-.046-.327-.038-.217-.05-.327.1-.236.091-.343-.023-.221-.034-.331-.095-.213-.107-.324-.019-.221-.034-.331a2.419,2.419,0,0,1,0-.331,2.061,2.061,0,0,1-.038-.263c0-.118-.057-.232-.061-.35s.118-.24.114-.358-.042-.232-.042-.35v-.354c0-.118-.1-.232-.1-.35s.068-.24.065-.354.042-.24.038-.354-.171-.232-.175-.35.034-.236.03-.354.1-.24.1-.354-.034-.236-.034-.354-.046-.244-.05-.381.065-.247.065-.381-.129-.244-.129-.381.049-.244.049-.381V11c0-.137.019-.244.023-.381s.141-.32.217-.327.2-.088.3-.1.224.107.331.1.2-.11.3-.118.21.076.312.08a2.021,2.021,0,0,1,.3.034c.1,0,.244-.091.35-.038s.148.179.255.236a3.089,3.089,0,0,0,.309.126,1.824,1.824,0,0,0,.289.114c0,.118.1.209.1.327s-.145.232-.145.346.035.236.035.354.125.236.125.354-.125.232-.125.346V12.8c0,.118-.092.232-.092.35s.1.232.1.35.091.236.091.35-.183.236-.179.354.179.232.183.346-.175.24-.171.358.111.217.118.327.08.213.091.324-.137.236-.129.346.16.206.171.316-.126.236-.114.343.179.206.19.316-.034.225-.023.335.061.217.072.327-.1.228-.091.339.2.213.2.32-.069.225-.069.335v.335a3.293,3.293,0,0,1-.049.327c-.012.11-.137.206-.153.316s.164.267.164.381-.148.274-.126.381a.572.572,0,0,0,.24.308.834.834,0,0,0,.362.08,2.847,2.847,0,0,0,.358,0c.122,0,.217-.164.335-.187s.259.08.381.046.255,0,.381-.023a2.437,2.437,0,0,0,.347-.1c.114-.038.194-.179.312-.209s.232-.1.354-.129.243-.053.381-.08.278.1.381.069.206-.244.331-.267a2.122,2.122,0,0,1,.381,0c.125,0,.243.088.361.076s.229-.061.347-.072.217-.171.335-.183.248.107.362.1.225-.141.343-.152l.35-.027c.114,0,.247.145.381.133s.214-.209.332-.221.259.187.381.171.217-.164.331-.183a2.247,2.247,0,0,1,.358,0,1.349,1.349,0,0,0,.35-.03c.114-.03.228-.065.346-.088s.229-.057.347-.072.224-.088.343-.1.229-.118.347-.129.244.057.362.049l.354-.034c.118,0,.236.088.358.084s.236-.107.354-.107.221.11.331.107.221-.046.331-.053.232.072.342.061.206-.156.316-.168.228.057.339.042.21-.091.32-.107.213-.072.324-.088a2.431,2.431,0,0,0,.331-.03l.328-.042a1.6,1.6,0,0,0,.331-.023,1.606,1.606,0,0,1,.331,0c.107,0,.225.1.335.1s.221-.049.331-.049.225-.072.335-.069.221.133.331.137.228-.156.339-.148.229-.057.339-.049.221.076.331.088.213.141.324.152.232-.1.343-.091.206.175.316.187.247-.171.358-.16.194.213.3.228a2.512,2.512,0,0,0,.339,0c.111,0,.236-.076.346-.057a.826.826,0,0,1,.335.11c.08.057.1.213.179.293s.08.206.137.293.213.133.251.225a.805.805,0,0,1,0,.331c0,.16.053.335-.019.415a.761.761,0,0,1-.381.2c-.118.023-.263-.11-.4-.11s-.255-.057-.381-.057-.248.076-.381.08-.24.107-.362.114-.255-.133-.381-.122-.247,0-.381.023-.232.118-.354.133-.232.1-.354.11-.259-.1-.381-.088-.168.171-.255.171-.236-.042-.354-.046-.232-.03-.351-.034-.232-.1-.35-.1-.24.107-.358.1-.232-.1-.35-.1-.236-.046-.354-.046-.236.175-.354.175-.236-.053-.354-.049a3.592,3.592,0,0,0-.381-.046c-.137.015-.217.16-.331.179s-.228.072-.343.1-.263-.11-.381-.091-.213.16-.332.179-.251-.107-.381-.1-.24,0-.381,0-.24.042-.362.042-.248.076-.381.076-.244-.1-.381-.091-.251,0-.381,0a1.853,1.853,0,0,0-.381.027l-.323.057a1.391,1.391,0,0,0-.331.027c-.11.027-.19.175-.3.194s-.213.03-.324.053-.236-.076-.343-.053-.2.118-.3.141-.206.084-.312.1-.232-.042-.339-.023-.2.11-.308.126-.232-.053-.343-.042l-.331.034c-.114,0-.217.11-.327.118a2.518,2.518,0,0,0-.339,0l-.331.046c-.122.019-.221.179-.343.2a3.484,3.484,0,0,0-.381.038c-.133.038-.267-.08-.381-.057s-.217.168-.339.19-.27-.091-.381-.069-.24.065-.362.088-.24,0-.358.03-.2.217-.316.24-.259-.084-.381-.061-.248-.03-.381,0-.19.27-.308.293-.259-.088-.381-.065a1.91,1.91,0,0,1-.362,0C337.351,22.879,337.439,23.134,337.317,23.157Z" transform="translate(-206.812 -6.273)" fill="#474f5f"/>
      <path id="パス_2893" data-name="パス 2893" d="M191.482,107.358c.111-.053.209,0,.316-.046a3.5,3.5,0,0,1,.316-.16c.111-.034.232-.053.347-.08s.225-.1.339-.11a2.821,2.821,0,0,1,.358-.057,2.775,2.775,0,0,1,.358.03,3.073,3.073,0,0,1,.343.122,2.924,2.924,0,0,1,.358.038c.107.034.194.145.3.194a1.589,1.589,0,0,0,.335.076c.106,0,.225-.049.339-.046s.221,0,.335,0h.339c.114,0,.232.1.343.1a2.154,2.154,0,0,1,.354.042c.13,0,.27-.049.381,0s.118.2.179.308.232.171.225.316-.217.152-.327.263-.118.266-.229.335-.289,0-.381.023-.206.133-.32.152-.236-.053-.35-.038-.213.114-.327.126l-.339.038c-.111,0-.217.1-.331.11s-.24-.1-.35-.091h-.343c-.111,0-.225.042-.339.053a3.413,3.413,0,0,1-.343,0l-.339.03c-.111,0-.217.091-.328.1s-.217.065-.331.072-.229-.061-.339-.05a3.268,3.268,0,0,1-.335,0l-.335.027-.331.027-.335.038a3.28,3.28,0,0,0-.331.042c-.11.011-.225,0-.335.019s-.217.1-.327.107-.236-.107-.346-.1-.221.061-.331.076-.2.148-.312.164-.228-.068-.331-.042-.179.145-.278.179-.225,0-.324.05-.16.16-.259.2l-.289.129c-.1.046-.255-.049-.35,0s-.141.213-.24.255a2.353,2.353,0,0,0-.286.129c-.091.053-.251,0-.343.042a2.422,2.422,0,0,1-.263.175c-.107.042-.2.156-.3.152s-.244-.133-.358-.114-.213.137-.324.175-.217.088-.327.129-.2.137-.308.175-.232.08-.343.11a2.351,2.351,0,0,1-.381.03,1.334,1.334,0,0,1-.381,0c-.11-.019-.168-.206-.278-.263s-.263,0-.358-.088a.51.51,0,0,0-.354-.129c-.137,0-.289.038-.411.03-.034-.126-.126-.236-.148-.343s.061-.267.05-.381-.1-.255-.084-.358a.761.761,0,0,1,.137-.346c.065-.091.213-.08.335-.137a1.257,1.257,0,0,1,.32-.1c.107-.019.2-.168.331-.179s.236,0,.362,0a1.092,1.092,0,0,0,.35-.042c.11-.038.217-.1.327-.145a2.858,2.858,0,0,1,.347-.08c.114-.038.232-.057.343-.1s.187-.2.3-.232.225-.084.335-.118.274.072.381.038.225-.076.339-.114.217-.1.327-.137.206-.141.316-.175.213-.107.327-.145l.331-.118c.114-.042.236-.042.35-.084a.9.9,0,0,0,.274-.114,1.294,1.294,0,0,0,.183-.24,1.333,1.333,0,0,0,.2-.225c.053-.107,0-.255.069-.381s.209-.16.263-.267.053-.232.1-.339.126-.2.175-.308.145-.194.194-.3-.023-.27.027-.381.194-.168.248-.274,0-.259.053-.381.209-.164.259-.27.1-.213.145-.324.129-.2.175-.3.05-.24.1-.347.053-.232.1-.343.061-.228.11-.335a1.009,1.009,0,0,0,.084-.282c0-.1.091-.2.091-.308s-.118-.206-.122-.308.065-.217.068-.316,0-.251,0-.381.038-.251.046-.381a2.008,2.008,0,0,1,.057-.381,2.359,2.359,0,0,0,0-.327c0-.11.11-.221.1-.331s-.118-.206-.137-.312a3.255,3.255,0,0,0-.019-.335c-.034-.1-.148-.175-.194-.274s0-.247-.057-.339a1.992,1.992,0,0,0-.164-.293,2.364,2.364,0,0,0-.259-.217c-.076-.08-.221-.076-.308-.141s-.114-.217-.209-.274a2.239,2.239,0,0,0-.324-.084c-.11-.046-.206-.118-.312-.156l-.331-.1c-.118-.03-.225-.1-.335-.122s-.244.03-.358.023a2.139,2.139,0,0,0-.346,0,1.963,1.963,0,0,0-.331.1c-.114.023-.263-.072-.381-.03a2.3,2.3,0,0,0-.324.152c-.1.053-.141.209-.236.278a2.708,2.708,0,0,0-.274.206c-.084.072-.152.164-.236.251s-.232.1-.308.187-.08.228-.156.324-.2.137-.27.232-.122.194-.19.293-.038.24-.091.331-.13.175-.179.27-.088.2-.133.3-.129.179-.171.282-.088.2-.122.3,0,.228-.03.331-.118.194-.149.3-.11.2-.137.3a.328.328,0,0,1-.228.251c-.122,0-.232.129-.354.141s-.251,0-.381,0h-.381c-.133,0-.248.027-.381.03s-.247.069-.381.065-.236-.126-.358-.137-.137-.065-.2-.2a1.448,1.448,0,0,1-.137-.308c-.023-.107-.133-.213-.148-.331s.053-.24.053-.354a2.554,2.554,0,0,1,0-.346.849.849,0,0,1,.137-.312c.057-.1.023-.255.076-.358s.194-.16.251-.263.137-.194.19-.3,0-.263.057-.381.213-.152.27-.251.042-.244.1-.346.206-.148.267-.247.027-.263.091-.358.187-.16.259-.251.088-.236.167-.324.24-.1.324-.179.129-.2.221-.278.228-.088.324-.156.122-.24.221-.3.247-.049.35-.107.168-.19.274-.244.236-.049.346-.1.217-.053.32-.088.194-.137.3-.167a1.261,1.261,0,0,1,.339,0c.111,0,.209-.1.32-.118s.225.065.335.057.221-.08.331-.084.221.1.328.107.221.027.331.034.221,0,.327,0a2.493,2.493,0,0,1,.339-.034c.11.015.213.046.324.065s.228-.027.339,0l.324.068c.107.023.183.179.289.206s.221.023.327.053.229,0,.335.03.179.156.282.194.244-.023.343,0,.168.175.267.221l.3.137c.1.046.225.042.32.1s.167.179.267.244.206.114.3.187.194.133.282.213a3.052,3.052,0,0,1,.213.282c.08.088.255.1.324.194a3.218,3.218,0,0,1,.156.327,2.551,2.551,0,0,1,.1.343,2.77,2.77,0,0,1,.156.32,3.109,3.109,0,0,1,.126.331,2.616,2.616,0,0,1,.061.354c0,.118-.027.236-.027.358a1.064,1.064,0,0,0,.076.381c.05.114.129.221.175.335a.7.7,0,0,1,0,.354v.354a2.71,2.71,0,0,1-.05.346c-.015.118-.027.229-.046.347s-.042.228-.069.343-.072.221-.107.331,0,.244-.046.354-.034.24-.08.35-.171.183-.217.289,0,.263-.038.381-.179.179-.228.286-.1.213-.145.32-.027.247-.076.358-.1.213-.145.32-.061.232-.11.339-.24.152-.286.259-.057.232-.1.343-.049.232-.1.343-.126.2-.167.312a.439.439,0,0,0,.049.331c.049.126.065.2.107.312a1.7,1.7,0,0,1,.148.392Z" transform="translate(-110.405 -62.465)" fill="#474f5f"/>
      <path id="パス_2894" data-name="パス 2894" d="M630.731,72.595c-.107-.03-.214-.126-.312-.152s-.233.034-.328,0-.225,0-.32-.038-.175-.164-.271-.2-.153-.16-.244-.209a.664.664,0,0,1-.24-.206.306.306,0,0,1-.083-.263.611.611,0,0,1,.083-.308c.065-.1.175-.133.267-.209s.079-.267.167-.339.2-.126.286-.2.255-.046.346-.118.084-.267.175-.339.149-.183.24-.251.331.049.423,0l.271-.217c.087-.069.126-.209.217-.282s.156-.171.247-.24.137-.2.229-.27.21-.107.3-.175.278-.023.381-.1.057-.293.148-.381.218-.1.3-.171.149-.179.24-.251.247-.061.335-.137.084-.251.172-.327.209-.107.3-.183.194-.122.278-.2.214-.1.3-.179.152-.175.236-.251.153-.175.236-.251.251-.061.339-.137.16-.164.244-.24.1-.236.183-.312.255-.057.343-.133.106-.221.19-.3.21-.11.294-.187.152-.175.232-.255.126-.2.209-.278.157-.164.24-.244.194-.129.275-.209.053-.267.133-.35.167-.152.247-.236.282-.046.358-.126.1-.209.175-.293.194-.129.267-.213.027-.27.1-.354.221-.1.293-.187.061-.244.133-.327.222-.107.29-.194.068-.232.141-.316.243-.091.312-.179.16-.16.228-.247.133-.175.206-.263,0-.274.083-.381.278-.065.346-.152l.2-.267c.069-.091.126-.187.194-.274s.042-.251.111-.339.2-.129.266-.217.126-.187.194-.274.057-.236.126-.324.221-.11.289-.2.1-.2.172-.289.206-.133.274-.221.087-.221.156-.312.03-.263.1-.354.312-.057.38-.149.034-.255.1-.35.244-.107.312-.2-.042-.308.023-.4.213-.129.278-.221.126-.194.19-.286.069-.232.137-.324.1-.213.164-.3.236-.11.3-.206.049-.244.114-.339.183-.148.251-.24.24-.1.3-.194.129-.183.2-.27.118-.194.186-.282.164-.16.229-.248,0-.282.072-.381.229-.1.3-.194.107-.2.175-.293.068-.225.137-.316.149-.168.217-.259.092-.209.156-.3.233-.11.3-.2.087-.217.152-.308.191-.137.255-.228.122-.19.191-.282.076-.217.141-.312.233-.11.3-.2-.034-.289.023-.381.286-.08.346-.171,0-.267.065-.358.114-.2.183-.286.248-.08.327-.156.08-.251.172-.316a2.179,2.179,0,0,1,.3-.187c.095-.05.262.065.38.03s.164-.16.294-.149.179.156.286.183.243-.072.335-.034a1.225,1.225,0,0,1,.252.213c.072.061.27.08.35.152s.053.32.118.381.324.137.343.244-.1.244-.152.381,0,.247-.08.381-.187.16-.255.278-.076.244-.145.339-.236.118-.313.209-.2.145-.274.232-.1.236-.172.324-.11.221-.182.312-.114.206-.186.3-.194.137-.259.228-.088.213-.148.3-.129.183-.19.278-.278.088-.339.183.031.289-.03.381-.187.145-.252.236-.144.171-.21.267-.136.175-.205.267l-.19.278c-.068.091-.2.133-.263.225s.023.293-.046.381-.172.152-.236.244-.076.225-.144.316-.186.141-.251.232-.251.091-.32.179-.072.228-.137.32-.164.156-.232.247-.046.247-.111.335-.1.206-.167.3-.286.069-.354.156-.026.259-.095.35-.167.156-.233.247-.171.152-.236.244-.144.175-.209.267l-.194.274c-.065.091-.068.228-.133.32s-.149.171-.214.263-.026.255-.092.346-.316.057-.38.148.026.293-.034.381-.1.206-.168.3-.258.1-.323.187-.164.16-.228.251.026.3-.038.381-.282.072-.351.164,0,.274-.079.381-.179.145-.252.232-.19.152-.271.244-.076.255-.16.343-.206.137-.286.225-.259.084-.343.168l-.251.255-.251.255c-.088.088-.1.24-.187.327s-.179.16-.263.244-.133.2-.213.293-.24.088-.312.171-.046.255-.114.343-.122.187-.191.274-.16.156-.232.244-.187.133-.259.221-.057.244-.129.327-.149.171-.229.251-.289,0-.38.091,0,.32-.107.381l-.255.221c-.084.072-.32-.038-.408.03l-.259.213c-.088.072-.072.27-.16.339s-.168.152-.255.221-.183.129-.274.2-.19.118-.278.187-.232.065-.32.133-.156.168-.244.236-.148.175-.236.244-.186.126-.274.194l-.259.213c-.065.049-.049.194-.11.247s-.2.118-.286.19-.2.114-.289.187-.137.187-.221.263-.137.19-.221.263-.3,0-.381.076-.175.145-.259.217-.175.145-.263.217-.114.217-.2.289-.156.164-.247.236-.225.076-.316.145-.156.168-.247.232-.148.194-.244.255-.259,0-.358.069-.156.19-.259.244-.217.076-.319.122-.157.213-.259.263-.27-.042-.381,0S630.83,72.541,630.731,72.595Z" transform="translate(-389.466 -29.52)" fill="#474f5f"/>
      <path id="パス_2895" data-name="パス 2895" d="M478.531,85.408c-.034-.118-.164-.183-.171-.286s.152-.225.168-.327a.9.9,0,0,1,.088-.293c.053-.1,0-.263.076-.35s.236-.072.324-.145.069-.278.16-.347.213-.088.3-.148.206-.1.293-.168.11-.2.183-.278.259-.05.343-.126.16-.145.243-.213.134-.183.225-.247.182-.114.274-.175.175-.133.266-.194.221-.057.312-.118.111-.232.2-.293.274,0,.362-.046a2.286,2.286,0,0,0,.278-.179c.088-.065.164-.156.244-.225s.1-.24.179-.32.171-.152.251-.236.118-.2.19-.289.255-.088.327-.175.164-.16.24-.248.088-.232.168-.312.236-.076.328-.148a2.309,2.309,0,0,1,.251-.221c.1-.061.122-.24.217-.3s.2-.11.293-.175.286,0,.381-.076.149-.19.236-.263.149-.183.236-.259.221-.1.3-.179.092-.24.175-.32.175-.148.255-.232.137-.187.217-.27.156-.171.232-.255.247-.088.324-.171.186-.145.263-.228.03-.285.11-.381.168-.156.248-.244.156-.171.236-.251l.244-.247c.08-.076.118-.187.194-.267s.267-.057.339-.141.038-.255.107-.343.232-.1.3-.183.118-.187.183-.274.16-.16.225-.248.114-.19.179-.278.145-.168.21-.259.148-.164.213-.251-.023-.289.042-.381.286-.065.35-.152.126-.179.194-.263.091-.24.167-.331.217-.133.293-.225.122-.217.2-.308.118-.217.2-.308.248-.107.328-.2.031-.289.111-.381.274-.088.35-.179,0-.316.065-.411.133-.168.2-.255.266-.076.331-.164,0-.266.065-.354.27-.076.331-.164,0-.255.084-.343a1.932,1.932,0,0,0,.236-.232c.061-.091.091-.2.156-.289s.053-.228.118-.316.247-.091.312-.179.061-.24.129-.327.107-.209.179-.3.3-.049.381-.137.153-.171.221-.263.133-.187.2-.278.076-.228.145-.32.19-.114.255-.2.122-.171.186-.251.11-.187.167-.27a2.542,2.542,0,0,0,.164-.278,2.338,2.338,0,0,0,.149-.3,1.8,1.8,0,0,1,.1-.35c.068-.126.038-.308.133-.381s.263-.023.381-.049a1.521,1.521,0,0,1,.381-.057,2.935,2.935,0,0,1,.312.091,2.125,2.125,0,0,1,.3.084c.1.027.236-.038.331,0s.137.19.225.247a1.52,1.52,0,0,1,.266.152c.08.076.229.088.289.179a1.451,1.451,0,0,1,.1.312.577.577,0,0,1,.023.354c-.023.11-.156.187-.21.3s-.087.213-.145.32-.019.278-.076.381-.2.133-.255.228.038.274-.019.381-.125.179-.178.274-.271.088-.332.179-.1.194-.152.286-.019.248-.076.339-.179.145-.24.232-.087.2-.152.289-.19.129-.255.221,0,.263-.073.35-.266.069-.339.152-.065.232-.137.312l-.224.244c-.076.08-.1.217-.171.293s-.214.1-.29.179-.228.088-.3.168-.164.156-.236.24-.03.3-.107.407-.225.152-.3.255-.069.266-.145.381-.182.187-.259.289-.152.175-.221.267l-.2.286c-.068.091-.175.16-.243.251s-.206.141-.274.232,0,.286-.072.381l-.21.278c-.068.091-.114.206-.182.3s-.156.175-.225.266-.225.122-.3.213-.182.148-.255.24-.122.2-.194.289-.084.228-.156.32-.167.164-.244.251-.16.164-.236.251-.175.152-.251.24-.084.232-.156.32-.164.164-.24.251-.1.213-.179.3-.225.11-.3.2-.186.141-.263.228-.175.152-.251.24-.087.232-.167.316-.229.1-.309.179-.114.213-.194.293-.091.24-.175.32-.152.179-.236.255-.172.156-.259.232-.3,0-.381.08-.073.27-.164.343-.187.126-.274.2-.2.107-.286.183-.19.122-.278.2l-.251.225c-.084.072-.1.229-.179.3l-.247.228c-.084.076-.263.046-.347.118s-.118.206-.2.282-.191.122-.274.194-.148.171-.236.244-.232.069-.32.141-.046.3-.129.381a2.955,2.955,0,0,1-.278.187c-.084.069-.191.126-.274.194s-.164.156-.247.228-.244.057-.331.129-.194.114-.282.183-.156.164-.24.232-.084.251-.172.32-.263.03-.35.1-.076.267-.164.335-.255.038-.342.107-.213.088-.3.156-.111.225-.2.289-.133.194-.224.259-.252.05-.354.114-.194.133-.3.187-.209.118-.32.164-.221.08-.335.118-.225.072-.339.1-.228.091-.343.11a1.2,1.2,0,0,1-.35.042c-.1,0-.2-.122-.3-.16s-.167-.168-.271-.213-.209-.065-.312-.107S478.634,85.442,478.531,85.408Z" transform="translate(-297.243 -39.615)" fill="#474f5f"/>
      <g id="グループ_6476" data-name="グループ 6476" transform="translate(361.071 5.934)">
        <path id="パス_2888" data-name="パス 2888" d="M1022.038,87.066c.122,0,.228-.088.343-.088s.236.1.346.107a3,3,0,0,1,.343.072c.12-.006.238-.006.358,0,.114.038.259,0,.362.069s.114.267.205.335a2.081,2.081,0,0,1,.278.2c.08.084.22.114.289.213a2.284,2.284,0,0,1,.175.3c.053.1.172.183.214.3s-.035.259,0,.381a1.247,1.247,0,0,1,0,.354c0,.118.11.213.129.331a3.268,3.268,0,0,1-.031.35c0,.126.111.24.1.354a3.093,3.093,0,0,1-.057.35,2.32,2.32,0,0,1-.106.339,2.542,2.542,0,0,1-.118.339,2.1,2.1,0,0,1-.163.327c-.072.091-.229.114-.312.2s-.145.194-.236.27-.164.171-.26.244-.209.114-.308.179-.266,0-.381.076-.167.145-.259.2l-.274.183c-.092.057-.168.137-.26.2l-.275.175-.274.175c-.091.061-.156.16-.248.217s-.236.034-.327.091-.122.217-.217.27-.248,0-.342.061-.138.2-.233.251-.251,0-.38.03-.194.187-.308.213-.248-.027-.381,0l-.347.072a3.525,3.525,0,0,0-.346.08c-.107.038-.213.084-.32.118s-.221.057-.327.091-.221.05-.331.08-.21.1-.32.129-.209.114-.32.137-.251-.1-.38-.084-.21.141-.32.16-.24-.061-.35-.049-.218.122-.331.129-.229,0-.343,0-.225.05-.339.057-.228-.057-.343-.053-.225.03-.339.034-.228-.038-.342-.034-.225,0-.339,0-.228.156-.343.156-.225-.156-.339-.16-.228,0-.342,0-.229.145-.343.145-.225-.1-.339-.107-.236,0-.354,0a2.869,2.869,0,0,1-.358.023q-.172-.052-.339-.122c-.118-.023-.213-.118-.327-.149s-.252.019-.362,0-.2-.129-.309-.175-.228-.072-.33-.122-.2-.122-.305-.179-.16-.187-.259-.248-.263,0-.381-.03a1.953,1.953,0,0,1-.3-.118c-.1-.042-.187-.118-.286-.168s-.126-.217-.221-.27-.233-.053-.324-.118-.232-.072-.315-.141-.191-.137-.271-.213-.13-.194-.2-.278-.168-.16-.236-.251-.039-.248-.1-.339-.179-.156-.232-.255-.118-.194-.168-.293-.13-.19-.175-.293-.019-.236-.061-.343,0-.228-.057-.335a1.738,1.738,0,0,1-.084-.324c-.034-.107-.11-.2-.14-.308s-.115-.213-.142-.331.027-.244,0-.381-.079-.225-.094-.343-.061-.232-.069-.35.042-.24.042-.358.08-.236.08-.354-.152-.232-.152-.346v-.343c0-.114.042-.228.042-.343s-.027-.228-.027-.343.023-.228.023-.343.1-.228.1-.343-.091-.228-.091-.343-.05-.232-.046-.347.145-.225.145-.339V84.7c0-.114-.087-.232-.083-.346s.053-.228.061-.343.08-.225.084-.339.053-.228.057-.343-.16-.236-.152-.35.065-.225.072-.339l.023-.343c0-.114.118-.221.126-.335a2.625,2.625,0,0,1,.022-.343,2.013,2.013,0,0,1,0-.339c.023-.107.126-.187.167-.293s0-.248.061-.343a1.157,1.157,0,0,1,.194-.3c.083-.068.259.027.381,0s.179-.122.3-.129a2.029,2.029,0,0,1,.331.069,1.821,1.821,0,0,1,.32.069,2.151,2.151,0,0,1,.316.091,2.176,2.176,0,0,1,.327.1c.1.061.138.187.217.263a1.242,1.242,0,0,1,.244.217,1,1,0,0,1,.145.289c.027.1.145.179.149.282s-.126.194-.149.286-.064.232-.092.347.092.266.061.381-.129.209-.16.327-.02.24-.05.354,0,.248-.031.362-.2.194-.228.308.053.259.023.381-.035.236-.065.35-.191.221-.221.335a1.725,1.725,0,0,0,.381.133.9.9,0,0,0,.381.1c.122,0,.194-.145.312-.209s.274,0,.381-.1a1.986,1.986,0,0,1,.259-.232c.1-.061.221-.076.32-.133s.187-.133.289-.187.16-.187.263-.24.263,0,.381-.042.168-.175.271-.225.2-.114.3-.164.183-.145.286-.2.244-.03.346-.084.221-.046.316-.091a2.829,2.829,0,0,1,.3-.11q.15-.061.3-.107a2.273,2.273,0,0,1,.319-.034,2.185,2.185,0,0,1,.316,0c.111,0,.232-.1.339-.076a2.592,2.592,0,0,1,.335.061,3.148,3.148,0,0,1,.308.137,2.278,2.278,0,0,1,.309.137c.1.061.133.206.216.278s.157.16.229.232.216.156.282.217a2.164,2.164,0,0,1-.1.354,1.554,1.554,0,0,1-.126.335A1.186,1.186,0,0,1,1015,85c-.091.069-.243,0-.347.065s-.171.183-.281.213-.236,0-.342.03-.183.179-.286.217-.259-.038-.354.019-.2.091-.305.141-.164.168-.267.213-.186.126-.289.171-.22.057-.319.1-.2.11-.3.156-.186.126-.286.171-.251,0-.35.046-.149.194-.248.248-.2.1-.29.156a3.345,3.345,0,0,0-.278.187c-.087.072-.179.175-.271.247s-.167.194-.266.267-.233.1-.336.164-.27,0-.38.053-.187.156-.309.19a2.392,2.392,0,0,1-.354.122.324.324,0,0,0-.236.133,1.049,1.049,0,0,0-.111.274,1.694,1.694,0,0,0-.072.324c0,.107.05.217.05.331s-.16.228-.149.343.186.2.205.312a3.269,3.269,0,0,0,.031.331c.031.11.057.213.091.324s.079.206.118.312.057.213.1.316-.05.27,0,.381.1.213.153.308.251.114.312.206.087.217.156.3.1.225.183.293.24.072.33.126.183.137.286.187.172.179.275.225.278-.091.381-.053.176.2.286.228.213.1.324.126.228.053.339.072.244-.1.362-.084.22.11.334.118.237,0,.351,0h.351c.118,0,.224-.1.338-.107s.236.065.351.05.236,0,.35-.023.213-.1.327-.129.229-.027.343-.053l.335-.084c.111-.03.229-.034.342-.065s.218-.08.328-.11.205-.118.316-.149.262.076.381.046.19-.179.3-.209.213-.1.328-.126.258.088.381.057.224-.042.335-.069.19-.187.3-.221a3.082,3.082,0,0,0,.323-.1c.107-.042.2-.107.3-.156s.24-.023.339-.08.19-.129.286-.19.145-.19.24-.251.255-.03.346-.1.21-.1.3-.171.13-.206.22-.278.229-.072.316-.145.172-.149.263-.217l.274-.2c.091-.069.157-.168.248-.232a.982.982,0,0,0,.251-.251c.065-.1,0-.248.057-.354a.843.843,0,0,0,.137-.308c.008-.107,0-.217,0-.324v-.327c0-.11.054-.213.054-.324s-.091-.213-.091-.324.133-.217.133-.327.023-.217.023-.324S1022.038,87.176,1022.038,87.066Z" transform="translate(-985.979 -59.278)" fill="#474f5f"/>
        <path id="パス_2892" data-name="パス 2892" d="M956.717,52.979c-.1-.053-.2-.24-.3-.3s-.2-.084-.3-.137-.179-.137-.282-.187-.19-.122-.293-.168-.263-.023-.351-.088-.118-.221-.179-.312-.209-.179-.229-.293.076-.228.107-.35-.034-.27.034-.381.319-.057.381-.152.075-.213.133-.308.16-.16.221-.251-.087-.324-.027-.415.282-.08.343-.171.049-.232.11-.327.11-.19.172-.282.11-.194.171-.286.224-.114.286-.206.046-.24.106-.331.214-.122.275-.213-.023-.282.038-.381.13-.179.191-.27.2-.137.266-.232.171-.16.236-.255.122-.19.187-.286.038-.251.1-.346.19-.145.255-.24.213-.126.282-.221.1-.206.168-.3.083-.221.152-.312.142-.179.206-.27.068-.24.137-.331.289-.076.358-.168.11-.206.182-.3.046-.255.115-.346.121-.2.194-.289.232-.114.3-.206.053-.251.126-.343.186-.148.259-.24.038-.263.107-.354.285-.076.358-.168,0-.286.076-.381.129-.194.2-.286.267-.088.335-.179,0-.286.076-.381.19-.149.259-.24.088-.217.156-.308l.2-.274c.068-.091.3-.069.362-.16s.186-.145.255-.236.069-.232.134-.324.053-.247.118-.339.236-.11.3-.2.187-.149.255-.24.088-.217.157-.308.08-.225.149-.316.061-.236.129-.327.191-.141.26-.232.194-.141.262-.228.05-.251.119-.343.068-.232.137-.324.171-.156.244-.248.118-.194.187-.286.289-.057.381-.148a2.912,2.912,0,0,0,.19-.282c.072-.088.053-.251.126-.339s.29-.053.381-.141,0-.3.068-.381.244-.1.316-.183.175-.148.247-.236.164-.16.236-.247-.042-.324.031-.411.183-.145.252-.236.228-.11.3-.2.079-.221.148-.312.2-.129.26-.221,0-.27.045-.381a1.941,1.941,0,0,1,.191-.267c.057-.1.125-.179.183-.278s.278-.1.331-.19-.057-.286,0-.381.217-.129.274-.225,0-.255.057-.35.126-.183.187-.274.22-.137.285-.236-.038-.308.027-.4.152-.183.216-.278.24-.122.309-.221.106-.209.175-.3.1-.217.167-.312.252-.11.32-.209-.053-.32,0-.415.236-.126.3-.221.24-.118.305-.217-.042-.316.026-.411.308-.069.382-.168.106-.209.175-.3,0-.263.076-.354.156-.168.225-.255.1-.217.175-.3.278-.03.382-.1.133-.183.274-.194.217.061.342.076.26-.107.382-.076.183.2.292.244a2.71,2.71,0,0,1,.324.129,2.136,2.136,0,0,1,.323.156c.1.084.248.152.3.247a1.52,1.52,0,0,1,.054.381,1.325,1.325,0,0,1,0,.35,1.4,1.4,0,0,1-.056.35c-.034.1,0,.255-.073.362s-.293.076-.38.171-.08.217-.145.3-.046.24-.11.327-.3.065-.362.156,0,.267-.053.362-.088.206-.145.3l-.175.282c-.061.091-.175.148-.232.244s-.194.141-.252.232-.019.247-.08.343-.213.122-.274.213-.133.179-.193.27,0,.255-.08.346-.228.11-.29.2.057.312,0,.381a3,3,0,0,0-.217.255c-.061.091-.122.187-.187.278s-.2.126-.263.217-.159.16-.225.247-.145.171-.209.259-.023.255-.084.346-.083.209-.144.3-.191.129-.252.221-.114.187-.175.274-.266.08-.327.168.068.316,0,.4-.182.137-.244.225-.194.129-.259.217-.034.244-.1.331-.308.034-.381.122-.023.267-.091.354-.08.221-.149.308-.3.049-.381.137-.1.206-.171.293-.156.16-.224.247-.156.164-.225.251-.031.263-.1.35-.114.194-.186.282l-.205.263c-.069.088-.161.16-.229.247s-.194.129-.263.217-.06.236-.13.327-.114.19-.178.282-.183.145-.251.236-.118.194-.187.286-.141.175-.205.27-.274.08-.343.175-.137.179-.2.274.068.324,0,.419-.316.053-.381.145-.057.236-.121.331-.126.19-.19.282-.2.137-.267.228-.05.244-.115.335-.24.11-.3.2.046.316,0,.407-.172.164-.24.255-.22.126-.293.217-.129.19-.2.282-.054.251-.122.343-.3.061-.381.152,0,.278-.088.381-.19.148-.258.24-.062.244-.134.335-.248.1-.316.194-.026.274-.1.381-.27.084-.339.179,0,.3-.057.381-.347.027-.418.122.022.3-.047.381a3.412,3.412,0,0,0-.224.27c-.068.1-.167.164-.232.255s-.061.244-.126.339-.225.126-.289.221-.057.24-.122.335-.088.217-.153.316-.2.145-.259.24-.172.168-.236.263l-.186.293c-.061.1-.1.209-.16.3s-.11.206-.171.3-.1.213-.16.308-.182.16-.244.255-.224.129-.289.228-.065.232-.126.327-.16.171-.225.267-.05.247-.114.343a2.917,2.917,0,0,1-.172.274c-.068.08-.205.1-.281.179s-.156.137-.236.209-.042.274-.126.343-.225.065-.308.133-.1.206-.183.278S956.793,52.906,956.717,52.979Z" transform="translate(-954.783 -25.217)" fill="#474f5f"/>
        <path id="パス_2897" data-name="パス 2897" d="M984.83,73.481c0,.118.156.228.16.343s-.107.236-.1.35.111.225.123.339a3.455,3.455,0,0,0,0,.35,1.758,1.758,0,0,1,0,.347c0,.114.114.225.121.339s-.038.232-.034.346-.118.236-.114.35.042.228.046.339.08.232.08.347-.122.225-.13.339.072.232.065.347-.05.225-.057.335,0,.232,0,.346-.076.221-.087.331.11.24.1.354-.072.221-.083.335-.039.225-.05.339.068.236.057.35-.145.213-.156.324.1.24.087.354-.141.213-.156.327.08.24.068.35-.064.221-.08.335-.083.221-.1.331.08.24.068.354-.084.217-.1.331-.156.209-.172.324.141.247.126.358-.076.221-.091.335,0,.228-.027.339-.183.206-.2.32.141.247.125.381-.094.217-.11.327-.023.228-.039.343-.064.228-.079.346.068.251.053.381-.2.209-.221.327-.042.236-.064.35.03.247,0,.381-.061.232-.084.346a2.13,2.13,0,0,0,0,.381c0,.133-.118.221-.144.339s-.088.225-.115.339.035.251,0,.381-.156.209-.179.327a1.343,1.343,0,0,1-.045.316c-.046.1.065.244.031.346s-.046.213-.079.316-.161.171-.2.274-.091.194-.133.293,0,.232-.042.331-.153.164-.241.24a.327.327,0,0,1-.286.069l-.3-.175c-.1-.034-.217-.038-.32-.076s-.217-.038-.319-.076-.163-.179-.263-.221-.209-.065-.3-.11-.222-.05-.316-.1a.575.575,0,0,1-.187-.236c-.042-.084.027-.206,0-.3s-.122-.187-.107-.266.084-.213.1-.324.038-.221.061-.331.079-.213.106-.324,0-.228.031-.335a1.284,1.284,0,0,0,0-.343c0-.11.084-.213.107-.324s.114-.2.141-.312.087-.209.114-.32-.072-.244-.05-.354.068-.217.091-.327a1.613,1.613,0,0,0,0-.339c0-.11.18-.19.2-.3s.057-.217.079-.327-.075-.248-.053-.354.157-.206.179-.316-.1-.247-.076-.381.069-.221.088-.331.076-.221.1-.331.1-.217.118-.331.046-.225.061-.339.027-.225.042-.339-.061-.236-.05-.35,0-.236.024-.354a1.865,1.865,0,0,0,0-.358c0-.118.083-.228.1-.343s.042-.232.058-.35-.024-.24,0-.358a1.9,1.9,0,0,0,0-.354,2.7,2.7,0,0,1,.034-.354c.015-.118.05-.232.061-.346a3.382,3.382,0,0,1,.024-.354c.022-.114.046-.232.057-.35s.179-.217.194-.335-.146-.255-.133-.381.1-.225.118-.343.1-.232.1-.354,0-.247,0-.381-.157-.221-.164-.335.035-.232.027-.35.068-.232.065-.347-.194-.221-.2-.335.179-.24.172-.354-.061-.228-.069-.343-.114-.225-.121-.339.11-.236.1-.35-.057-.228-.061-.343-.142-.221-.145-.335.1-.236.1-.354-.111-.221-.118-.339.137-.236.129-.35-.049-.228-.053-.343-.156-.221-.164-.339.053-.232.05-.347-.061-.228-.068-.343a1.729,1.729,0,0,1,.129-.426c.057-.187.168-.381.233-.381h.339c.11,0,.224.046.338.046s.222.065.332.072a2.393,2.393,0,0,1,.331.03,1.48,1.48,0,0,1,.3.11c.114.046.244.027.335.08a2.521,2.521,0,0,1,.3.167,1.672,1.672,0,0,1,.229.267c.065.1,0,.251.046.354s.19.175.213.286a2.742,2.742,0,0,1,.084.339v.347c0,.11-.038.228-.046.343S984.838,73.371,984.83,73.481Z" transform="translate(-970.538 -53.358)" fill="#474f5f"/>
      </g>
      <path id="パス_2898" data-name="パス 2898" d="M271.852,94.714v.381a3.358,3.358,0,0,1-.053.381c-.015.122-.023.251-.038.381a4.223,4.223,0,0,0,0,.438h-.381c-.111,0-.225-.126-.331-.122s-.217.129-.324.133-.217.08-.328.084-.225-.114-.335-.11-.217-.072-.327-.072h-.674c-.114,0-.232.187-.35.187s-.228-.034-.342-.038-.232-.076-.347-.08-.228-.11-.343-.11-.232.049-.346.046h-.693c-.114,0-.228.137-.347.141s-.232-.145-.346-.141-.225.137-.339.141-.225.023-.339.027-.232-.133-.346-.129-.229-.076-.343-.072-.225.11-.339.114-.228-.038-.343-.034-.225.084-.335.088-.225.091-.339.1-.236-.167-.347-.16-.228.053-.339.061-.232-.061-.346-.053-.221.148-.331.152-.236-.1-.35-.1l-.343.034a2.08,2.08,0,0,0-.346,0c-.1.027-.179.175-.282.213s-.24-.027-.343,0-.141.259-.244.289-.248-.072-.354-.053-.209.08-.32.1-.228-.027-.339,0-.225,0-.331.03a2.507,2.507,0,0,1-.324.11c-.111.015-.21.1-.32.114s-.236-.091-.346-.072-.217.061-.327.08-.217.049-.327.065-.206.118-.316.137a3.137,3.137,0,0,0-.327,0c-.107.03-.236-.034-.343,0s-.171.236-.278.251a2.513,2.513,0,0,1-.339,0c-.111,0-.217.076-.328.088s-.217.046-.327.057-.236-.069-.346-.057-.228-.049-.339-.034l-.331.038h-.335c-.11,0-.2.183-.308.2s-.24-.076-.35-.057-.183.179-.289.209-.251-.084-.354-.05-.175.171-.282.206-.236-.034-.343,0-.179.225-.289.24-.232-.137-.339-.141-.247.11-.381.1-.209-.164-.327-.187a1.809,1.809,0,0,1-.35-.046,2.783,2.783,0,0,0-.346-.072c-.114-.03-.2-.148-.312-.183s-.251.023-.381,0-.228-.053-.343-.08v-.312a2.743,2.743,0,0,1,.042-.3c.011-.1.133-.19.145-.293s-.049-.209-.034-.316-.049-.267-.038-.381h.381c.1,0,.228.088.339.076s.209-.129.32-.137.213-.091.324-.1.232.114.343.107l.328-.027c.11,0,.209-.137.32-.148s.232.091.343.08l.327-.042a2.085,2.085,0,0,0,.343.03c.11-.019.217-.118.331-.141s.2-.156.312-.183.232-.027.343-.057.24,0,.35-.038.194-.168.3-.2l.335-.1c.11-.03.263.08.381.05s.194-.187.309-.209.248.1.358.076.225.023.335,0,.2-.206.316-.217.228.053.339.038.217-.076.324-.1l.327-.057c.107,0,.236.072.346.053s.194-.156.3-.175a1.965,1.965,0,0,1,.335,0c.11,0,.2-.107.312-.129a1.64,1.64,0,0,1,.335,0,1.666,1.666,0,0,0,.32-.088c.107-.023.24.076.346.057s.194-.167.3-.187a2.443,2.443,0,0,0,.331-.034,2.041,2.041,0,0,1,.32-.1l.354-.046c.118,0,.244.114.362.107s.232-.118.35-.122h.354c.118,0,.236.068.354.068s.236-.141.354-.141.236.034.354.038h.339c.114,0,.228.03.339.034s.225.133.335.137.229-.042.343-.038.228-.114.343-.11.217.213.331.217.228-.137.343-.133.221.118.335.118.225.027.339.027.229-.088.339-.088h.339c.11,0,.225-.034.339-.034s.225-.046.339-.046.244.175.362.168.225-.091.343-.107.232-.038.35-.057.236,0,.35-.023.213-.171.327-.19.244.05.381.038.236.072.354.068.228-.1.346-.1.221.1.339.118.244-.065.362-.038.252-.05.381,0,.2.156.316.187.2.156.312.187l.346.091C271.628,94.733,271.738,94.688,271.852,94.714Z" transform="translate(-153.798 -58.28)" fill="#474f5f"/>
      <g id="グループ_6477" data-name="グループ 6477" transform="translate(316.835 5.063)">
        <path id="パス_2887" data-name="パス 2887" d="M890.585,81.008c.023-.11.171-.2.19-.308s-.068-.24-.046-.35.088-.213.11-.324-.027-.232,0-.343.031-.225.05-.335.145-.2.167-.312.069-.213.1-.324-.061-.248-.034-.358.152-.2.179-.312.026-.225.049-.339-.019-.236,0-.347.08-.217.107-.327,0-.232.03-.343a3.424,3.424,0,0,1,.042-.343c.042-.11.156-.2.182-.308s.08-.217.107-.327-.08-.251-.054-.381.18-.19.205-.3a1.576,1.576,0,0,0,0-.354c0-.11.084-.213.114-.324s0-.232.024-.339.087-.206.118-.308.027-.225.057-.331.118-.194.152-.3.172-.175.205-.282-.08-.259-.046-.381.175-.175.209-.282.035-.221.068-.324.065-.213.1-.32.042-.217.071-.324,0-.228.046-.331.148-.187.179-.293.1-.2.122-.308.057-.217.083-.324-.053-.247-.027-.354.152-.194.187-.3-.023-.255.031-.354.2-.137.282-.217.11-.225.216-.282.218,0,.3-.03.164-.137.2-.11c.091.069.149.175.236.244s.263.034.346.1.118.209.2.282.217.1.3.168.114.209.2.286.252.057.335.133,0,.4-.034.556-.05.232-.08.343l-.091.339c-.035.11-.179.19-.209.3s.027.251,0,.381-.149.2-.183.312-.071.221-.106.335-.054.225-.083.339a2.151,2.151,0,0,1-.051.35,2.78,2.78,0,0,0-.16.316c-.031.11-.068.206-.1.32s0,.228-.027.339-.079.209-.114.32-.083.206-.118.312,0,.236-.031.343-.19.175-.224.282-.023.225-.057.331.027.248,0,.354-.228.164-.259.27.065.259.031.381-.126.2-.156.3-.075.213-.106.32,0,.24-.023.347a2.028,2.028,0,0,1-.042.335c-.042.107-.138.2-.16.3s-.023.236-.046.346-.1.217-.122.327-.08.225-.1.335.018.24,0,.35-.088.221-.107.335.083.247.065.381-.088.217-.107.331-.031.225-.049.339-.027.228-.042.343-.046.225-.061.339a1.7,1.7,0,0,1-.039.343,2.194,2.194,0,0,0-.042.346,1.84,1.84,0,0,0-.064.32,1.62,1.62,0,0,0-.03.335,2.037,2.037,0,0,0,.133.312c.038.1.16.164.213.259s.053.225.122.308a1.891,1.891,0,0,0,.232.232c.083.072.225.049.319.107a1.716,1.716,0,0,0,.278.129,1.324,1.324,0,0,0,.3.065c.118,0,.224.034.338.038s.229,0,.343,0,.236.072.351.061a2.7,2.7,0,0,0,.35-.027c.114-.027.2-.171.308-.2s.244.03.358,0,.217-.069.331-.107.236-.023.346-.061.229-.049.336-.091.189-.145.3-.187.187-.156.3-.2l.323-.122c.107-.038.209-.1.32-.137s.224-.046.334-.088.21-.1.32-.145.251.027.381,0a2.261,2.261,0,0,0,.33-.072c.1-.038.206-.1.309-.137s.216-.076.316-.118.2-.107.3-.148.179-.156.278-.2.24-.027.339-.072.172-.171.266-.217.22-.069.316-.122.21-.091.3-.145.221-.08.312-.133.168-.168.255-.228l.278-.187c.1-.069.222-.091.305-.156s.087-.251.167-.32.255-.053.335-.133.072-.244.148-.327.229-.1.3-.19.186-.145.251-.236,0-.27.073-.381.2-.141.259-.24.03-.24.087-.339.16-.171.213-.274.035-.232.083-.335.126-.19.167-.293.057-.221.1-.327.129-.19.171-.3a1.023,1.023,0,0,1,.16-.282c.069-.088.107-.232.2-.286a.944.944,0,0,1,.312-.1c.1,0,.2.114.308.137s.26-.088.359-.034a1.5,1.5,0,0,1,.274.2c.076.069.027.259.1.346a2.334,2.334,0,0,1,.2.259,2.989,2.989,0,0,1,.172.282,3.32,3.32,0,0,1,.167.3c.027.107-.042.236-.023.346s.1.209.1.32.1.225.092.339-.057.225-.072.335c-.034.109-.074.215-.118.32a3.207,3.207,0,0,1-.053.335c-.038.1-.13.187-.175.286a3.839,3.839,0,0,0-.354.56c-.068.084-.1.2-.172.286s-.194.122-.266.206-.057.24-.125.324-.206.114-.274.2-.1.206-.172.289-.217.1-.289.183-.076.232-.156.308-.141.175-.221.247-.259.038-.343.107-.126.2-.217.263-.216.027-.346.091-.133.232-.252.289-.247,0-.358.05-.212.084-.323.133-.229.05-.339.1-.161.217-.266.263-.271-.034-.381,0-.205.118-.312.16-.2.137-.308.179-.244.027-.35.069-.21.122-.312.16-.233.076-.331.114-.244.084-.328.114-.205.133-.311.171-.214.11-.324.149-.232.034-.343.072-.217.1-.327.133-.236,0-.35.053a2.585,2.585,0,0,1-.316.168c-.115.034-.248-.023-.382,0s-.193.156-.308.19-.225.049-.339.084-.237.027-.351.061-.193.164-.308.2-.228.038-.346.072-.236.023-.351.053l-.342.091c-.114.027-.236.023-.35.042s-.244-.034-.358,0a1.33,1.33,0,0,1-.347.034c-.118,0-.24.145-.358.133s-.225-.038-.331-.053-.214-.118-.32-.133-.221-.049-.327-.069-.225-.023-.332-.046-.224-.023-.331-.049-.243.034-.35,0-.182-.156-.286-.194-.209-.08-.308-.126-.172-.152-.267-.206-.248-.019-.339-.08-.11-.225-.2-.293-.191-.107-.275-.183-.209-.1-.289-.179-.1-.209-.168-.3-.236-.1-.3-.19,0-.267-.069-.381a.926.926,0,0,1-.14-.274c-.038-.1-.2-.164-.225-.278s.023-.228,0-.343-.11-.209-.118-.324.121-.228.118-.339-.157-.221-.157-.331.027-.228.031-.339.152-.217.16-.324-.1-.24-.091-.343S890.569,81.1,890.585,81.008Z" transform="translate(-870.683 -50.994)" fill="#474f5f"/>
        <path id="パス_2889" data-name="パス 2889" d="M855.151,65.19c.106.034.2.126.308.156l.332.084c.11.03.22.072.327.107s.236.038.339.08a2.287,2.287,0,0,1,.327.137,1.077,1.077,0,0,1,.259.282c.072.091.225.175.271.289a2.348,2.348,0,0,1,.1.381c0,.114-.079.259-.083.381s-.1.228-.126.347a2.041,2.041,0,0,1-.083.339,3.176,3.176,0,0,1-.145.32c-.057.1-.068.225-.122.324s-.178.168-.232.267-.138.187-.19.289,0,.263-.042.381a2.322,2.322,0,0,1-.168.3c-.054.1-.038.236-.088.339s-.118.2-.171.3-.046.236-.1.335-.113.2-.167.3-.274.118-.327.217.02.27-.035.381-.083.217-.137.316-.312.1-.381.2-.05.232-.1.335-.16.175-.214.274.035.278,0,.381-.178.164-.232.263.061.293,0,.381a3.033,3.033,0,0,0-.224.266c-.054.1-.092.213-.146.312s-.2.156-.255.255-.149.179-.205.278.023.282-.038.381-.092.221-.149.32-.233.137-.293.24-.114.2-.175.3-.2.152-.263.255-.053.24-.114.339,0,.282-.054.381-.354.057-.415.156.031.293-.031.381-.049.248-.11.347-.281.1-.342.2-.111.206-.171.3-.183.168-.244.267.064.312,0,.415-.244.122-.3.225-.107.19-.164.289-.1.194-.153.293-.076.209-.129.3-.042.232-.1.327-.172.156-.224.251-.156.168-.21.263-.148.171-.2.267l-.164.286c-.057.1.072.3,0,.381a1.75,1.75,0,0,0-.225.251c-.053.1-.121.187-.175.282s-.042.232-.1.327-.327.065-.381.16-.079.209-.137.3.076.308,0,.4-.217.129-.274.225-.19.145-.251.24.042.286,0,.381-.164.164-.222.259-.145.175-.205.27-.236.114-.293.209-.042.24-.1.335-.228.118-.289.213-.039.24-.1.335-.144.171-.2.266-.126.187-.182.278-.076.217-.134.312-.186.149-.244.244l-.171.289c-.057.1-.023.248-.084.343s-.194.145-.251.24-.1.2-.16.293-.123.187-.179.282,0,.27-.046.381a2.325,2.325,0,0,1-.118.331c-.061.1-.1.209-.16.308s-.161.171-.221.27-.217.137-.275.236-.091.217-.149.316-.149.179-.205.278-.031.251-.087.35-.145.183-.206.282-.16.171-.217.27-.217.141-.274.24-.142.187-.2.286.08.316.023.415-.175.164-.236.263-.248.118-.3.217.027.286-.031.381-.209.145-.267.244.027.282-.034.381-.153.175-.21.274-.118.255-.178.354a2.125,2.125,0,0,0-.382,0c-.1.023-.236-.068-.334-.057s-.221.129-.324.133-.24.072-.339.065-.22-.13-.319-.156-.167-.145-.267-.2a2.836,2.836,0,0,1-.256-.187c-.076-.061-.144-.145-.232-.225s-.152-.137-.24-.217-.266-.069-.354-.148c.06-.1.255-.141.316-.232s.03-.244.091-.339.087-.209.149-.3.24-.11.3-.2.091-.206.153-.3,0-.263.065-.354.145-.171.206-.267.266-.091.327-.187.065-.221.126-.316,0-.267.057-.358.308-.072.381-.168a2.67,2.67,0,0,0,.191-.282c.057-.1,0-.251.068-.347s0-.251.069-.346.255-.11.308-.206.122-.187.179-.286.076-.209.134-.308.144-.175.2-.27.156-.167.209-.263.118-.19.175-.286.076-.213.134-.308.137-.179.19-.278-.05-.282,0-.381.145-.175.2-.27l.16-.293c.057-.1.22-.129.278-.225s.076-.213.134-.308,0-.255.057-.354.19-.145.248-.24,0-.263.057-.358.149-.171.209-.27.206-.137.267-.232,0-.27.046-.381.171-.16.228-.255.2-.141.263-.236.038-.24.1-.335.118-.194.178-.289.126-.187.183-.282.209-.137.267-.232-.039-.286,0-.381a2.018,2.018,0,0,1,.13-.312c.057-.1.175-.16.232-.255s.19-.148.248-.247,0-.263.053-.358.32-.072.381-.171,0-.263.053-.381.171-.16.229-.255-.031-.278.026-.381.324-.076.381-.175,0-.251.073-.35.034-.24.09-.339.1-.2.156-.3.061-.225.114-.324.3-.091.358-.19.064-.225.118-.324.2-.145.259-.244.027-.247.084-.346.156-.168.213-.267-.087-.308-.031-.407.324-.076.381-.175,0-.259.061-.358.209-.141.267-.24l.156-.3c.057-.1.1-.2.156-.3s-.072-.3,0-.381.327-.072.381-.171-.038-.286,0-.381a2.308,2.308,0,0,1,.1-.335c.057-.1.338-.065.381-.164s-.111-.339-.049-.438.229-.126.289-.225.134-.187.194-.286.167-.168.229-.263.057-.24.118-.335.11-.2.175-.3.133-.19.194-.285.267-.1.33-.2.035-.251.1-.347.053-.24.114-.339.084-.213.145-.312.327-.072.381-.175.061-.251.114-.381.088-.232.134-.346.034-.248.079-.362-.046-.282,0-.381.347-.122.382-.232-.08-.3-.027-.415.106-.2.16-.3.278-.11.331-.209.054-.225.107-.324-.091-.3-.038-.4.324-.08.381-.179,0-.263.038-.381.141-.179.193-.278,0-.263.043-.362.1-.206.148-.3.209-.137.264-.236Z" transform="translate(-838.6 -49.1)" fill="#474f5f"/>
        <path id="パス_2896" data-name="パス 2896" d="M867.607,54.294c-.106.034-.224,0-.331.049s-.229,0-.335.027-.194.129-.3.16-.194.122-.3.152-.255-.088-.381-.057-.156.251-.263.282-.2.1-.3.129l-.312.107c-.1.034-.221.03-.323.072s-.264,0-.381.027a1.455,1.455,0,0,0-.327.141c-.107.053-.225.076-.331.126s-.171.187-.274.24-.19.149-.3.2-.186.152-.293.206-.221.088-.327.137-.206.118-.312.164-.217.107-.324.152-.24.042-.35.084-.259-.03-.381,0-.209.137-.315.145a1.522,1.522,0,0,1-.381.034c-.111-.027-.194-.16-.3-.213a1.742,1.742,0,0,1-.3-.164c-.1-.065-.194-.129-.282-.2s-.213-.107-.3-.183-.091-.247-.179-.32-.289-.072-.381-.133a2.4,2.4,0,0,1,.065-.381c.038-.118.167-.2.224-.289s.054-.278.134-.354a2.057,2.057,0,0,1,.308-.206c.1-.057.266,0,.381-.03s.179-.171.289-.209.259.03.381,0a2.946,2.946,0,0,0,.289-.2c.1-.053.172-.148.271-.2s.186-.126.289-.175.252,0,.355-.034.152-.2.251-.244.271.057.381,0,.137-.251.24-.293.274.084.381.042.141-.247.244-.289l.312-.118c.1-.042.259.061.381.023s.225-.027.327-.061l.312-.11.316-.1c.107-.034.205-.08.312-.11s.191-.137.3-.164.222-.027.328-.057.217-.042.324-.072.168-.232.274-.263.274.16.381.133.183-.175.29-.206.217-.046.323-.08l.316-.1.316-.1c.107-.038.225-.053.332-.091s.22-.061.327-.1l.319-.122c.107-.042.229-.049.335-.091s.172-.179.278-.221.24,0,.347-.061.153-.228.259-.274.271.061.381.019.16-.217.263-.259.231-.034.338-.076.225-.053.331-.091.194-.1.3-.126.194-.1.3-.122.218,0,.32-.023.205-.061.308-.088.24.057.339.023.217-.084.328-.118.212-.1.319-.133.221-.069.331-.11.225-.057.331-.1l.328-.114c.11-.038.164-.228.274-.267a2.824,2.824,0,0,1,.358-.023c.11-.023.2-.126.308-.16s.2-.145.309-.179a1.225,1.225,0,0,1,.354,0h.354c.106,0,.175-.209.286-.244s.217-.08.323-.114.24,0,.351-.034.247.046.358,0,.168-.263.278-.293.248.038.359,0,.193-.1.3-.129.248.114.355.088.205-.053.312-.072.182-.2.289-.221a3.141,3.141,0,0,1,.324-.034c.107-.008.221.1.332.1a1.7,1.7,0,0,1,.342,0,1.528,1.528,0,0,1,.308.141c.111.046.251,0,.347.08s.095.221.171.312a1.487,1.487,0,0,1,.213.251c.05.1.187.171.218.289a1.718,1.718,0,0,1,.106.358.8.8,0,0,1-.076.381c-.053.1-.236.084-.362.133s-.182.209-.32.217a1.371,1.371,0,0,0-.349.08c-.123.038-.263,0-.381.061s-.271,0-.381.03-.213.091-.323.126-.233.019-.347.05-.225.049-.335.084-.19.164-.3.2-.205.129-.316.164-.229.034-.339.069-.244,0-.354.023-.206.118-.316.152l-.327.11c-.11.034-.244,0-.354.034s-.229.042-.339.076-.183.2-.293.24-.263-.023-.381,0-.179.2-.29.24-.263-.019-.381.023-.163.236-.274.278-.224.08-.334.126-.3-.1-.407-.057-.164.24-.275.282-.275-.057-.381,0a2.2,2.2,0,0,1-.32.156c-.11.038-.24.038-.354.076s-.19.16-.3.2-.221.08-.336.114-.2.164-.316.194l-.339.1c-.114.03-.274-.107-.381-.076s-.232.049-.346.08-.206.141-.32.171a1.589,1.589,0,0,1-.381,0l-.331.1-.332.091c-.11.034-.179.194-.29.228s-.266-.1-.38-.065-.19.164-.3.194-.194.148-.3.183-.21.091-.32.126-.24,0-.35.027-.122.156-.156.266Z" transform="translate(-851.059 -38.12)" fill="#474f5f"/>
        <path id="パス_2899" data-name="パス 2899" d="M879.989,24.327a1,1,0,0,1,0,.354.832.832,0,0,1-.217.293.793.793,0,0,1-.285.206,1.691,1.691,0,0,1-.351.1l-.354.05a3.335,3.335,0,0,0-.342.129c-.118.03-.278-.042-.381.019s-.168.137-.266.187-.206.072-.305.118-.152.2-.255.24l-.3.122c-.1.034-.24-.027-.343,0s-.194.1-.3.133-.218.03-.323.061a3.089,3.089,0,0,0-.328.042c-.1.042-.19.129-.293.164l-.32.1c-.106.027-.205.091-.315.118s-.209.088-.316.114-.248-.057-.354-.027-.221.057-.328.091-.182.2-.293.244-.252,0-.362.049-.194.164-.305.206-.251,0-.38.049-.206.129-.316.171-.263-.023-.381,0-.179.206-.293.247-.228.061-.343.1l-.323.114c-.111.034-.229.046-.335.08s-.232.03-.339.065-.194.156-.3.19-.221.057-.328.091l-.327.11c-.107.034-.259-.069-.381-.034s-.206.1-.316.141-.194.168-.308.206-.251,0-.381.038a2.688,2.688,0,0,0-.316.175c-.11.046-.27-.03-.381.019s-.186.171-.293.225a1.068,1.068,0,0,1-.338.16c-.107,0-.233-.1-.362-.11a3.3,3.3,0,0,1-.343-.076H865.3a1.139,1.139,0,0,1-.347-.091,3.555,3.555,0,0,1-.323-.148c-.11-.049-.236-.069-.335-.126s-.24-.091-.331-.156-.107-.251-.183-.331-.216-.145-.255-.244.054-.187.1-.3.042-.244.111-.293.216-.091.312-.164.118-.236.212-.3.26,0,.381-.057.187-.225.3-.232.255.107.381.088.213-.148.328-.179a3.56,3.56,0,0,0,.358-.046c.114-.034.209-.126.319-.171s.271.03.381,0,.156-.244.263-.293.237-.057.347-.107.251-.023.358-.072.221-.091.331-.137.164-.187.271-.225.213-.061.32-.091a3.34,3.34,0,0,0,.334-.042c.107-.042.233,0,.339-.019s.217-.046.324-.072.205-.1.308-.129.179-.175.281-.209.209-.061.312-.1.244,0,.35-.034.214-.076.327-.1.214-.088.324-.11l.335-.072c.111-.023.213-.08.323-.11s.256.069.381.034.172-.19.274-.236a3.166,3.166,0,0,0,.3-.156,2.488,2.488,0,0,0,.289-.171A.916.916,0,0,1,873.7,24c.11-.034.243.03.381,0s.22-.148.335-.168a3.052,3.052,0,0,0,.342-.053c.115-.03.217-.084.328-.114s.236,0,.346-.034.225-.046.335-.076.213-.091.324-.122.209-.11.316-.141.24,0,.351-.034.232,0,.342-.038a2.6,2.6,0,0,1,.332-.1c.114-.023.232.023.346,0a3,3,0,0,1,.347-.061c.106-.008.243-.126.35-.126s.217.16.32.194a.856.856,0,0,1,.271.175c.079.065.231.065.323.164s.072.225.152.324.134.183.21.282S879.913,24.228,879.989,24.327Z" transform="translate(-854.03 -22.93)" fill="#474f5f"/>
      </g>
      <path id="パス_2900" data-name="パス 2900" d="M785.209,72.608l.362-.133c.111-.046.244-.038.351-.08s.255,0,.362-.053.182-.194.293-.236.229-.076.336-.118.213-.11.324-.156.225-.072.335-.114.236-.046.346-.091.221-.091.331-.133.255,0,.381-.027.206-.122.312-.164.221-.076.332-.114.2-.133.312-.168.214-.11.328-.137.232,0,.343-.023a1.652,1.652,0,0,1,.335,0c.106,0,.19-.19.3-.213l.328-.065.328-.065c.11-.023.24.053.35.03s.213-.072.32-.1.232,0,.339-.034.229,0,.335-.05a2.938,2.938,0,0,1,.3-.164c.106-.034.2-.084.327-.122s.213-.061.332-.1.2-.11.32-.148.236,0,.35-.03l.335-.1c.106-.034.232-.03.346-.065s.175-.213.286-.247.228-.046.339-.08.236-.023.346-.057.209-.11.32-.145.247,0,.358-.03l.335-.1c.111-.034.232-.038.343-.072s.232-.042.343-.076.209-.114.319-.148.214-.11.324-.145.2-.145.312-.179.243,0,.354-.046.255.027.381,0l.331-.107.335-.107c.111-.034.186-.179.3-.213s.218-.1.328-.129.24-.027.346-.061.205-.141.308-.175.244-.027.346-.057l.332-.107c.087-.027.194.049.3.057s.213-.072.312-.042a1.746,1.746,0,0,1,.289.11c.1.049.13.187.2.244s.229.1.328.168.144.2.236.274.209.118.274.217a.793.793,0,0,1,.068.335.892.892,0,0,1,.05.343.823.823,0,0,1-.141.308.618.618,0,0,1-.255.2c-.1.049-.172.19-.289.221s-.244,0-.381.027-.2.114-.308.145-.209.069-.316.1-.205.084-.312.122-.255-.053-.358,0-.178.175-.285.213-.251-.05-.358,0-.156.225-.263.263-.236,0-.339.042l-.316.122c-.1.038-.182.152-.285.19s-.236,0-.343.042-.217.046-.324.08-.229,0-.335.053a1.613,1.613,0,0,1-.316.107c-.134.038-.217,0-.335.053s-.183.164-.3.194-.236-.034-.35,0-.206.091-.316.118-.2.126-.308.156-.24-.038-.35,0-.186.183-.3.209l-.328.08c-.11.027-.258-.1-.38-.076s-.187.168-.3.194-.2.122-.312.152-.262-.114-.38-.084-.194.156-.3.183l-.327.091c-.111.03-.236,0-.343.034s-.2.129-.309.156-.236,0-.339.034-.232.023-.339.053-.221.072-.32.1-.206.148-.3.175a1.5,1.5,0,0,1-.346,0,1.45,1.45,0,0,0-.343.065c-.11.034-.2.152-.308.187s-.244,0-.358.023-.2.129-.312.164-.244,0-.358.03-.229.049-.339.088-.213.1-.323.137-.19.156-.3.194-.258-.023-.38,0-.164.213-.27.259-.271-.03-.381,0a1.769,1.769,0,0,0-.308.171c-.1.053-.187.145-.289.2s-.194.209-.293.24a1.06,1.06,0,0,1-.728-.137,3.177,3.177,0,0,1-.3-.2,1.474,1.474,0,0,0-.263-.209,2.135,2.135,0,0,1-.282-.19,2.078,2.078,0,0,1-.248-.228c-.084-.084-.084-.213-.137-.3a1.061,1.061,0,0,1-.168-.278.891.891,0,0,1,0-.32C785.206,72.889,785.149,72.714,785.209,72.608Z" transform="translate(-488.661 -45.377)" fill="#474f5f"/>
      <path id="パス_2901" data-name="パス 2901" d="M128.509,98.659c-.072.107-.2.175-.274.282s-.1.236-.171.343-.175.183-.247.293-.126.2-.2.308c-.111.03-.194.114-.3.118a1.429,1.429,0,0,1-.335-.038c-.107,0-.19-.114-.293-.16s-.225-.038-.32-.1a2.123,2.123,0,0,1-.282-.187c-.08-.069-.1-.206-.183-.293s-.145-.179-.225-.263-.194-.133-.274-.217-.111-.213-.19-.293-.179-.149-.259-.232-.183-.145-.267-.225-.2-.122-.286-.2-.168-.156-.251-.24-.1-.228-.179-.308-.175-.148-.255-.232-.217-.11-.3-.19-.08-.244-.16-.324-.183-.145-.263-.228-.137-.187-.213-.274-.228-.091-.3-.175-.065-.232-.137-.316-.19-.126-.259-.213-.145-.164-.213-.248-.069-.225-.133-.312l-.2-.255-.206-.259c-.065-.088-.175-.141-.244-.228s-.084-.209-.148-.3-.133-.175-.2-.259-.152-.16-.221-.248-.126-.179-.2-.263-.179-.167-.263-.259-.206-.141-.289-.225-.183-.164-.27-.251-.145-.2-.232-.285-.126-.217-.209-.3-.206-.145-.282-.236-.19-.145-.263-.232-.061-.244-.133-.331-.225-.114-.3-.2-.05-.251-.122-.343-.149-.171-.221-.263-.206-.129-.274-.217-.087-.221-.16-.312-.209-.126-.278-.217-.133-.187-.2-.278-.126-.194-.194-.286-.152-.171-.221-.263-.1-.209-.168-.3a.93.93,0,0,1-.118-.282.761.761,0,0,1-.084-.3.608.608,0,0,1,.1-.32c.061-.069.217-.027.324-.065a.986.986,0,0,1,.282-.11c.11,0,.225-.065.335-.072h.343c.114,0,.229.023.343.023a1.716,1.716,0,0,1,.343,0c.11.023.229.03.343.046a1.024,1.024,0,0,1,.381.168,1.065,1.065,0,0,1,.3.286c.065.1.076.228.133.335s.16.19.209.3.129.209.179.316.072.232.133.335a2.769,2.769,0,0,0,.2.3,3.044,3.044,0,0,0,.19.3c.076.08.156.171.244.247s.2.126.282.2.209.11.293.187.19.141.27.225.118.19.194.27.179.133.251.213.107.206.179.286.194.122.27.2.107.2.179.286.19.126.263.206.111.2.183.282.16.152.236.232.149.16.225.244.133.175.206.259.122.187.194.27.16.148.236.232.16.156.236.24.16.16.232.244.126.19.2.278.148.168.221.255.137.179.213.263.171.156.247.244.133.194.209.282.19.145.267.228.148.183.228.266.168.164.248.248.2.133.278.221.149.179.228.263.141.187.221.27.141.187.221.274.137.187.217.274l.232.259c.08.088.133.194.209.282s.213.122.293.209a1.517,1.517,0,0,1,.141.3c.053.1.137.179.179.274S128.464,98.575,128.509,98.659Z" transform="translate(-71.858 -53.833)" fill="#474f5f"/>
      <path id="パス_2902" data-name="パス 2902" d="M134.231,35.18c-.05-.1-.114-.209-.164-.3s-.042-.232-.1-.327-.16-.168-.217-.259-.145-.168-.206-.255-.072-.221-.145-.308-.164-.145-.244-.225-.164-.179-.251-.259-.16-.187-.248-.267l-.27-.24-.27-.244c-.088-.08-.168-.168-.259-.247L131.6,32l-.263-.247c-.084-.084-.183-.152-.266-.24s-.19-.148-.274-.236a2.549,2.549,0,0,0-.236-.259c-.084-.076-.175-.152-.266-.225s-.206-.114-.3-.179-.164-.175-.259-.236-.183-.145-.282-.209-.236-.061-.331-.126-.209-.107-.3-.171-.164-.168-.259-.236a1.213,1.213,0,0,1-.217-.244c-.069-.1-.107-.236-.2-.278a1.844,1.844,0,0,1-.3-.122c-.091-.061-.152-.152-.24-.213l-.27-.168c-.088-.061-.229-.042-.316-.1s-.137-.179-.225-.236-.164-.171-.259-.236-.209-.1-.3-.168-.225-.084-.32-.148-.149-.194-.244-.259-.206-.11-.3-.175-.2-.114-.3-.183-.16-.171-.255-.24-.209-.1-.3-.168l-.282-.2c-.1-.065-.2-.118-.293-.187s-.148-.187-.244-.255-.175-.152-.267-.221l-.263-.206a1.019,1.019,0,0,1-.209-.2,1.812,1.812,0,0,1-.175-.236,1.284,1.284,0,0,1-.091-.274.714.714,0,0,1-.046-.282.544.544,0,0,1,.209-.3c.087-.084.156-.225.27-.289a2.135,2.135,0,0,1,.354-.171,1.161,1.161,0,0,1,.381,0,1.618,1.618,0,0,1,.358,0,1.834,1.834,0,0,1,.343.1,2.173,2.173,0,0,1,.346.08,3.152,3.152,0,0,1,.316.171c.107.061.2.133.3.2s.183.156.282.225.232.091.331.156.16.183.259.255.213.107.308.179.221.1.316.171.129.217.221.293.209.118.3.19.221.11.312.187.152.183.244.259.206.126.3.2.209.118.3.194.137.209.228.282.167.171.263.244.179.16.274.232.2.114.289.179l.274.2c.1.065.171.152.267.213s.247.042.339.107.149.187.244.251l.286.187c.091.065.19.122.282.187s.209.1.3.16.16.164.251.232.232.072.32.141.133.2.221.274.187.126.274.2.164.16.244.236.206.107.289.179l.251.225c.088.072.149.171.232.244s.126.2.213.27.255.046.339.118.107.221.19.293.152.164.232.24.229.088.308.168.168.152.24.236.122.194.194.282.164.16.225.251.114.194.171.293.027.236.076.339.133.179.175.286a1.526,1.526,0,0,1,.107.324,1.039,1.039,0,0,1,0,.343.7.7,0,0,1-.133.316.731.731,0,0,1-.274.221c-.1.038-.228-.027-.358,0a1.771,1.771,0,0,0-.343.05c-.1.034-.206.1-.312.145s-.171.164-.274.209S134.337,35.142,134.231,35.18Z" transform="translate(-75.938 -14.752)" fill="#474f5f"/>
      <path id="パス_2903" data-name="パス 2903" d="M131.482,66.606c-.088-.069-.122-.171-.209-.24s-.213-.08-.3-.148-.118-.2-.2-.267-.164-.145-.248-.213l-.251-.2c-.084-.069-.228-.065-.312-.133a2.861,2.861,0,0,1-.232-.289,2.55,2.55,0,0,0-.213-.3c-.076-.072-.164-.137-.244-.206s-.206-.1-.286-.164-.1-.209-.183-.282-.2-.1-.278-.171-.2-.1-.282-.168-.118-.194-.2-.263a2.94,2.94,0,0,0-.3-.232,1.071,1.071,0,0,1-.3-.194c-.072-.08-.187-.126-.251-.209s-.084-.209-.152-.293l-.2-.251c-.065-.084-.168-.141-.236-.225s-.069-.221-.133-.3-.2-.118-.267-.2-.091-.206-.168-.286a1.515,1.515,0,0,0-.255-.179c-.08-.061-.137-.16-.221-.217s-.206-.057-.293-.114-.168-.114-.248-.175a.976.976,0,0,1-.32-.381,2.532,2.532,0,0,0-.2-.282c-.061-.1-.171-.152-.244-.24a2.763,2.763,0,0,0-.221-.248c-.084-.08-.107-.225-.194-.3s-.2-.114-.289-.179-.171-.152-.267-.217-.225-.072-.32-.133-.2-.11-.293-.171-.168-.16-.263-.221-.168-.152-.259-.221-.2-.091-.267-.19a1.524,1.524,0,0,1-.107-.312,1.341,1.341,0,0,1-.1-.3.763.763,0,0,1-.03-.32c.023-.084.114-.152.213-.228s.141-.164.24-.209a2.245,2.245,0,0,1,.32-.057c.107-.03.2-.114.3-.122s.232,0,.343-.019.232.069.346.069.236-.072.347-.061a2.617,2.617,0,0,1,.327.122,2.048,2.048,0,0,1,.346.042c.107.038.168.171.267.228a2.287,2.287,0,0,1,.3.152,2.017,2.017,0,0,1,.263.221,2.279,2.279,0,0,1,.2.282c.061.088.107.194.164.3s.156.156.225.24a3.133,3.133,0,0,0,.186.27c.08.069.183.118.27.187s.206.08.3.145.133.187.221.244.217.069.308.129.126.2.209.263.236.057.316.126.107.206.179.289a2.566,2.566,0,0,1,.187.266c.061.091.183.145.244.236s.107.194.171.282.023.282.1.346.232.072.316.141.186.129.274.2l.259.213c.088.069.145.175.232.244s.213.1.3.164.126.2.209.27.2.118.278.19.061.19.107.282.179.126.225.213.057.2.126.263.206.11.289.183.152.171.24.244l.267.213c.091.072.164.16.251.232s.145.179.228.255.175.141.259.221.179.126.255.206.168.141.236.228.1.2.164.286.19.137.247.228.053.225.107.316.164.228.16.346-.118.225-.171.339a.674.674,0,0,1-.495.5,1.12,1.12,0,0,1-.354.1,1.907,1.907,0,0,0-.358.023,1.636,1.636,0,0,1-.358-.038c-.122,0-.24,0-.358,0C131.486,66.728,131.467,66.674,131.482,66.606Z" transform="translate(-75.33 -34.854)" fill="#474f5f"/>
      <path id="パス_2904" data-name="パス 2904" d="M397.58,79.381c.088-.137.152-.2.225-.309s.156-.318.205-.392h.693c.114,0,.217-.152.331-.176s.217-.166.332-.191.251.157.381.137.221-.127.335-.152.228-.069.343-.093a1.64,1.64,0,0,1,.346,0c.114,0,.213-.2.328-.225s.244.088.358.064.24.049.354,0,.2-.274.316-.294.232-.029.346-.049a2.059,2.059,0,0,1,.346,0,1.675,1.675,0,0,0,.343-.059c.111-.025.24.039.354,0a2.291,2.291,0,0,1,.335-.122c.114-.02.213-.157.327-.176s.251.074.381.059.236-.078.354-.1.24-.044.381-.059.255.167.381.152.225-.206.347-.22l.362-.049a1.521,1.521,0,0,0,.362-.029l.339-.059a1.4,1.4,0,0,0,.351,0l.343-.064c.114,0,.206-.235.32-.255s.236.025.346,0,.232,0,.346-.029.213-.157.327-.181.244.1.358.078.225-.054.339-.073l.343-.074c.111,0,.24.088.354.069s.221-.1.335-.122.225-.054.339-.073a2.705,2.705,0,0,0,.343-.034c.114-.034.217-.186.331-.206s.24.118.354.1a2.843,2.843,0,0,1,.354,0h.35c.114,0,.225-.167.343-.181a2.8,2.8,0,0,1,.35,0h.354c.118,0,.228-.176.343-.186s.24,0,.354,0,.24.137.358.132.232-.118.35-.122h.35c.118,0,.236-.029.354-.034s.232-.044.35-.049.236,0,.354,0,.236.069.35.069h.354a1.039,1.039,0,0,1,.339.034,2.21,2.21,0,0,1,.312.176,2.583,2.583,0,0,1,.309.181c.1.083.175.2.259.284s.232.167.282.264a.521.521,0,0,1-.038.543c-.076.073-.244.059-.381.1s-.244-.083-.381-.064-.232.245-.362.25-.221-.137-.331-.127-.213.1-.32.118-.228-.078-.335-.064a2.5,2.5,0,0,1-.331,0c-.11,0-.205.147-.312.166s-.205.132-.316.152a1.436,1.436,0,0,0-.323.044c-.107.044-.244-.142-.358-.127s-.206.25-.32.269a2,2,0,0,1-.343,0c-.114,0-.24-.093-.354-.073s-.217.1-.331.118-.221.088-.335.108a2.036,2.036,0,0,0-.343.039,2.206,2.206,0,0,1-.335.1c-.114.02-.232-.049-.346-.029s-.221.088-.335.108a2.006,2.006,0,0,1-.343,0,.916.916,0,0,0-.346,0,.9.9,0,0,1-.343,0c-.111,0-.228.147-.346.171s-.232.064-.35.088-.244,0-.362.034a1.416,1.416,0,0,1-.381,0,.773.773,0,0,0-.354.054c-.118.054-.217.2-.335.225s-.251-.083-.381-.059-.232.069-.35.093-.213.176-.327.2-.229.059-.339.078-.244-.059-.358-.034-.221.093-.335.118a1.678,1.678,0,0,1-.35,0c-.114,0-.221.113-.335.137s-.221.078-.335.1-.217.132-.331.157-.229.064-.343.088-.244-.073-.354-.049-.221.127-.335.152a1.636,1.636,0,0,1-.346,0,1.079,1.079,0,0,0-.354,0,1.05,1.05,0,0,1-.35,0c-.114,0-.2.264-.316.289a1.675,1.675,0,0,1-.351,0,1.047,1.047,0,0,0-.346.039c-.114.039-.236-.034-.35,0l-.346.054a1.281,1.281,0,0,0-.335,0,2.883,2.883,0,0,1-.327.113c-.111.015-.221.049-.331.054s-.228.147-.339.142-.225-.083-.335-.1-.209-.142-.32-.176-.259.1-.362.054-.145-.3-.244-.367a2.518,2.518,0,0,0-.316-.2c-.1-.059-.225-.064-.335-.113s-.221-.078-.331-.122-.221-.083-.327-.127S397.683,79.43,397.58,79.381Z" transform="translate(-246.202 -46.876)" fill="#474f5f"/>
      <path id="パス_2905" data-name="パス 2905" d="M271.657,54.232c0,.1-.046.179-.057.286s.019.206,0,.32-.046.164-.061.282c-.107,0-.187.065-.293.061h-.328c-.111,0-.221-.023-.328-.027s-.217-.05-.327-.053-.221.076-.328.072-.217-.042-.327-.046-.217-.034-.324-.034h-.655c-.111,0-.221-.034-.328-.034s-.217.088-.327.091-.236-.038-.354-.034l-.35.027c-.118,0-.232.042-.35.053s-.236,0-.354,0a1.807,1.807,0,0,0-.35.023,3.212,3.212,0,0,1-.343.107c-.114.008-.24,0-.354,0s-.24-.057-.358-.049-.232.1-.35.107-.236-.1-.354-.1-.236.046-.35.038-.232.046-.347.046h-.343c-.114,0-.24-.1-.354-.084s-.228.053-.343.069-.221.072-.335.1a3.457,3.457,0,0,0-.347.038c-.11.038-.2.126-.308.168s-.2.118-.3.168-.27,0-.381.053-.209.129-.32.183a3.518,3.518,0,0,1-.335.126,1.905,1.905,0,0,1-.339.1c-.11,0-.213.1-.327.11a3.388,3.388,0,0,0-.339.023,2.578,2.578,0,0,1-.339.046c-.114.008-.225-.046-.339-.046h-.678c-.111,0-.221-.069-.335-.076a.419.419,0,0,1-.244-.11,1.194,1.194,0,0,1-.232-.183.813.813,0,0,1-.13-.266.8.8,0,0,1-.034-.308,1.236,1.236,0,0,1,.122-.282.4.4,0,0,1,.209-.179c.1-.057.171-.152.27-.206s.2-.1.3-.152.213-.072.312-.122.175-.16.274-.209l.3-.141c.1-.046.194-.122.3-.168s.209-.076.312-.122.232-.03.335-.076.213-.08.32-.118.183-.194.293-.225.248.053.362.034.213-.122.331-.133.236.084.35.076h.343c.114,0,.228-.053.343-.057s.228-.08.343-.084.236.11.35.1.221-.076.335-.084.229.034.339.027.217-.126.331-.133.228.05.339.042.228,0,.339,0h.339c.114,0,.221-.08.331-.084s.225-.03.339-.034.225,0,.339,0,.225.091.335.1.229-.057.339-.057.221.1.335.1.228-.091.343-.084l.335.027c.114,0,.214.11.328.126s.228-.034.343-.019.213.072.323.084.221.038.331.046l.35.008c.111,0,.229-.053.339-.042l.327.038a1.619,1.619,0,0,1,.327.069c.107.023.232,0,.339.03s.183.145.286.187a2.329,2.329,0,0,1,.308.118,2.945,2.945,0,0,1,.274.187,2.712,2.712,0,0,1,.24.175Z" transform="translate(-159.18 -32.887)" fill="#474f5f"/>
      <path id="パス_2906" data-name="パス 2906" d="M471.49,54.342c-.1-.023-.2-.156-.3-.179l-.312-.076c-.1-.023-.232.061-.335.038s-.2-.091-.3-.118-.213-.023-.316-.057-.194-.088-.293-.126a.58.58,0,0,1-.225-.194c-.054-.08,0-.206-.046-.293s-.107-.187-.088-.259a1.336,1.336,0,0,1,.1-.339,1.418,1.418,0,0,1,.255-.244.686.686,0,0,1,.3-.16l.324-.1c.11-.03.194-.137.3-.168s.247.046.354,0,.2-.122.309-.156.232,0,.339-.042.194-.148.3-.179l.328-.091c.11-.03.236,0,.343-.027s.194-.137.3-.171.236,0,.342-.027.2-.129.3-.16.225-.042.331-.072.236,0,.343-.038.194-.141.3-.171.213-.08.32-.114.236,0,.346-.03.221-.046.328-.076.2-.114.312-.145.209-.088.316-.118.229,0,.339-.05a2.106,2.106,0,0,1,.335-.053c.107-.03.229-.027.335-.057s.206-.107.316-.133.221-.042.332-.069.205-.1.312-.133.229-.03.335-.057.206-.107.316-.137.213-.065.324-.1.225-.027.335-.053.221-.046.331-.076l.327-.076a1.093,1.093,0,0,1,.316,0,1.579,1.579,0,0,1,.331-.03c.11.023.186.122.293.16s.19.091.289.133.213.049.312.091.183.126.278.168.221.046.316.084.084.2.111.381.088.312.046.415a.758.758,0,0,1-.263.339c-.118.084-.293.069-.415.107s-.194.148-.3.183-.236,0-.347.038-.2.141-.308.175-.228.038-.339.069-.228.03-.339.061-.217.084-.328.118-.209.1-.32.129-.217.076-.328.107-.232.03-.343.065a2.7,2.7,0,0,1-.35.019c-.11.019-.194.16-.3.194s-.213.084-.324.114-.232.023-.343.053-.244,0-.354.019-.213.091-.324.122l-.331.1c-.111.03-.209.1-.32.129s-.232.027-.343.057-.206.107-.316.141l-.335.088c-.111.034-.213.088-.324.122s-.225.038-.335.072-.206.1-.312.126-.221.03-.328.061-.205.1-.312.126-.217.042-.324.072-.228,0-.335.046a2.452,2.452,0,0,1-.324.072c-.106.03-.2.126-.3.152s-.21.08-.312.11Z" transform="translate(-291.614 -30.583)" fill="#474f5f"/>
      <path id="パス_2907" data-name="パス 2907" d="M629.474,46.026c-.114-.03-.221-.1-.339-.126a1.938,1.938,0,0,1-.358-.053,2.31,2.31,0,0,0-.327-.156c-.114-.03-.255.03-.381,0s-.213-.118-.331-.148-.236-.038-.355-.069-.236-.046-.354-.076-.232-.027-.343-.057-.218-.08-.332-.11l-.335-.091-.331-.091c-.114-.03-.232-.042-.343-.072s-.217-.084-.328-.114l-.335-.088c-.114-.03-.221-.076-.331-.107s-.232-.034-.343-.061-.221-.072-.335-.1-.221-.065-.331-.1-.214-.1-.324-.133a1.408,1.408,0,0,0-.358,0c-.114,0-.2-.129-.316-.156s-.228-.046-.339-.076-.229-.046-.339-.072-.214-.1-.324-.133-.228-.042-.342-.069-.232-.027-.343-.057-.221-.069-.335-.1-.205-.122-.315-.152-.233-.038-.343-.069-.217-.084-.328-.114-.217,0-.32-.034a.994.994,0,0,1-.289-.122c-.083-.061-.164-.148-.263-.209s-.213-.088-.3-.152a1.3,1.3,0,0,1-.271-.217.569.569,0,0,1-.046-.343.7.7,0,0,1,.1-.312.631.631,0,0,1,.274-.221,1.571,1.571,0,0,1,.331-.152,2.049,2.049,0,0,1,.358-.088,2.667,2.667,0,0,1,.381-.03c.118,0,.236.088.358.1l.358.042a2.537,2.537,0,0,1,.381,0c.129.019.236.065.358.088l.354.08c.118.027.229.088.347.118a3.677,3.677,0,0,1,.38.046,2.576,2.576,0,0,0,.346.053c.114.027.21.11.324.137s.214.1.328.129.239,0,.35.023.213.114.323.141l.339.08c.114.027.243,0,.354.023s.221.084.331.114.214.1.328.126.229.034.343.065.24,0,.354.03.206.122.316.156.217.088.327.122.24,0,.351.042.209.137.323.179.248.034.358.084.2.141.309.19.232.08.339.137.236.069.343.126.2.141.308.2.224.088.331.145.2.145.3.2a1.51,1.51,0,0,1,.266.206,1,1,0,0,1,.221.24.764.764,0,0,1,.171.282.866.866,0,0,1,.03.346,1.336,1.336,0,0,1-.126.32A2.394,2.394,0,0,1,629.474,46.026Z" transform="translate(-382.597 -25.613)" fill="#474f5f"/>
      <path id="パス_2908" data-name="パス 2908" d="M475.842,24.2a1.876,1.876,0,0,0,.328,0,1.565,1.565,0,0,1,.316.088c.114.023.2.1.308.126s.225-.027.335,0,.206.076.312.107.225,0,.328.05a.787.787,0,0,1,.266.19,1.026,1.026,0,0,1,.187.255.59.59,0,0,1,.08.3.541.541,0,0,1-.1.289,1.145,1.145,0,0,1-.217.209.885.885,0,0,1-.247.16,1.243,1.243,0,0,1-.3.175,3.51,3.51,0,0,1-.35.034c-.118.011-.24-.042-.354-.03s-.221.042-.332.053-.217.046-.331.057-.217.076-.327.084-.232-.084-.343-.072-.217.091-.327.1a1.977,1.977,0,0,0-.336,0,2.163,2.163,0,0,1-.327.107c-.111.011-.221.027-.335.038s-.225-.034-.335-.023-.221.057-.332.069-.228-.046-.339-.038a3.292,3.292,0,0,0-.335.019c-.111.019-.213.107-.328.118l-.331.03c-.11,0-.229-.034-.339-.027l-.335.019c-.111,0-.225-.034-.335-.027s-.217.091-.332.1-.236,0-.354,0-.24.038-.358.034-.232-.08-.35-.088-.24,0-.358,0-.232-.049-.35-.061-.244.053-.362.038-.228-.072-.346-.088-.228-.065-.346-.084a.43.43,0,0,1-.281-.118c-.068-.076-.061-.213-.107-.3s-.1-.2-.068-.259a1.6,1.6,0,0,1,.194-.324,1.915,1.915,0,0,1,.217-.327,1.035,1.035,0,0,1,.335-.228c.107-.03.229-.019.339-.046s.225-.034.335-.057.213-.084.324-.1.224-.042.335-.057a2.571,2.571,0,0,1,.343,0,2.058,2.058,0,0,0,.343,0c.114-.019.221-.053.335-.061s.232-.038.346-.05.236-.034.351-.046.24,0,.358,0l.35-.027.354-.03c.114,0,.228-.069.347-.08s.232-.038.35-.046.236.05.354.042.229-.091.347-.1.24.046.358.038.232-.049.35-.061l.354-.03h.354c.118,0,.232-.053.354-.065S475.72,24.2,475.842,24.2Z" transform="translate(-290.488 -14.946)" fill="#474f5f"/>
    </g>
  </g>
</svg>
