<svg xmlns="http://www.w3.org/2000/svg" width="271.08" height="28" viewBox="0 0 271.08 28">
  <g id="グループ_6476" data-name="グループ 6476" transform="translate(-1720 1295)">
    <path id="パス_2883" data-name="パス 2883" d="M-110.48.384c5.536,0,9.6-4.192,9.6-11.584s-4.064-11.584-9.6-11.584c-5.5,0-9.6,4.192-9.6,11.584S-115.984.384-110.48.384Zm0-4.384c-2.56,0-4.352-2.112-4.352-7.2s1.792-7.2,4.352-7.2c2.592,0,4.384,2.112,4.384,7.2S-107.888-4-110.48-4Zm33.92-4.928h-3.648V-13.12h-4.9v4.192H-91.12L-81.328-22.4h-5.44L-97.328-8.192V-4.7h12.064V0h5.056V-4.7h3.648Zm9.856,4.7,5.152-4.864c3.136-2.912,3.744-4.9,3.744-7.072,0-4.064-3.328-6.624-8.32-6.624-4.032,0-7.168,1.632-8.9,4.16l3.776,2.432a5.477,5.477,0,0,1,4.64-2.24c2.368,0,3.584,1.024,3.584,2.784,0,1.088-.352,2.24-2.336,4.128L-74-3.36V0h16.928V-4.224ZM-53.36-7.008H-44.3v-4H-53.36Zm20.9-6.976h-1.824l.352-4.256h9.344V-22.4H-38.256L-39.408-9.792h5.728c4.064,0,5.216,1.152,5.216,2.912,0,1.824-1.6,2.912-4.192,2.912a10.78,10.78,0,0,1-6.368-2.016l-2.048,3.968a15.478,15.478,0,0,0,8.544,2.4c6.4,0,9.312-3.456,9.312-7.424S-25.84-13.984-32.464-13.984ZM-10.224.384c5.536,0,9.6-4.192,9.6-11.584s-4.064-11.584-9.6-11.584c-5.5,0-9.6,4.192-9.6,11.584S-15.728.384-10.224.384Zm0-4.384c-2.56,0-4.352-2.112-4.352-7.2s1.792-7.2,4.352-7.2c2.592,0,4.384,2.112,4.384,7.2S-7.632-4-10.224-4Zm28.736-7.776a5.2,5.2,0,0,0,2.624-4.608c0-3.936-3.52-6.4-8.672-6.4-5.088,0-8.608,2.464-8.608,6.4a5.174,5.174,0,0,0,2.592,4.608A5.7,5.7,0,0,0,3.056-6.5c0,4.224,3.744,6.88,9.408,6.88,5.7,0,9.472-2.656,9.472-6.88A5.674,5.674,0,0,0,18.512-11.776Zm-6.048-7.2c2.112,0,3.52,1.056,3.52,2.816,0,1.7-1.376,2.752-3.52,2.752-2.112,0-3.456-1.056-3.456-2.752C9.008-17.92,10.384-18.976,12.464-18.976Zm0,15.552C9.9-3.424,8.3-4.672,8.3-6.656s1.6-3.2,4.16-3.2c2.592,0,4.224,1.216,4.224,3.2S15.056-3.424,12.464-3.424ZM26-7.008h9.056v-4H26ZM45.808-4.224,50.96-9.088C54.1-12,54.7-13.984,54.7-16.16c0-4.064-3.328-6.624-8.32-6.624-4.032,0-7.168,1.632-8.9,4.16l3.776,2.432a5.477,5.477,0,0,1,4.64-2.24c2.368,0,3.584,1.024,3.584,2.784,0,1.088-.352,2.24-2.336,4.128l-8.64,8.16V0H55.44V-4.224Zm20.928-18.56c-4.736,0-8.48,2.88-8.48,7.456,0,4.224,3.392,6.976,7.712,6.976a7.655,7.655,0,0,0,5.568-2.016c-.16,4.32-2.592,6.528-6.3,6.528A7.244,7.244,0,0,1,61.04-4.96L59.12-1.152A11.973,11.973,0,0,0,65.328.384c6.784,0,11.424-4.32,11.424-12.064C76.752-18.912,72.944-22.784,66.736-22.784Zm.384,10.56c-2.3,0-3.808-1.312-3.808-3.36s1.536-3.328,3.744-3.328c2.464,0,3.9,1.408,3.9,3.328C70.96-13.632,69.392-12.224,67.12-12.224ZM88.4-22.784c-4.736,0-8.48,2.88-8.48,7.456,0,4.224,3.392,6.976,7.712,6.976A7.655,7.655,0,0,0,93.2-10.368c-.16,4.32-2.592,6.528-6.3,6.528A7.244,7.244,0,0,1,82.7-4.96l-1.92,3.808A11.974,11.974,0,0,0,86.992.384c6.784,0,11.424-4.32,11.424-12.064C98.416-18.912,94.608-22.784,88.4-22.784Zm.384,10.56c-2.3,0-3.808-1.312-3.808-3.36s1.536-3.328,3.744-3.328c2.464,0,3.9,1.408,3.9,3.328C92.624-13.632,91.056-12.224,88.784-12.224Zm21.28-10.56c-4.736,0-8.48,2.88-8.48,7.456,0,4.224,3.392,6.976,7.712,6.976a7.655,7.655,0,0,0,5.568-2.016c-.16,4.32-2.592,6.528-6.3,6.528a7.244,7.244,0,0,1-4.192-1.12l-1.92,3.808A11.974,11.974,0,0,0,108.656.384c6.784,0,11.424-4.32,11.424-12.064C120.08-18.912,116.272-22.784,110.064-22.784Zm.384,10.56c-2.3,0-3.808-1.312-3.808-3.36s1.536-3.328,3.744-3.328c2.464,0,3.9,1.408,3.9,3.328C114.288-13.632,112.72-12.224,110.448-12.224Z" transform="translate(1871 -1269)" fill="#474f5f"/>
    <g id="k0532_1" transform="translate(1733.558 -1296)">
      <path id="パス_2683" data-name="パス 2683" d="M13.673,27.416a6.038,6.038,0,0,0,5.5-.156c1.279-.834,1.34-1.339,1.239-1.974-.1-.608-.515-1.525-2.091-2.927a6.682,6.682,0,0,0-2.6-1.628c-.521-.191-1.639-.255-1.97.494-.229.519-.484,1.1-.908,1.226a1.8,1.8,0,0,1-1.59-.687A29.787,29.787,0,0,1,7.86,17.119a29.553,29.553,0,0,1-2.528-5.148,1.74,1.74,0,0,1,.144-1.706c.312-.308.954-.251,1.526-.2.825.068,1.3-.932,1.378-1.475a6.49,6.49,0,0,0-.212-3.034C7.67,3.519,7.052,2.72,6.556,2.346c-.518-.39-1-.577-2.35.135A5.867,5.867,0,0,0,1.449,7.175c-.068,2.035.266,6.077,3.6,11.6S11.826,26.506,13.673,27.416Z" transform="translate(-14)" fill="#474f5f"/>
      <path id="パス_2683_-_アウトライン" data-name="パス 2683 - アウトライン" d="M16.31,28a5.393,5.393,0,0,0,2.86-.74c1.279-.834,1.34-1.339,1.239-1.974-.1-.608-.515-1.525-2.091-2.927a6.682,6.682,0,0,0-2.6-1.628c-.521-.191-1.639-.255-1.97.494-.229.519-.484,1.1-.908,1.226a1.8,1.8,0,0,1-1.59-.687A29.787,29.787,0,0,1,7.86,17.119a29.552,29.552,0,0,1-2.528-5.148,1.74,1.74,0,0,1,.144-1.706c.312-.308.954-.251,1.526-.2.825.068,1.3-.932,1.378-1.475a6.49,6.49,0,0,0-.212-3.034C7.67,3.519,7.052,2.72,6.556,2.346c-.518-.39-1-.577-2.35.135A5.867,5.867,0,0,0,1.449,7.175c-.068,2.035.266,6.077,3.6,11.6s6.778,7.735,8.624,8.645A6.017,6.017,0,0,0,16.31,28m0,1h0a7,7,0,0,1-3.079-.686C10.9,27.164,7.44,24.666,4.192,19.288S.364,9.714.45,7.142A6.832,6.832,0,0,1,1.495,3.807,6.1,6.1,0,0,1,3.74,1.6,4.173,4.173,0,0,1,5.669,1a2.367,2.367,0,0,1,1.488.547A6.418,6.418,0,0,1,9.14,5.315a7.442,7.442,0,0,1,.248,3.3c-.006.039-.012.078-.017.115a3.278,3.278,0,0,1-.565,1.38,2.118,2.118,0,0,1-1.724.959c-.054,0-.109,0-.163-.007H6.9c-.2-.016-.4-.033-.568-.033-.061,0-.109,0-.146.005a1.829,1.829,0,0,0,.1.652A28.427,28.427,0,0,0,8.716,16.6a28.674,28.674,0,0,0,3.232,4.45,1.828,1.828,0,0,0,.563.41,5.324,5.324,0,0,0,.31-.625l.007-.016a2.174,2.174,0,0,1,2.123-1.215,3.294,3.294,0,0,1,1.107.186l.114.041a7.634,7.634,0,0,1,2.81,1.779c1.473,1.311,2.241,2.428,2.414,3.516.195,1.221-.276,2.053-1.68,2.969A6.391,6.391,0,0,1,16.31,29Z" transform="translate(-14)" fill="#474f5f"/>
    </g>
  </g>
</svg>
