<svg xmlns="http://www.w3.org/2000/svg" width="30" height="30" viewBox="0 0 30 30">
  <g id="グループ_7683" data-name="グループ 7683" transform="translate(-1170.458 -642.493)">
    <path id="パス_1352" data-name="パス 1352" d="M1185.458,672.493a15,15,0,1,1,15-15A15.016,15.016,0,0,1,1185.458,672.493Zm0-28.571a13.571,13.571,0,1,0,13.572,13.571A13.587,13.587,0,0,0,1185.458,643.922Z" fill="#5dc1cf"/>
    <path id="パス_1353" data-name="パス 1353" d="M1182.841,667.83l-.323,0a.715.715,0,0,1-.694-.734.751.751,0,0,1,.734-.694c.191.006.377,0,.566,0a9.989,9.989,0,0,0-.564-19.97h-.023a10.5,10.5,0,0,0-4.917,1.217.715.715,0,0,1-.67-1.264,11.938,11.938,0,0,1,5.563-1.381h.027a11.418,11.418,0,0,1,.624,22.827Z" transform="translate(2.62 1.073)" fill="#5dc1cf"/>
    <path id="パス_2499" data-name="パス 2499" d="M1186.65,652.446a3.368,3.368,0,0,1-.943,2.479,4.43,4.43,0,0,1-3.192.966h-1.474v2.894h1.455v1.4h-4.542v-1.4h1.4v-8.4h-1.4v-1.4h4.161a7.978,7.978,0,0,1,2.677.364,2.582,2.582,0,0,1,1.42,1.109A3.944,3.944,0,0,1,1186.65,652.446Zm-1.714-.037a1.839,1.839,0,0,0-.616-1.533,3.485,3.485,0,0,0-2.109-.486h-1.17v4.143h1.047a5.719,5.719,0,0,0,1.647-.19,1.544,1.544,0,0,0,.906-.653,2.4,2.4,0,0,0,.293-1.28Z" transform="translate(3.213 2.783)" fill="#5dc1cf"/>
  </g>
</svg>
