<svg xmlns="http://www.w3.org/2000/svg" width="280" height="25.862" viewBox="0 0 280 25.862">
  <g id="rogo" transform="translate(-43.137 -46.561)">
    <path id="パス_1020" data-name="パス 1020" d="M646.991,50.3c.121.142.205.252.3.352a1.894,1.894,0,0,0,.333.3,3.822,3.822,0,0,0,.534.266,2.58,2.58,0,0,0,1.221.226,1.125,1.125,0,0,0,.516-.091c.242-.132.477-.278.715-.418a1.223,1.223,0,0,0,.3-.287c.089-.1.181-.2.282-.3.165-.155.159-.325.252-.487.062-.107,0-.224.106-.348.009-.01-.005-.031-.011-.045a.181.181,0,0,1-.022-.055c-.005-.127,0-.256-.012-.382-.014-.2-.032-.4-.053-.592a.646.646,0,0,0-.047-.232,3.88,3.88,0,0,0-.456-.769.67.67,0,0,1-.053-.094.3.3,0,0,0-.059-.076c-.128-.1-.256-.2-.39-.3a2.122,2.122,0,0,0-.268-.159,2.965,2.965,0,0,0-1.023-.238,1.963,1.963,0,0,0-1.141.273,2.531,2.531,0,0,0-.549.438,2.7,2.7,0,0,0-.6.909,2.507,2.507,0,0,0-.177.771c-.009.088-.011.175-.016.263s-.012.176-.011.261a.571.571,0,0,0,.023.224c.1.215.216.423.3.592" transform="translate(-353.437 0)" fill="#474f5f"/>
    <path id="パス_1021" data-name="パス 1021" d="M43.137,58.873A9.659,9.659,0,0,1,53.172,48.838,9.745,9.745,0,0,1,60.927,52.3l-3.17,2.987a5.72,5.72,0,0,0-4.585-2.332c-3.354,0-5.58,2.462-5.58,5.947,0,3.589,2.384,5.948,5.58,5.948a4.625,4.625,0,0,0,4.9-3.825H52.438V57.2h10.27v1.677c0,5.974-3.747,10.035-9.537,10.035A9.7,9.7,0,0,1,43.137,58.873" transform="translate(0 -1.333)" fill="#474f5f"/>
    <path id="パス_1022" data-name="パス 1022" d="M97.192,69.385a6.93,6.93,0,0,1,6.917-7.205,5.561,5.561,0,0,1,4.009,1.52l.026-1.258h3.668V76.328h-3.668l-.026-1.258a5.559,5.559,0,0,1-4.009,1.519,6.93,6.93,0,0,1-6.917-7.2m7.467,3.432a3.434,3.434,0,1,0-3.328-3.432,3.193,3.193,0,0,0,3.328,3.432" transform="translate(-31.657 -9.146)" fill="#474f5f"/>
    <rect id="長方形_5302" data-name="長方形 5302" width="4.14" height="20.253" transform="translate(84.217 46.928)" fill="#474f5f"/>
    <path id="パス_1023" data-name="パス 1023" d="M160.4,69.385a6.93,6.93,0,0,1,6.917-7.205,5.561,5.561,0,0,1,4.009,1.52l.026-1.258h3.668V76.328h-3.668l-.026-1.258a5.559,5.559,0,0,1-4.009,1.519,6.93,6.93,0,0,1-6.917-7.2m7.467,3.432a3.434,3.434,0,1,0-3.327-3.432,3.193,3.193,0,0,0,3.327,3.432" transform="translate(-68.669 -9.146)" fill="#474f5f"/>
    <path id="パス_1024" data-name="パス 1024" d="M205.484,62.442h3.668l.026,1.258a5.561,5.561,0,0,1,4.009-1.52,7.211,7.211,0,0,1,0,14.41,5.73,5.73,0,0,1-3.642-1.178c.052,1.153.079,2.41.079,3.563v2.594h-4.14Zm7.153,10.375a3.436,3.436,0,1,0-3.275-3.432,3.219,3.219,0,0,0,3.275,3.432" transform="translate(-95.074 -9.145)" fill="#474f5f"/>
    <path id="パス_1025" data-name="パス 1025" d="M247.272,69.385a6.93,6.93,0,0,1,6.917-7.205A5.561,5.561,0,0,1,258.2,63.7l.026-1.258h3.668V76.328h-3.668L258.2,75.07a5.559,5.559,0,0,1-4.009,1.519,6.93,6.93,0,0,1-6.917-7.2m7.467,3.432a3.434,3.434,0,1,0-3.328-3.432,3.193,3.193,0,0,0,3.328,3.432" transform="translate(-119.546 -9.146)" fill="#474f5f"/>
    <path id="パス_1026" data-name="パス 1026" d="M293.968,77.848h3.406c2.305,0,3.851-.759,3.851-2.961v-.131a5.215,5.215,0,0,1-3.668,1.231,6.63,6.63,0,0,1-6.943-6.838,6.765,6.765,0,0,1,6.865-6.97,5.688,5.688,0,0,1,4.061,1.52l.026-1.258h3.668V74.494c0,5-3.354,7.074-7.939,7.074h-3.327Zm4.061-5.476a3.137,3.137,0,0,0,3.327-3.222,3.3,3.3,0,1,0-3.327,3.222" transform="translate(-144.928 -9.145)" fill="#474f5f"/>
    <path id="パス_1027" data-name="パス 1027" d="M334.014,69.3a7.416,7.416,0,1,1,7.415,7.31,7.206,7.206,0,0,1-7.415-7.31m7.415,3.459a3.463,3.463,0,1,0-3.275-3.459,3.244,3.244,0,0,0,3.275,3.459" transform="translate(-170.344 -9.035)" fill="#474f5f"/>
    <path id="パス_1028" data-name="パス 1028" d="M376.755,76.439V72.927a20.617,20.617,0,0,0,2.594.236c1.074,0,1.52-.261,1.52-.812,0-.446-.314-.839-1.205-1.494l-.812-.6c-1.6-1.179-2.254-2.279-2.254-3.826,0-2.567,1.86-4.061,5.109-4.061a13.938,13.938,0,0,1,2.227.184v3.223a12.989,12.989,0,0,0-1.7-.131c-1.1,0-1.625.262-1.625.707,0,.314.262.6,1.127,1.205l.733.524c1.887,1.336,2.673,2.594,2.673,4.244,0,2.725-2.044,4.323-5.554,4.323a23.563,23.563,0,0,1-2.829-.21" transform="translate(-195.282 -9.257)" fill="#474f5f"/>
    <path id="パス_1029" data-name="パス 1029" d="M441.1,69.3a7.416,7.416,0,1,1,7.415,7.31A7.207,7.207,0,0,1,441.1,69.3m7.415,3.459a3.464,3.464,0,1,0-3.275-3.459,3.244,3.244,0,0,0,3.275,3.459" transform="translate(-233.058 -9.035)" fill="#474f5f"/>
    <path id="パス_1030" data-name="パス 1030" d="M489.634,62.813h1.782v3.72h-1.389c-.838,0-1.2.366-1.2,1.2V76.7h-4.14V67.844c0-3.485,1.86-5.031,4.952-5.031" transform="translate(-258.579 -9.517)" fill="#474f5f"/>
    <path id="パス_1031" data-name="パス 1031" d="M512.929,49.786h10.978v4.035h-6.628v3.616h6.471v4.035h-6.471v7.6h-4.349Z" transform="translate(-275.121 -1.889)" fill="#474f5f"/>
    <path id="パス_1032" data-name="パス 1032" d="M546.132,69.385a6.93,6.93,0,0,1,6.917-7.205,5.562,5.562,0,0,1,4.009,1.52l.026-1.258h3.668V76.328h-3.668l-.026-1.258a5.56,5.56,0,0,1-4.009,1.519,6.93,6.93,0,0,1-6.917-7.2m7.467,3.432a3.434,3.434,0,1,0-3.328-3.432,3.193,3.193,0,0,0,3.328,3.432" transform="translate(-294.565 -9.146)" fill="#474f5f"/>
    <path id="パス_1033" data-name="パス 1033" d="M596.547,61.991a5.083,5.083,0,0,1,4.14,1.755,4.993,4.993,0,0,1,4.114-1.755c3.459,0,5.607,2.227,5.607,6.1v8.122h-4.139V67.939c0-1.336-.708-2.1-1.756-2.1-1.074,0-1.756.76-1.756,2.1v8.279h-4.139V67.939c0-1.336-.681-2.1-1.755-2.1-1.048,0-1.756.76-1.756,2.1v8.279h-4.139V68.1c0-3.877,2.148-6.1,5.581-6.1" transform="translate(-320.817 -9.035)" fill="#474f5f"/>
    <rect id="長方形_5303" data-name="長方形 5303" width="4.14" height="13.886" transform="translate(293.568 53.296)" fill="#474f5f"/>
    <rect id="長方形_5304" data-name="長方形 5304" width="4.14" height="20.253" transform="translate(301.724 46.928)" fill="#474f5f"/>
    <path id="パス_1034" data-name="パス 1034" d="M688.636,76.28l-5.449-13.467h4.585l3.013,8.358,2.856-8.358h4.323l-7.179,19.126h-4.323Z" transform="translate(-374.827 -9.516)" fill="#474f5f"/>
    <path id="パス_1035" data-name="パス 1035" d="M408.1,49.852h10.978v4.035h-6.628V57.5h6.471v4.035h-6.471v7.6H408.1Z" transform="translate(-213.728 -1.927)" fill="#474f5f"/>
  </g>
</svg>
