<svg xmlns="http://www.w3.org/2000/svg" width="363.439" height="35.711" viewBox="0 0 363.439 35.711">
  <path id="パス_1051" data-name="パス 1051" d="M942.441,800.406h.386a4.454,4.454,0,0,0,.258.838h.386v.209h.644v-.1h.258v-.1a1.124,1.124,0,0,1,.515-.1v-.21a7.963,7.963,0,0,1,.9-.209l.129-.314a2.956,2.956,0,0,1,.515.1l.129-.209h.644v-.209c.518-.042.466-.121.9,0v-.314l.387-.1.129-.21h.515l.129-.209h.644v-.1l.773-.105.129.314a1.245,1.245,0,0,1,.9.209v.105h.515v.1c.146.119.051,0,.129.209h.257v.21h-.129c-.025.11.434.5.515.733h.257a1.656,1.656,0,0,0,.258.838c.146.119,0,.042.257.1l.129,1.151h.258v.21h.386l.129.314,1.159.105v-.105h.257v-.1a2.755,2.755,0,0,1,1.416-.314v-.21c.72-.083.725-.45,1.546-.209v-.1h-.129c-.407,0,.386-.105.386-.105v-.1h.644l.129-.209h.258v-.105h.515l.257-.418h.257v-.105a4.8,4.8,0,0,1,2.576-.314v.1h.257v.1h.258v.1c.194.141.17.054.257.314.607.132.525.331.772.733h.129v.314l.258.1v.314h.129v.523h.129a.746.746,0,0,1,.258.523,7.825,7.825,0,0,0,.9.21c.264-.325.146-.056.515-.21l.129-.209.515.1v-.1h.387v-.21h.386v.21l1.674-.419.129-.419.515.1v-.314a3.657,3.657,0,0,1,1.288-.419v-.21c.375-.073.309-.181.387-.209l1.545-.1v-.21a4.5,4.5,0,0,0,1.159,0v-.209l1.159-.314v-.1h.129v-.419h.258v.21h.257v-.21c.365-.069.336-.192.387-.209.387-.13.39.209.773,0l.257-.419h.644v-.1h.258v-.1h.772v-.314a7.825,7.825,0,0,1,.9-.21v.21h1.288c.18.023-.053.108.129.1v-.1h.386l.129.523c.551.124.625.387.9.732l.258.105c.261.424-.248.543.515.733.093.289.036.234.387.314a2.815,2.815,0,0,0,.9.419V802.5c.159-.068.181-.169.258-.209h.257l.129-.21h.515v.105c.21-.029.2-.19.258-.21h.515l.129-.209.772-.21.129-.209h.258v-.1h.257v-.1l.644-.105v-.1h.258v-.1l.257.1.129-.314,1.546-.21v.1l.386.105v.1l.387.1.129.209c.171.094.516.074.644.21.318.335-.019.473.644.628.021.669.384.979.644,1.466h.387v.209c.626.023.436.112.9.21v-.419a5.437,5.437,0,0,0,.9.1v-.209h.386v-.21l1.674-.1v-.1h.258l.129-.209h.257V802.5a1.178,1.178,0,0,1,.515-.209v-.21a1.25,1.25,0,0,0,.515-.209v-.1l1.031-.1.129-.314c.975-.009,1.358-.433,2.318-.523v-.209a1.037,1.037,0,0,0,.515-.105v-.1h.515v-.1h.129v-.314h.258v-.209h2.447v.209c.463.1.543.351.9.523-.039.257-.144.5.129.733.146.119,0,.042.257.1v.523h.257a1.359,1.359,0,0,1-.129.523h.129c.171.2.3.237.387.523a4.781,4.781,0,0,0,1.932.21v-.105h.515v-.1h.257v-.1h.387v-.1h.515v.1a3.123,3.123,0,0,0,1.288-.1V802.4l1.674-.1v-.1h-.129v-.314h1.03v-.209l1.546-.105v.105h.129c.048-.019.021-.165.386-.105v.105l.644-.105.129.21h.257v-.21l.644-.1v-.1h.258v-.1h1.158v-.21l.644.105c.029.512.265.523.387.942l.9.105v.628a1.488,1.488,0,0,1-.515-.1v.733c-.054.061-.211.015-.129.21h.129v.1h.386c.115.067.216.37.258.523h.386l.129.628-.258.1.129.105-.129.628h.129v-.1h.387l.129.418h.129l-.129.628h.387v.523h.386l.129.732-.387.21v.1h.129v.837h-.257a3.982,3.982,0,0,1,.129.942,4.978,4.978,0,0,1-2.06-.209c-.672-.145-.3-.325-.644-.628v.314l-.644.105v.1c-.147.119-.052,0-.129.209l-.772.1c-.1.314-.079.275-.515.314v-.1l-1.674-.1v.1h-.129v.314a1.475,1.475,0,0,0-.644.105v.1h-.644v.1h-.257v.1l-.9.1v-.1h-.644v.1h-.257l-.129.21-1.288-.21v-.1h-1.031v.21h-.386l-.129.314a2.849,2.849,0,0,0-.9.105c.149.339.08.264,0,.628h-.387c-.3.516-.2.644-1.159.628v.209l-1.674.105s.03.1-.258.1l-.129-.1v.1h-.387v.1h-.644v.1h-.129v.314l-.257.1-.129.419-1.545.209v.21h-.515v-.1h-.129v.1h-.258v.1l-.773.1v.1l-.386.105c-.094.289-.036.234-.387.314-.157.406-.024.135-.387.314v.1h-.257v.1h-.386l-.129.21h-.257l-.258.209h-.257l-.258.314-.386.1-.129.209h-.386v.105h-.258l-.129.209-.644.1-.257.314-.387.1-.129.209h-.644v.105h-.258v.1h-.386v.1h-.258l-.129.21h-.386v.1l-.644.1v.209l-1.159.523v.21l-.387.1-.515.523h-.386v.209c-.9.085-.983.679-1.8.838v.21h-.515v.314l-.644.1-.129.21a1.817,1.817,0,0,1-.9.314c-.178.5-.126.114-.515.314v.1l-.257.105v.209l-1.159.314v-.314h-.386v-.209c-.456-.04-.391-.13-.773-.21l-.129-.419h-.387v-.209h-.257v-.314h-.258a1.088,1.088,0,0,0-.386-.837h-.258v-.105H985.2c-.253-.24.141-.2-.386-.314V820.3h-.258v-.419c-.316-.156-.083-.139-.257-.314h-.129v-.1c-.3-.206-.239.114-.386-.314h-.387v-.21a1.087,1.087,0,0,0-.515.1v.105h-.386v.1h-.258v.1h-.257l-.129.209a2.124,2.124,0,0,1-.9.314c-.194.589-.224.213-.644.419l-.515.523H979.4v.1l-.515.1c-.148-.074.048-.141-.129-.1v.1l-.644.105v.314a7.878,7.878,0,0,1-.9.21v.209h-1.03l-.129.209-.386.105v.1h-.387l-.129.209-1.031.21c-.016.072-.165.5-.257.419v-.105l-.387.105v.209l-.386.1v.1h-.258l-.129.21c-.2.074-.49-.128-.515-.1v.209l-1.288.1c-.209-.253-.1-.066-.386-.209v-.1h-.257l-.515-.523h-.129l-.129-.419h-.129a.8.8,0,0,1-.257-.419c-.353-.068-.293-.137-.644-.21v-.209c-.684-.333-.655-.83-1.8-.838-.083.287-.168.239-.257.523h-.258v.314c-.274.127-.28.236-.644.314v.1h-.386a1.2,1.2,0,0,1-.9.732v.21h-.387c-.254.314-.363.1-.515.523-.875.032-.9.385-1.8.419v-.21h-.773c-.186-.241-.584-.3-.773-.523v-.209h-.129v-.21l-.387-.209v-.1l-.515-.314v-.314H958.8c-.252-.384-.324-.714-.9-.837v-.21l-.387-.1c-.052-.52-.309-.694-.386-1.151-.3-.07-.248-.024-.387-.21h.129c.2-.139-.247-.1-.257-.1a1.561,1.561,0,0,0-1.159,0v.1h-.515v.105h-.257v.1h-.387l-.257.314h-.644c-.009,0,.008.059-.258.105v.209l-.9.1c-.059.328-.029.26-.258.419v.1h-.386l-.129.21H951.2l-.129.209h-.515l-.129.21h-.773l-.129.209h-1.03v.1c-.147.12-.052,0-.129.21-.355.076-.288.029-.386.314h-.258l-.129.314-.386.1-.515.523-.515.1c-.449.2-.406.39-1.159.419-.093.289-.036.234-.386.314a.778.778,0,0,1-.515.209v.21a2.567,2.567,0,0,0-1.159.628l-.129.209h-1.159v-.1H940.9v-.1l-.386-.1v-.105c-.331-.186-.246.114-.387-.314h-.387v-.21h-.257c-.148-.449-.424-.306-.515-.837h-.257v-.1l-.515-.314v-.314l-.387-.209v-.21h-.129v-.209c-.085-.1-.4-.192-.515-.314H936l-.129.21a1.549,1.549,0,0,1-.772.209v.21c-.693.05-1.858.425-2.576.1l-.258-.314h-.386l-.258-.314h-.129c-.029-.181.235-.127,0-.314l-.257.1-.129-.209h-.257l-.515-.523-.257-.1v-.21l-.515-.314V820.3h-.129v-.21H929.3l-.129-.523-.257-.1v-.209h-.129v-.21l-.387-.314a2.879,2.879,0,0,0-1.288,0v.1h-.258v.1h-.386l-.129.21h-.258v.1l-.515.1v.1l-1.159.1s-.008-.215-.129-.1v.21c-1.4.223-1.862,1.125-2.833,1.675h-.258l-.129.209-.387.105v.1l-.515.1-.129.209h-.644l-.129.21H919l-.129.209h-.258l-.129.21-.515.1-.257.314-.515.1-.129.209h-.258l-.257.314H916.3l-.515.523h-.257v.1h-.387v.1h-.386v.1a.357.357,0,0,1-.386-.1h-.644a3.479,3.479,0,0,1-1.288-.837c-.277-.226-.518-.257-.644-.628l-.515-.1-.129-.314-.773-.1v-.1a4.311,4.311,0,0,1-.515.1c-.276.319-.163.047-.515.21l-.129.209h-.258v.1H908.7l-.257.21h-.258l-.386.419-.387.1-.129.314-.515.314v.209l-.258.105v.209h-.129l-.129.314a7.307,7.307,0,0,1-1.8.419c-.384-.363-1.23-.676-1.674-1.047v-.1l-.257-.1v-.209l-.9-.628v-.209l-.258-.1-.129-.419-.258-.1V822.6l-.257-.1v-.209l-.644-.419v-.209l-.257-.105v-.209h-.129v-.209l-.386-.105-.258-.314-1.417.419v.1h-.387l-.257.314h-.257l-.387.419h-.257l-.129.21-.515.1v.1h-.257v.1h-.257v.1h-.387l-.515.524h-.257l-.258.314-.9.628h-1.8v-.1h-.257v-.1a2.5,2.5,0,0,0-.9-.523v-.209l-.773-.524-.129-.418-.258-.105v-.209l-.257-.1v-.21l-.644-.418v-.21l-.515-.314V820.3l-.258-.1v-.21h-.129v-.314c-.237-.5-.346-1.21-1.03-1.361a3.536,3.536,0,0,0-1.674-.21v.105c-.686.136-1.128.857-1.674,1.047l-1.03.1v.1h-.257l-.257.419H880.5v.1l-.773.21v.1l-.772.1v.1l-.515.1v.105l-.515.1-.129.209h-.258v.105h-.257v.1h-.387v.1h-.257v.1h-.257v.1l-.773.21v.1h-.386v.1h-.387v.1h-.515v.105h-.257v.1H873.8l-.257.209h-.257l-.129.21H872.9l-.129.209-.515.1v.105l-.515.1v.1h-.387l-.129.209-.9.105-.258.314-.515.1-.129.21h-1.674v-.1h-.258l-.129-.21h-.387l-.129-.209h-.257v-.1h-.258l-.515-.523-.257-.105v-.209l-.257-.1v-.21h-.129v-.209l-.386-.21v-.1h-.515v-.1l-.773.1v.1l-.644.105v.1h-.258v.1l-1.417.314-.515.523-1.159.314v.105a2.508,2.508,0,0,1-.9.523v.209h-.258l-.129.209h-1.674c-.261-.312-.07-.03-.386-.209l-.129-.209c-.155-.083-.55-.084-.644-.21v-.209c-.661-.155-.57-.452-.9-.838l-.387-.209v-.21l-.257-.209h-.257l-.129-.21h-.129v-.209h-.129v-.209l-.258-.105v-.209h-.129v-.209l-.257-.105v-.314c-.282-.471-.556-.524-1.416-.523a5.54,5.54,0,0,1-1.932.628h-.644v.1H848.3l-.257.314h-.129l-.129.314-.515.105-.386.418h-.258l-.129.21h-.257l-.129.209c-.439.217-.986.073-1.545.21a5.525,5.525,0,0,1-1.159.209c-.186.258-.4.292-.515.628l-1.159.314-.386.419h-.258l-.257.209h-.258v.1h-.257l-.129.21-.773.1-.645.733-.515.1v.1H838v.1l-.773.21v.1h-.387v.1h-.386v.1l-.9.1v.105l-.772.1v.1h-.257l-.129.209h-.257l-.129.21h-.258a3.775,3.775,0,0,1-.9.419c-.146.463-.557.453-.9.733-.6.488-.98,1.378-2.06,1.466v.1h-.129v-.1h-.387v-.1l-.644-.1-.515-.523h-.257l-.129-.21-.644-.419-.129-.418-.386-.21-.772-.733h-.258l-.644-.628h-.644v.105h-.515v.1a4.425,4.425,0,0,1-1.932,0v-.1h-.387v-.105l-.386-.1v-.209c-.317-.151-.359-.329-.773-.419v-.209H820.1v-.21h-.257v-.209h-.258v-.105l-.773-.523v-.209l-.515-.314v-.209h-.129l-.257-.314-.258-.1v-.209h-.129l-.129-.419h-.129l-.129-.838H817v-.209c-.2-.313-.451-.476-.515-.942-.259-.06-.112.012-.257-.1a3.78,3.78,0,0,0-1.031.419h-.257v.1h-.258v.1H814.3v.1h-.515v.1H813.4v.105h-.257l-.644.733-1.417.419-.129.209h-.257l-.257.314h-.258l-.515.523h-.257l-.258.314h-.257l-.129.209h-.258v.1h-.386v.1h-.258l-.257.314h-.258l-.129.209h-.257l-.129.21-.387.1-.257.314h-.258v.1l-.386.1-.129.21h-.257l-.257.314h-.258l-.257.314h-1.8v-.1h-.387l-.386-.419h-.258l-.129-.21c-.532-.293-1.233-.477-1.417-1.047h-.258c-.148-.563-.6-.553-.772-1.047-.442-.091-.331-.217-.773-.314-.056-.611-.606-1.128-.9-1.571l-.129-.418-.257-.105v-.209l-.386-.209c-.3-.352.1-.45-.644-.524v.105l-1.159.209v.1h-.772v.105h-.258l-.129.209h-.257v.1l-2.318.314v.1a5.137,5.137,0,0,1-1.159.419.879.879,0,0,1-.773.732v.105l-.773.1v.1h-.515v.1h-.644v.1h-.387v.105h-.257v.1l-1.159.1v.1l-.515.1v.105h-.258l-.386.418h-.258l-.386.419-.515.1-.129.21-.387.1v.1l-.644.105v.1h-.257v.1l-.644.1a4.009,4.009,0,0,1-1.546.314v-.21h-.257v-.1l-.9-.628v-.21l-.257-.1-.515-.523h-.257l-.129-.314-.257-.105v-.209l-.515-.314v-.209l-.257-.1v-.21l-.386-.209c-.3-.342-.08-.447-.773-.523v-.1h-.129v.1h-.644v.1h-.258v.1l-2.576.419a3.461,3.461,0,0,1-.644.942l-.515.1-.129.21h-.258v.1h-.257v.1h-.257v.1h-.387v.1l-.515.105v.1h-.515v.1h-1.674v.1h-.258l-.644.628h-.257l-.387.418h-.257l-.258.314h-.257l-.515.523-.515.1v.1h-.257l-.129.21a3.891,3.891,0,0,1-1.546.209c-.255-.348-.709-.449-1.03-.733l-.257-.419c-.641-.416-1.065-.317-1.288-1.151h-.258l-.515-.523h-.129v-.21l-.386-.209v-.21l-.258-.1v-.209l-.515-.314v-.209l-.258-.1v-.21l-.515-.314v-.1H754.8v-.1l-1.159.1v.1H753v.105h-.386v.1h-.387v.1h-.257v.1h-.258l-.257.314H751.2l-.257.314-.515.1-.129.209h-.258l-.129.21-.386.1v.1h-.387v.1h-.257v.1l-.773.21v.1l-.773.1-.129.21h-.129l-.129.209h-.257l-.387.419-.515.1-.129.21H745.4v.1l-.387.209v.21l-.257.1V827l-.258.1v.21a2.163,2.163,0,0,1-1.03.419l-.129.314a33.723,33.723,0,0,1-3.606,1.256,3.374,3.374,0,0,1-1.546-.21v-.209c-.739-.282-.86-.634-1.288-1.151l-.257-.105-.129-.418-1.417-1.047v-.21l-.257-.1-.129-.314h-.129l-.129-.209H734.2a3.259,3.259,0,0,1-.644-.942c-.569-.146-.348-.368-.773-.628v-.1h-.644v.1l-.644.1v.1h-.386v.1h-.387v.105h-.257v.1l-.515.1v.1h-.387v.1l-.773.105-.129.209-.515.1-.387.419h-.515v.1h-.257v.105l-.773.1v.1l-.515.1v.1h-.257v.105h-.387l-.257.314h-.129l-.129.21h-.257l-.644.628-.515.1v.1h-.258l-.129.21h-.257l-.129.209-.773.21-.129.209h-.257l-.387.419h-.257v.1h-.258v.1H719.9l-.258.314-.644.1v.1h-.257l-.129.21a4.064,4.064,0,0,1-1.545.314v.21a4.6,4.6,0,0,1-1.8.209v-.1h-.773l-.258-.314-.773-.209v-.21a6.42,6.42,0,0,1-1.545-1.151l-.9-.628-.386-.419h-.258l-.129-.314-.387-.1v-.1c-.26-.183-.407-.2-.515-.523-.5-.114-.385-.235-.644-.523l-.515-.314-.129-.209h-.9v.1l-.773.1v.105l-.515.1v.1h-.387l-.129.209h-.515l-.129.21h-.387l-.129.209H703.8a2.209,2.209,0,0,1-.9.314V827l-1.159.21-.129.209h-.644v.1h-.387v.1a5.257,5.257,0,0,1-1.8-.1v-.209c-.812-.274-2.359-.987-2.576-1.675h-.257v-.105l-.515-.314V824.9l-.258-.1v-.21l-1.03-.733c-.712-.579-1.19-1.328-2.576-1.361v.1h-.387l-.129.21H690.8l-.129.209h-.257v.105l-.515.314v.21l-.258.209h-.257l-.387.419h-.257l-.257.314c-.476.211-.422-.269-.644.314h-.515a3.971,3.971,0,0,1-1.8,1.047v.1h-.387l-.129.21h-.515v.1h-.257v.1h-.387v.1h-.257v.105h-.258l-.386.418c-.17.094-.516.075-.644.21v.209a1.218,1.218,0,0,1-.773.523v.21h-.386c-.372.488-1.21.523-1.417,1.151-.374.063-.413.3-.644.1v.21h-.257v.209a1.69,1.69,0,0,0-.644.21v.1c-.426.2-.465-.155-.644.419h-.387l-.386.523h-.387v.1c-.409.181-.638.223-.773.628h-.258c-.106.335-.152.3-.644.314-.091.323-.251.445-.644.523v.209c-.4.068-.279.168-.386.21l-.9.1v.1h.257v.209h-.515v.21l-.387.1v.1h-.257l-.129.21h-.257v.1h-.644l-.129.209-.9-.1v-.209h-.515c-.19-.259-.171-.068-.386-.21l-.129-.314c-.162-.143-.563-.108-.9-.105v-.418a1.648,1.648,0,0,0-.515-.21v-.209c-.316-.162-.079-.119-.257-.314l-.515-.314v-.209c-.284-.31-.6-.1-.773-.628h-.258l-.129-.314H665.3l-.129-.523h-.129l-.129-.838h-.129l-.129-.418h-.129l-.129-.838h-.129l-.129-.523h-.129c-.05-.176.122-.185.129-.21v-1.047l.257-.1v-.419c.067-.137.064.034.129-.1a7.4,7.4,0,0,1,1.674-.838c.042-.333.047-.258.258-.418v-.105h.257v-.1l.387-.1v-.209c.441-.092.331-.217.773-.314v-.209l1.159-.314v-.1h.257l.129-.21h.386l.129-.209h.258l.515-.523h.257s.225-.187.258-.21l.129-.209h.644v-.314h.386c.314-.41.984-.422,1.159-.942h.258c.345-.4.961-.336,1.159-.942l.386-.105v-.1h.258v-.1h.257v-.1h.257v-.1h.387l.258-.314h.386v-.1l.773-.1v-.105a1.217,1.217,0,0,1,.515-.1V818.2h.258c.228-.279.513-.241.644-.628l.386-.1v-.1h.258v-.1h.515l.257-.314.644-.1v-.1h.257v-.1h.258l.129-.21h.258l.257-.314c.395-.2.336.188.515-.314h.515v-.21c.641-.046.846-.311,1.416-.418.095-.337.175-.381.644-.419v-.21l.387-.1.257-.314h.257l.129-.21h.257l.129-.209h.258V813.6l.773-.1.387-.419.515-.1.129-.209h.257v-.1h.257v-.105h.515v-.1l.773-.209.129-.21h.257v-.1h.387l.257-.419h.387v-.1h.257v-.1h.258v-.1a1.088,1.088,0,0,1,.515-.105v-.209c.578-.043.559-.206.9-.314h.644l.129-.209a2.977,2.977,0,0,1,1.159-.314c.147.12,0,.042.258.105v-.314a5.212,5.212,0,0,0,1.674-.209l.387-.419.515-.105.257-.314.773-.21.515-.523h.258l.257-.209h.257v-.1h.258v-.1l.773-.21v-.1l.515-.1v-.1h.387V807l.386-.1.129-.209h.258l.129-.21h.257l.129-.209h.257l.129-.21h.258l.129-.209.515-.1v-.1l.515-.105v-.1h.386v-.1h.387v-.1h.515v-.1h.773v-.105h.257l.129-.209.773-.209.257-.314h.258l.257-.21h.258v-.1h.257l.129-.209h.387v-.1h.257l.129-.21.9-.1v-.1h.257v-.1h.515v-.105h.515v-.1h.773l.129-.209.773-.21v-.314h.129c.314-.321,2.306-1.454,2.833-1.152.939.189,1.214.966,2.19,1.152v.209h.257v.1l.9.628.129.418,1.288.942v.21l.258.1v.209l.257.105v.209l.257.1.258,1.57.257.105.129.523h.129l.129.733h.129a.877.877,0,0,1,.258.419l.515.1v.1a2.232,2.232,0,0,0,1.03-.209h.9v-.1l.772-.105v-.1l.773-.209v-.1h.257l.387-.419a3.02,3.02,0,0,1,2.318-.628c.224.2.3.089.515.209l.9.838.387.1v.209c.508.123.164.028.386.314h.129v.209l.257.1v.21l.387.209.129.314.773.523c3.018.068,4-.862,6.053-1.466l3.091-.419v-.1h.387v-.1l.515-.1v-.105l1.03-.1v-.1l.9-.1v-.1h.515v-.105h.387v-.1h.387v-.1h.257l.129-.209,1.8-.314v-.1h.258l.129-.21.644-.1v-.1h.515v-.1h.515v-.105h.644v-.1h.644v-.1h1.03v-.1h.387v-.1h.387v-.105l1.288-.209v-.1h.257v-.1h.257l.129-.21.644-.1.129-.209,1.031-.105a3.531,3.531,0,0,1,2.189-.209v.1h.258l.386.419h.258v.1l.386.21v.209h.129a1.124,1.124,0,0,1,.387.523h.258v.209c.171.071.17.161.257.21.386.213.64.2.773.628a6.18,6.18,0,0,0,1.03.1v-.1l.773-.1.258-.314h.257v-.1h.257v-.1h.515v-.1l1.288-.105v-.1h.387v-.1h.387l.129-.209h.386v-.105h.258v-.1h.515v-.1h.386v-.1l1.03-.1v-.105h.644v-.1h.387v-.1h.644v-.1h.257v-.1l.644-.105v-.1l1.8-.1v-.1h.257a4.234,4.234,0,0,1,1.03-.419v-.314l2.19-.419v-.1h.257v-.1l1.674-.1v-.1h.257V802.5h.387v-.1l.515-.1v-.1l.644-.105v-.1l1.417-.1v-.1h.387v-.1h.773l.257-.314h.387v-.1l2.318.1c.314.437.255.124.644.314l.386.418h.129l.129.733h.129v.209h.129v.314l.387.209v.21h.129v.314h.129v.21h.129v.314a2.366,2.366,0,0,0,.9.942l.129.21h1.031v-.1l1.932-.21v-.1h.773v-.1h.515v-.1h.257v-.105h.387v-.1h.387v-.1h.515v-.1h.515v-.1l1.159-.105v-.1l.773-.1v-.1h.257v-.105h.515v-.1h.9v-.1h.387v-.1h.773v-.1h.386v-.105h.644v-.1h.386v-.1h.515v-.1h.515v-.1h.773l.129-.21h.386v-.1h.258v-.1h.386v-.1a14.672,14.672,0,0,1,3.091.1l1.417,1.36c.139.1.25.076.386.21l1.288-.1v-.105h.258v-.1h.515v-.1l.515-.1v-.1h.258v-.105h.386v-.1h.9v-.1h.257v-.1l.773-.1v-.105h.515v-.1l.773-.209v-.1h.257V802.5h.257v-.1h.387v-.1h.773v-.1h.386v-.105h.644v-.1h.257v-.1h.515l.129-.209h.257v-.105h.387v-.1h.386v-.1h.644v-.1h.773v-.1h.387v-.105h.387v-.1l2.06-.1c.276.319.183.044.515.209l.644.628h.257l.644.628h.129v.209l.386.105c-.04.864.04,1.283,1.159,1.256v-.1h.644v-.1h.258v-.105h.257l.129-.209.773-.1v-.1l.515-.105v-.1h.773v-.1l.515-.1.258-.314h.386v-.1l.773-.21v-.1h.644v-.1h.386v-.1h.258l.386-.419.515-.1v-.1a4.265,4.265,0,0,1,2.19.314c.146.12.051,0,.129.21h.386l.515.523h.129l.129.419.257.1v.209l.515.314v.942h.129v.419c.614.158.135.09.387.418l.257.105a1.372,1.372,0,0,0,1.159.523v-.105l1.288-.209v-.1h.644v-.1l.773-.21v-.1l2.189-.419v-.1h.386l.129-.21h.257v-.1h.387l.129-.209h.387v-.1h.387v-.105h.386v-.1H855v-.1h.515v-.1h.386v-.1h.258v-.105h.386v-.1l.9-.1v-.1h.257l.129-.21h.387v-.1h.386v-.1h.386v-.1h1.031v-.105h.515v-.1l.644-.1v-.1a1.468,1.468,0,0,1,.644-.1v-.21h1.545v.1l.773.21.129.209h.257v.1a1.176,1.176,0,0,0,.515.21,1.081,1.081,0,0,0,.387.523h.129l.129.314.258.1.129.523h.129v.209h.129v.419a1.114,1.114,0,0,1,.258.21c.262-.034.257-.105.257-.105h1.8v-.1h.387v-.1h.386v-.1h.387v-.105h.257v-.1h.258l.129-.209.773-.21v-.1l2.19-.314v-.105l.515-.1v-.1h.515v-.1h.258v-.1l1.159-.21v-.1l.515-.1v-.105l.644-.1v-.1h1.545c.227.209.254.088.515.209v.105h.257l.644.733v.21h.129v.209h.129a.807.807,0,0,1,.257.419c.892.2.5.714,1.932.733l2.962-.942h1.031l.257-.314,1.159-.314v-.1h.258v-.1h.257l.129-.21h.644v-.1h1.8v.1h.387v.105h.386l.129.209h.257l.257.314h.129v.209l.257.1v.314h.129v.314h.129c.221.491-.117.376.387.733v.1h.258v.1l.644.105v-.105l1.03-.1v-.1h.515v-.1h.258v-.1h.386l.129-.21h.258v-.1h.257v-.1l1.674-.105v-.1l.773-.209v-.1h.258v-.105h.386l.129-.209h.258v-.1h.257v-.1l1.159-.21.129-.209h.258v-.1h.257V802.5l1.417-.1v-.1h.387l.129-.21.515-.1.129-.209h.258v-.1h1.932l.644.628h.257l.258.314.386.1v.209l.386.21v.209l.257.1v.21l.386.1v.1l1.674-.209v-.105h.386v-.1h.258v-.1h.386v-.1l.773-.21v-.1h.773l.129-.209h.644v-.21c.828-.01.56-.112,1.03-.314h.257v-.105h.387v-.1c.3-.076.3.049.387.1l.386-.1v-.1h.644l.129-.209.515-.105v-.1l.515-.1v-.1h.387v-.1h.257v-.105h.387v-.1l.386-.1.129-.209h.515l.258-.314a8.6,8.6,0,0,1,2.7-.209v.1l.515.1.129.209a2.636,2.636,0,0,0,1.03.628l.387,1.047.773.523a5.972,5.972,0,0,0,2.06-.314l.644-.1.129-.21,1.674-.314v-.1h.258v-.105h.386l.129-.209.773-.209.129-.21,1.031-.1v-.1l.773-.21v-.1h.386l.129-.209h.257v-.1l.644-.105.129-.209.387.1.129-.209.515-.105.257-.314.9-.1.129-.21,1.417-.1c.179.03-.053.108.129.1a.206.206,0,0,1,.257-.1v.1c.982.15,1.061.735,1.674,1.152Z" transform="translate(-664 -798.821)" fill="#ebff00"/>
</svg>
