<svg xmlns="http://www.w3.org/2000/svg" width="26" height="30" viewBox="0 0 26 30">
  <path id="Icon_awesome-building" data-name="Icon awesome-building" d="M25.3,28.125H24.143V1.406A1.4,1.4,0,0,0,22.75,0H3.25A1.4,1.4,0,0,0,1.857,1.406V28.125H.7a.7.7,0,0,0-.7.7V30H26V28.828A.7.7,0,0,0,25.3,28.125ZM7.429,4.453a.7.7,0,0,1,.7-.7h2.321a.7.7,0,0,1,.7.7V6.8a.7.7,0,0,1-.7.7H8.125a.7.7,0,0,1-.7-.7Zm0,5.625a.7.7,0,0,1,.7-.7h2.321a.7.7,0,0,1,.7.7v2.344a.7.7,0,0,1-.7.7H8.125a.7.7,0,0,1-.7-.7Zm3.018,8.672H8.125a.7.7,0,0,1-.7-.7V15.7a.7.7,0,0,1,.7-.7h2.321a.7.7,0,0,1,.7.7v2.344A.7.7,0,0,1,10.446,18.75Zm4.411,9.375H11.143V23.2a.7.7,0,0,1,.7-.7h2.321a.7.7,0,0,1,.7.7Zm3.714-10.078a.7.7,0,0,1-.7.7H15.554a.7.7,0,0,1-.7-.7V15.7a.7.7,0,0,1,.7-.7h2.321a.7.7,0,0,1,.7.7Zm0-5.625a.7.7,0,0,1-.7.7H15.554a.7.7,0,0,1-.7-.7V10.078a.7.7,0,0,1,.7-.7h2.321a.7.7,0,0,1,.7.7Zm0-5.625a.7.7,0,0,1-.7.7H15.554a.7.7,0,0,1-.7-.7V4.453a.7.7,0,0,1,.7-.7h2.321a.7.7,0,0,1,.7.7Z" fill="#5dc1cf"/>
</svg>
