<svg xmlns="http://www.w3.org/2000/svg" width="20" height="20" viewBox="0 0 20 20">
  <g id="グループ_4134" data-name="グループ 4134" transform="translate(-1132.964 -615.464)">
    <rect id="長方形_4967" data-name="長方形 4967" width="2.828" height="25.456" transform="translate(1150.964 615.464) rotate(45)" fill="#fff"/>
    <rect id="長方形_4968" data-name="長方形 4968" width="2.828" height="25.456" transform="translate(1152.965 633.464) rotate(135)" fill="#fff"/>
  </g>
</svg>
