<svg xmlns="http://www.w3.org/2000/svg" width="7.061" height="12.707" viewBox="0 0 7.061 12.707">
  <path id="arrow" d="M209.851,336.044l6,6-6,6" transform="translate(-209.498 -335.691)" fill="none" stroke="#68a0fa" stroke-width="1"/>
</svg>
