<svg xmlns="http://www.w3.org/2000/svg" width="15" height="15" viewBox="0 0 15 15">
  <path id="_1005_sy_h" data-name="1005_sy_h" d="M18.937,11.619l1.788,3.075a1.068,1.068,0,0,0,.657.5l3.341.818a1.07,1.07,0,0,1,.763.729A1.131,1.131,0,0,1,25.28,17.8l-2.228,2.721a1.127,1.127,0,0,0-.251.806l.29,3.579a1.115,1.115,0,0,1-.431.98,1.017,1.017,0,0,1-1.028.122l-3.18-1.392a.992.992,0,0,0-.813,0l-3.18,1.392a1.017,1.017,0,0,1-1.028-.122A1.115,1.115,0,0,1,13,24.9l.29-3.579a1.125,1.125,0,0,0-.267-.818l-2.228-2.721a1.131,1.131,0,0,1-.206-1.057A1.07,1.07,0,0,1,11.352,16l3.341-.818a1.068,1.068,0,0,0,.657-.5l1.782-3.063a1.036,1.036,0,0,1,1.8,0Z" transform="translate(-10.537 -11.093)" fill="#facd68"/>
</svg>
