<svg xmlns="http://www.w3.org/2000/svg" width="12" height="8.948" viewBox="0 0 12 8.948">
  <path id="Icon_awesome-check" data-name="Icon awesome-check" d="M4.076,13.35l-3.9-3.9a.6.6,0,0,1,0-.849l.849-.849a.6.6,0,0,1,.849,0L4.5,10.38l5.627-5.627a.6.6,0,0,1,.849,0l.849.849a.6.6,0,0,1,0,.849l-6.9,6.9A.6.6,0,0,1,4.076,13.35Z" transform="translate(0 -4.577)" fill="#5dc1cf"/>
</svg>
