<svg xmlns="http://www.w3.org/2000/svg" width="15" height="15" viewBox="0 0 15 15">
  <g id="_Footprints" data-name=" Footprints" transform="translate(-6.381 0)">
    <path id="パス_844" data-name="パス 844" d="M170.269,4.484A2.121,2.121,0,0,0,172.747,2.9,2.121,2.121,0,0,0,171.88.084,2.121,2.121,0,0,0,169.4,1.672,2.121,2.121,0,0,0,170.269,4.484Z" transform="translate(-157.903 0)" fill="#5dc1cf"/>
    <path id="パス_845" data-name="パス 845" d="M20.341,66.518a2.092,2.092,0,0,0,1.551-2.454c-.11-1.271-.983-2.234-1.949-2.151a2.092,2.092,0,0,0-1.55,2.454C18.5,65.639,19.375,66.6,20.341,66.518Z" transform="translate(-11.649 -60.095)" fill="#5dc1cf"/>
    <path id="パス_846" data-name="パス 846" d="M317.2,77.5a2.432,2.432,0,1,0-.349-2.922A2.12,2.12,0,0,0,317.2,77.5Z" transform="translate(-300.61 -71.117)" fill="#5dc1cf"/>
    <path id="パス_847" data-name="パス 847" d="M363,241.64a2.4,2.4,0,1,0-.908,2.757A2.092,2.092,0,0,0,363,241.64Z" transform="translate(-341.86 -233.938)" fill="#5dc1cf"/>
    <path id="パス_848" data-name="パス 848" d="M15.115,203.919a2.234,2.234,0,0,0-3.392-1.6,15.973,15.973,0,0,1-1.733,1.21c-.6.24-2.268-.475-3.308,1.414A2.7,2.7,0,0,0,8,208.613c1.047.494,1.876.439,2.484.726s1.092.962,2.139,1.456a2.7,2.7,0,0,0,3.671-1.317c.8-2-.817-2.84-1.011-3.453A16.009,16.009,0,0,1,15.115,203.919Z" transform="translate(0 -196.066)" fill="#5dc1cf"/>
  </g>
</svg>
