<svg xmlns="http://www.w3.org/2000/svg" width="67" height="44" viewBox="0 0 67 44">
  <g id="グループ_204" data-name="グループ 204" transform="translate(-903.327 -158.899)">
    <g id="グループ_196" data-name="グループ 196" transform="translate(903.327 158.899)">
      <path id="パス_832" data-name="パス 832" d="M967.56,188.586a1.206,1.206,0,1,0,1.078.688A1.2,1.2,0,0,0,967.56,188.586Z" transform="translate(-924.696 -168.972)" fill="#5dc1cf"/>
      <path id="パス_833" data-name="パス 833" d="M934.713,190.177a1.2,1.2,0,1,0-1.195-1.195A1.2,1.2,0,0,0,934.713,190.177Z" transform="translate(-913.561 -168.701)" fill="#5dc1cf"/>
      <path id="パス_834" data-name="パス 834" d="M953.814,195.009c-1.584-3.388-3.593-7.379-7.337-6.916l-.362.046c-2.084.274-3.27.51-4.441-1.841a20.079,20.079,0,0,1-1.181-2.955c-.478-1.51-.274-1.47.8-2.458A10.448,10.448,0,0,0,943.715,178a8.466,8.466,0,0,1,2.879-2.782,9.835,9.835,0,0,1,2.894-1.15c.116-.7.274-1.615.431-2.411.66-3.348,1.184-3.085,3.1-.663,4.71,5.942,10.084,12.5,17.128,12.719a22,22,0,0,0-31.935-22.356,3.019,3.019,0,0,1-2.779,0,21.986,21.986,0,0,0-32.1,20.148c7.438-1.6,8.215-6.507,11.372-12.789,1.148-2.282,2.848-2.848,2.871.38l.019,2.793c1.918.227,4.832.768,4.832.768a8.1,8.1,0,0,1,4.56,2.806,6.421,6.421,0,0,1,.872,1.619c.574,1.559.6,1.622,2.771,2.5l3.788,1.533c2.118.858,2.284,1.738.847,3.461-2.407,2.887-3.5,5.107-7.172,5.014a10.98,10.98,0,0,1-1.423-.128c-7.583-1.165-10.986,4.233-12.412,10.458a38.292,38.292,0,0,0,5.123,2.16,22.053,22.053,0,0,0,16.051-1.63,3.017,3.017,0,0,1,2.781,0,22.074,22.074,0,0,0,18.809.654c-.009-.083-.016-.163-.025-.246A43.484,43.484,0,0,1,953.814,195.009Z" transform="translate(-903.327 -158.899)" fill="#5dc1cf"/>
    </g>
  </g>
</svg>
