<svg xmlns="http://www.w3.org/2000/svg" width="36.794" height="31.5" viewBox="0 0 36.794 31.5">
  <g id="icon02" transform="translate(-892.808 -797.501)">
    <path id="パス_63" data-name="パス 63" d="M922.96,828.251H899.448a5.861,5.861,0,0,1-5.89-5.8V803.925a5.8,5.8,0,0,1,5.82-5.673h23.614a5.806,5.806,0,0,1,5.86,5.717v18.478A5.863,5.863,0,0,1,922.96,828.251Zm-23.509-3.773h23.507a2.057,2.057,0,0,0,2.07-2.036V803.98a1.992,1.992,0,0,0-2-1.956h-23.57a2.014,2.014,0,0,0-2.071,1.934v18.486a2.056,2.056,0,0,0,2.067,2.032Z" transform="translate(0 0)" fill="#5dc1cf" stroke="#fff" stroke-width="1.5"/>
    <path id="パス_60" data-name="パス 60" d="M914.262,813.3h-3.671v3.712h-4.2V813.3h-3.671v-4.243H906.4v-3.712h4.2v3.712h3.671Z" transform="translate(2.712 2.071)" fill="#5dc1cf" stroke="#fff" stroke-width="1.5"/>
  </g>
</svg>
